{"items":[{"id":2919,"task_id":11,"plugin_id":null,"plugin_name":"深度端口指纹识别","title":"Port: 8000 | Service: http | App: Tengine httpd","severity":"info","target":"http://zhibao.dzzq.com.cn","detail":"Port: 8000 | Service: http | App: Tengine httpd","evidence":"","request_log":"","plugin_type":"python","created_at":"2026-03-07T02:00:26.705+08:00"},{"id":2918,"task_id":11,"plugin_id":null,"plugin_name":"深度端口指纹识别","title":"Port: 8003 | Service: http | App: Tengine httpd","severity":"info","target":"http://zhibao.dzzq.com.cn","detail":"Port: 8003 | Service: http | App: Tengine httpd","evidence":"","request_log":"","plugin_type":"python","created_at":"2026-03-07T02:00:26.7+08:00"},{"id":2917,"task_id":11,"plugin_id":null,"plugin_name":"深度端口指纹识别","title":"Port: 10001 | Service: http | App: Tengine httpd","severity":"info","target":"http://zhibao.dzzq.com.cn","detail":"Port: 10001 | Service: http | App: Tengine httpd","evidence":"","request_log":"","plugin_type":"python","created_at":"2026-03-07T02:00:26.695+08:00"},{"id":2916,"task_id":11,"plugin_id":null,"plugin_name":"深度端口指纹识别","title":"Port: 9999 | Service: http | App: Tengine httpd","severity":"info","target":"http://zhibao.dzzq.com.cn","detail":"Port: 9999 | Service: http | App: Tengine httpd","evidence":"","request_log":"","plugin_type":"python","created_at":"2026-03-07T02:00:21.373+08:00"},{"id":2915,"task_id":11,"plugin_id":null,"plugin_name":"深度端口指纹识别","title":"Port: 10000 | Service: http | App: Tengine httpd","severity":"info","target":"http://zhibao.dzzq.com.cn","detail":"Port: 10000 | Service: http | App: Tengine httpd","evidence":"","request_log":"","plugin_type":"python","created_at":"2026-03-07T02:00:21.37+08:00"},{"id":2914,"task_id":11,"plugin_id":null,"plugin_name":"深度端口指纹识别","title":"Port: 5900 | Service: unknown","severity":"info","target":"http://zhibao.dzzq.com.cn","detail":"Port: 5900 | Service: unknown","evidence":"","request_log":"","plugin_type":"python","created_at":"2026-03-07T02:00:21.367+08:00"},{"id":2913,"task_id":11,"plugin_id":null,"plugin_name":"深度端口指纹识别","title":"Port: 32767 | Service: unknown","severity":"info","target":"http://zhibao.dzzq.com.cn","detail":"Port: 32767 | Service: unknown","evidence":"","request_log":"","plugin_type":"python","created_at":"2026-03-07T02:00:21.364+08:00"},{"id":2912,"task_id":11,"plugin_id":null,"plugin_name":"深度端口指纹识别","title":"Port: 7800 | Service: http | App: Tengine httpd","severity":"info","target":"http://zhibao.dzzq.com.cn","detail":"Port: 7800 | Service: http | App: Tengine httpd","evidence":"","request_log":"","plugin_type":"python","created_at":"2026-03-07T02:00:21.361+08:00"},{"id":2911,"task_id":11,"plugin_id":null,"plugin_name":"深度端口指纹识别","title":"Port: 32766 | Service: unknown","severity":"info","target":"http://zhibao.dzzq.com.cn","detail":"Port: 32766 | Service: unknown","evidence":"","request_log":"","plugin_type":"python","created_at":"2026-03-07T02:00:21.358+08:00"},{"id":2910,"task_id":11,"plugin_id":null,"plugin_name":"深度端口指纹识别","title":"Port: 32758 | Service: unknown","severity":"info","target":"http://zhibao.dzzq.com.cn","detail":"Port: 32758 | Service: unknown","evidence":"","request_log":"","plugin_type":"python","created_at":"2026-03-07T02:00:21.355+08:00"},{"id":2909,"task_id":11,"plugin_id":null,"plugin_name":"深度端口指纹识别","title":"Port: 7777 | Service: http | App: Tengine httpd","severity":"info","target":"http://zhibao.dzzq.com.cn","detail":"Port: 7777 | Service: http | App: Tengine httpd","evidence":"","request_log":"","plugin_type":"python","created_at":"2026-03-07T02:00:21.352+08:00"},{"id":2908,"task_id":11,"plugin_id":null,"plugin_name":"深度端口指纹识别","title":"Port: 32763 | Service: unknown","severity":"info","target":"http://zhibao.dzzq.com.cn","detail":"Port: 32763 | Service: unknown","evidence":"","request_log":"","plugin_type":"python","created_at":"2026-03-07T02:00:21.348+08:00"},{"id":2907,"task_id":11,"plugin_id":null,"plugin_name":"深度端口指纹识别","title":"Port: 32762 | Service: unknown","severity":"info","target":"http://zhibao.dzzq.com.cn","detail":"Port: 32762 | Service: unknown","evidence":"","request_log":"","plugin_type":"python","created_at":"2026-03-07T02:00:21.345+08:00"},{"id":2906,"task_id":11,"plugin_id":null,"plugin_name":"深度端口指纹识别","title":"Port: 32761 | Service: unknown","severity":"info","target":"http://zhibao.dzzq.com.cn","detail":"Port: 32761 | Service: unknown","evidence":"","request_log":"","plugin_type":"python","created_at":"2026-03-07T02:00:21.342+08:00"},{"id":2905,"task_id":11,"plugin_id":null,"plugin_name":"深度端口指纹识别","title":"Port: 32760 | Service: unknown","severity":"info","target":"http://zhibao.dzzq.com.cn","detail":"Port: 32760 | Service: unknown","evidence":"","request_log":"","plugin_type":"python","created_at":"2026-03-07T02:00:21.339+08:00"},{"id":2904,"task_id":11,"plugin_id":null,"plugin_name":"深度端口指纹识别","title":"Port: 32759 | Service: unknown","severity":"info","target":"http://zhibao.dzzq.com.cn","detail":"Port: 32759 | Service: unknown","evidence":"","request_log":"","plugin_type":"python","created_at":"2026-03-07T02:00:21.335+08:00"},{"id":2903,"task_id":11,"plugin_id":null,"plugin_name":"深度端口指纹识别","title":"Port: 32754 | Service: unknown","severity":"info","target":"http://zhibao.dzzq.com.cn","detail":"Port: 32754 | Service: unknown","evidence":"","request_log":"","plugin_type":"python","created_at":"2026-03-07T02:00:21.331+08:00"},{"id":2902,"task_id":11,"plugin_id":null,"plugin_name":"深度端口指纹识别","title":"Port: 32756 | Service: unknown","severity":"info","target":"http://zhibao.dzzq.com.cn","detail":"Port: 32756 | Service: unknown","evidence":"","request_log":"","plugin_type":"python","created_at":"2026-03-07T02:00:21.328+08:00"},{"id":2901,"task_id":11,"plugin_id":null,"plugin_name":"深度端口指纹识别","title":"Port: 32755 | Service: unknown","severity":"info","target":"http://zhibao.dzzq.com.cn","detail":"Port: 32755 | Service: unknown","evidence":"","request_log":"","plugin_type":"python","created_at":"2026-03-07T02:00:21.324+08:00"},{"id":2900,"task_id":11,"plugin_id":null,"plugin_name":"深度端口指纹识别","title":"Port: 32752 | Service: unknown","severity":"info","target":"http://zhibao.dzzq.com.cn","detail":"Port: 32752 | Service: unknown","evidence":"","request_log":"","plugin_type":"python","created_at":"2026-03-07T02:00:21.32+08:00"}],"total":830,"page":2,"pages":42}