{"items":[{"id":1247,"task_id":9,"plugin_id":null,"plugin_name":"深度端口指纹识别","title":"Port: 9999 | Service: http | App: Tengine httpd","severity":"info","target":"http://zhibao.dzzq.com.cn","detail":"Port: 9999 | Service: http | App: Tengine httpd","evidence":"","request_log":"","plugin_type":"python","created_at":"2026-03-07T01:14:17.354+08:00"},{"id":1246,"task_id":9,"plugin_id":null,"plugin_name":"深度端口指纹识别","title":"Port: 32756 | Service: unknown","severity":"info","target":"http://zhibao.dzzq.com.cn","detail":"Port: 32756 | Service: unknown","evidence":"","request_log":"","plugin_type":"python","created_at":"2026-03-07T01:14:17.351+08:00"},{"id":1245,"task_id":9,"plugin_id":null,"plugin_name":"深度端口指纹识别","title":"Port: 3892 | Service: unknown","severity":"info","target":"http://zhibao.dzzq.com.cn","detail":"Port: 3892 | Service: unknown","evidence":"","request_log":"","plugin_type":"python","created_at":"2026-03-07T01:14:17.348+08:00"},{"id":1244,"task_id":9,"plugin_id":null,"plugin_name":"深度端口指纹识别","title":"Port: 10000 | Service: http | App: Tengine httpd","severity":"info","target":"http://zhibao.dzzq.com.cn","detail":"Port: 10000 | Service: http | App: Tengine httpd","evidence":"","request_log":"","plugin_type":"python","created_at":"2026-03-07T01:14:17.334+08:00"},{"id":1243,"task_id":9,"plugin_id":null,"plugin_name":"深度端口指纹识别","title":"Port: 32754 | Service: unknown","severity":"info","target":"http://zhibao.dzzq.com.cn","detail":"Port: 32754 | Service: unknown","evidence":"","request_log":"","plugin_type":"python","created_at":"2026-03-07T01:14:17.331+08:00"},{"id":1242,"task_id":9,"plugin_id":null,"plugin_name":"深度端口指纹识别","title":"Port: 32753 | Service: unknown","severity":"info","target":"http://zhibao.dzzq.com.cn","detail":"Port: 32753 | Service: unknown","evidence":"","request_log":"","plugin_type":"python","created_at":"2026-03-07T01:14:17.328+08:00"},{"id":1241,"task_id":9,"plugin_id":null,"plugin_name":"深度端口指纹识别","title":"Port: 32752 | Service: unknown","severity":"info","target":"http://zhibao.dzzq.com.cn","detail":"Port: 32752 | Service: unknown","evidence":"","request_log":"","plugin_type":"python","created_at":"2026-03-07T01:14:17.324+08:00"},{"id":1240,"task_id":9,"plugin_id":null,"plugin_name":"深度端口指纹识别","title":"Port: 32751 | Service: unknown","severity":"info","target":"http://zhibao.dzzq.com.cn","detail":"Port: 32751 | Service: unknown","evidence":"","request_log":"","plugin_type":"python","created_at":"2026-03-07T01:14:17.321+08:00"},{"id":1239,"task_id":9,"plugin_id":null,"plugin_name":"深度端口指纹识别","title":"Port: 2030 | Service: unknown","severity":"info","target":"http://zhibao.dzzq.com.cn","detail":"Port: 2030 | Service: unknown","evidence":"","request_log":"","plugin_type":"python","created_at":"2026-03-07T01:14:17.318+08:00"},{"id":1238,"task_id":9,"plugin_id":null,"plugin_name":"深度端口指纹识别","title":"Port: 2024 | Service: unknown","severity":"info","target":"http://zhibao.dzzq.com.cn","detail":"Port: 2024 | Service: unknown","evidence":"","request_log":"","plugin_type":"python","created_at":"2026-03-07T01:14:17.315+08:00"},{"id":1237,"task_id":9,"plugin_id":null,"plugin_name":"深度端口指纹识别","title":"Port: 6112 | Service: unknown","severity":"info","target":"http://zhibao.dzzq.com.cn","detail":"Port: 6112 | Service: unknown","evidence":"","request_log":"","plugin_type":"python","created_at":"2026-03-07T01:14:17.312+08:00"},{"id":1236,"task_id":9,"plugin_id":null,"plugin_name":"深度端口指纹识别","title":"Port: 2023 | Service: unknown","severity":"info","target":"http://zhibao.dzzq.com.cn","detail":"Port: 2023 | Service: unknown","evidence":"","request_log":"","plugin_type":"python","created_at":"2026-03-07T01:14:17.309+08:00"},{"id":1235,"task_id":9,"plugin_id":null,"plugin_name":"深度端口指纹识别","title":"Port: 22490 | Service: unknown","severity":"info","target":"http://zhibao.dzzq.com.cn","detail":"Port: 22490 | Service: unknown","evidence":"","request_log":"","plugin_type":"python","created_at":"2026-03-07T01:14:17.306+08:00"},{"id":1234,"task_id":9,"plugin_id":null,"plugin_name":"深度端口指纹识别","title":"Port: 2010 | Service: unknown","severity":"info","target":"http://zhibao.dzzq.com.cn","detail":"Port: 2010 | Service: unknown","evidence":"","request_log":"","plugin_type":"python","created_at":"2026-03-07T01:14:17.303+08:00"},{"id":1233,"task_id":9,"plugin_id":null,"plugin_name":"深度端口指纹识别","title":"Port: 2002 | Service: unknown","severity":"info","target":"http://zhibao.dzzq.com.cn","detail":"Port: 2002 | Service: unknown","evidence":"","request_log":"","plugin_type":"python","created_at":"2026-03-07T01:14:17.3+08:00"},{"id":1232,"task_id":9,"plugin_id":null,"plugin_name":"深度端口指纹识别","title":"Port: 2001 | Service: unknown","severity":"info","target":"http://zhibao.dzzq.com.cn","detail":"Port: 2001 | Service: unknown","evidence":"","request_log":"","plugin_type":"python","created_at":"2026-03-07T01:14:17.297+08:00"},{"id":1231,"task_id":9,"plugin_id":null,"plugin_name":"深度端口指纹识别","title":"Port: 6017 | Service: unknown","severity":"info","target":"http://zhibao.dzzq.com.cn","detail":"Port: 6017 | Service: unknown","evidence":"","request_log":"","plugin_type":"python","created_at":"2026-03-07T01:14:17.294+08:00"},{"id":1230,"task_id":9,"plugin_id":null,"plugin_name":"深度端口指纹识别","title":"Port: 2000 | Service: unknown","severity":"info","target":"http://zhibao.dzzq.com.cn","detail":"Port: 2000 | Service: unknown","evidence":"","request_log":"","plugin_type":"python","created_at":"2026-03-07T01:14:17.291+08:00"},{"id":1229,"task_id":9,"plugin_id":null,"plugin_name":"深度端口指纹识别","title":"Port: 50008 | Service: unknown","severity":"info","target":"http://zhibao.dzzq.com.cn","detail":"Port: 50008 | Service: unknown","evidence":"","request_log":"","plugin_type":"python","created_at":"2026-03-07T01:14:17.287+08:00"},{"id":1228,"task_id":9,"plugin_id":null,"plugin_name":"深度端口指纹识别","title":"Port: 4045 | Service: unknown","severity":"info","target":"http://zhibao.dzzq.com.cn","detail":"Port: 4045 | Service: unknown","evidence":"","request_log":"","plugin_type":"python","created_at":"2026-03-07T01:14:17.284+08:00"}],"total":826,"page":3,"pages":42}