{"items":[{"id":2009,"task_id":10,"plugin_id":null,"plugin_name":"深度端口指纹识别","title":"Port: 3940 | Service: unknown","severity":"info","target":"http://zhibao.dzzq.com.cn","detail":"Port: 3940 | Service: unknown","evidence":"","request_log":"","plugin_type":"python","created_at":"2026-03-07T01:30:20.478+08:00"},{"id":2008,"task_id":10,"plugin_id":null,"plugin_name":"深度端口指纹识别","title":"Port: 18264 | Service: unknown","severity":"info","target":"http://zhibao.dzzq.com.cn","detail":"Port: 18264 | Service: unknown","evidence":"","request_log":"","plugin_type":"python","created_at":"2026-03-07T01:30:20.474+08:00"},{"id":2007,"task_id":10,"plugin_id":null,"plugin_name":"深度端口指纹识别","title":"Port: 8010 | Service: unknown","severity":"info","target":"http://zhibao.dzzq.com.cn","detail":"Port: 8010 | Service: unknown","evidence":"","request_log":"","plugin_type":"python","created_at":"2026-03-07T01:30:20.47+08:00"},{"id":2006,"task_id":10,"plugin_id":null,"plugin_name":"深度端口指纹识别","title":"Port: 8007 | Service: unknown","severity":"info","target":"http://zhibao.dzzq.com.cn","detail":"Port: 8007 | Service: unknown","evidence":"","request_log":"","plugin_type":"python","created_at":"2026-03-07T01:30:20.466+08:00"},{"id":2005,"task_id":10,"plugin_id":null,"plugin_name":"深度端口指纹识别","title":"Port: 8004 | Service: unknown","severity":"info","target":"http://zhibao.dzzq.com.cn","detail":"Port: 8004 | Service: unknown","evidence":"","request_log":"","plugin_type":"python","created_at":"2026-03-07T01:30:20.462+08:00"},{"id":2004,"task_id":10,"plugin_id":null,"plugin_name":"深度端口指纹识别","title":"Port: 9932 | Service: unknown","severity":"info","target":"http://zhibao.dzzq.com.cn","detail":"Port: 9932 | Service: unknown","evidence":"","request_log":"","plugin_type":"python","created_at":"2026-03-07T01:30:20.458+08:00"},{"id":2003,"task_id":10,"plugin_id":null,"plugin_name":"深度端口指纹识别","title":"Port: 8005 | Service: unknown","severity":"info","target":"http://zhibao.dzzq.com.cn","detail":"Port: 8005 | Service: unknown","evidence":"","request_log":"","plugin_type":"python","created_at":"2026-03-07T01:30:20.454+08:00"},{"id":2002,"task_id":10,"plugin_id":null,"plugin_name":"深度端口指纹识别","title":"Port: 3784 | Service: unknown","severity":"info","target":"http://zhibao.dzzq.com.cn","detail":"Port: 3784 | Service: unknown","evidence":"","request_log":"","plugin_type":"python","created_at":"2026-03-07T01:30:20.45+08:00"},{"id":2001,"task_id":10,"plugin_id":null,"plugin_name":"深度端口指纹识别","title":"Port: 1505 | Service: unknown","severity":"info","target":"http://zhibao.dzzq.com.cn","detail":"Port: 1505 | Service: unknown","evidence":"","request_log":"","plugin_type":"python","created_at":"2026-03-07T01:30:20.446+08:00"},{"id":2000,"task_id":10,"plugin_id":null,"plugin_name":"深度端口指纹识别","title":"Port: 5600 | Service: unknown","severity":"info","target":"http://zhibao.dzzq.com.cn","detail":"Port: 5600 | Service: unknown","evidence":"","request_log":"","plugin_type":"python","created_at":"2026-03-07T01:30:20.442+08:00"},{"id":1999,"task_id":10,"plugin_id":null,"plugin_name":"深度端口指纹识别","title":"Port: 3900 | Service: unknown","severity":"info","target":"http://zhibao.dzzq.com.cn","detail":"Port: 3900 | Service: unknown","evidence":"","request_log":"","plugin_type":"python","created_at":"2026-03-07T01:30:20.439+08:00"},{"id":1998,"task_id":10,"plugin_id":null,"plugin_name":"深度端口指纹识别","title":"Port: 3892 | Service: unknown","severity":"info","target":"http://zhibao.dzzq.com.cn","detail":"Port: 3892 | Service: unknown","evidence":"","request_log":"","plugin_type":"python","created_at":"2026-03-07T01:30:20.435+08:00"},{"id":1997,"task_id":10,"plugin_id":null,"plugin_name":"深度端口指纹识别","title":"Port: 1105 | Service: unknown","severity":"info","target":"http://zhibao.dzzq.com.cn","detail":"Port: 1105 | Service: unknown","evidence":"","request_log":"","plugin_type":"python","created_at":"2026-03-07T01:30:20.431+08:00"},{"id":1996,"task_id":10,"plugin_id":null,"plugin_name":"深度端口指纹识别","title":"Port: 1830 | Service: unknown","severity":"info","target":"http://zhibao.dzzq.com.cn","detail":"Port: 1830 | Service: unknown","evidence":"","request_log":"","plugin_type":"python","created_at":"2026-03-07T01:30:20.427+08:00"},{"id":1995,"task_id":10,"plugin_id":null,"plugin_name":"深度端口指纹识别","title":"Port: 10031 | Service: unknown","severity":"info","target":"http://zhibao.dzzq.com.cn","detail":"Port: 10031 | Service: unknown","evidence":"","request_log":"","plugin_type":"python","created_at":"2026-03-07T01:30:20.423+08:00"},{"id":1994,"task_id":10,"plugin_id":null,"plugin_name":"深度端口指纹识别","title":"Port: 3872 | Service: unknown","severity":"info","target":"http://zhibao.dzzq.com.cn","detail":"Port: 3872 | Service: unknown","evidence":"","request_log":"","plugin_type":"python","created_at":"2026-03-07T01:30:20.418+08:00"},{"id":1993,"task_id":10,"plugin_id":null,"plugin_name":"深度端口指纹识别","title":"Port: 5801 | Service: unknown","severity":"info","target":"http://zhibao.dzzq.com.cn","detail":"Port: 5801 | Service: unknown","evidence":"","request_log":"","plugin_type":"python","created_at":"2026-03-07T01:30:20.413+08:00"},{"id":1992,"task_id":10,"plugin_id":null,"plugin_name":"深度端口指纹识别","title":"Port: 5580 | Service: unknown","severity":"info","target":"http://zhibao.dzzq.com.cn","detail":"Port: 5580 | Service: unknown","evidence":"","request_log":"","plugin_type":"python","created_at":"2026-03-07T01:30:20.408+08:00"},{"id":1991,"task_id":10,"plugin_id":null,"plugin_name":"深度端口指纹识别","title":"Port: 9991 | Service: unknown","severity":"info","target":"http://zhibao.dzzq.com.cn","detail":"Port: 9991 | Service: unknown","evidence":"","request_log":"","plugin_type":"python","created_at":"2026-03-07T01:30:20.403+08:00"},{"id":1990,"task_id":10,"plugin_id":null,"plugin_name":"深度端口指纹识别","title":"Port: 1443 | Service: unknown","severity":"info","target":"http://zhibao.dzzq.com.cn","detail":"Port: 1443 | Service: unknown","evidence":"","request_log":"","plugin_type":"python","created_at":"2026-03-07T01:30:20.399+08:00"}],"total":822,"page":6,"pages":42}