{"items":[{"id":2029,"task_id":10,"plugin_id":null,"plugin_name":"深度端口指纹识别","title":"Port: 6016 | Service: unknown","severity":"info","target":"http://zhibao.dzzq.com.cn","detail":"Port: 6016 | Service: unknown","evidence":"","request_log":"","plugin_type":"python","created_at":"2026-03-07T01:30:20.588+08:00"},{"id":2028,"task_id":10,"plugin_id":null,"plugin_name":"深度端口指纹识别","title":"Port: 6013 | Service: unknown","severity":"info","target":"http://zhibao.dzzq.com.cn","detail":"Port: 6013 | Service: unknown","evidence":"","request_log":"","plugin_type":"python","created_at":"2026-03-07T01:30:20.584+08:00"},{"id":2027,"task_id":10,"plugin_id":null,"plugin_name":"深度端口指纹识别","title":"Port: 6012 | Service: unknown","severity":"info","target":"http://zhibao.dzzq.com.cn","detail":"Port: 6012 | Service: unknown","evidence":"","request_log":"","plugin_type":"python","created_at":"2026-03-07T01:30:20.58+08:00"},{"id":2026,"task_id":10,"plugin_id":null,"plugin_name":"深度端口指纹识别","title":"Port: 6011 | Service: unknown","severity":"info","target":"http://zhibao.dzzq.com.cn","detail":"Port: 6011 | Service: unknown","evidence":"","request_log":"","plugin_type":"python","created_at":"2026-03-07T01:30:20.576+08:00"},{"id":2025,"task_id":10,"plugin_id":null,"plugin_name":"深度端口指纹识别","title":"Port: 6010 | Service: unknown","severity":"info","target":"http://zhibao.dzzq.com.cn","detail":"Port: 6010 | Service: unknown","evidence":"","request_log":"","plugin_type":"python","created_at":"2026-03-07T01:30:20.572+08:00"},{"id":2024,"task_id":10,"plugin_id":null,"plugin_name":"深度端口指纹识别","title":"Port: 6009 | Service: unknown","severity":"info","target":"http://zhibao.dzzq.com.cn","detail":"Port: 6009 | Service: unknown","evidence":"","request_log":"","plugin_type":"python","created_at":"2026-03-07T01:30:20.568+08:00"},{"id":2023,"task_id":10,"plugin_id":null,"plugin_name":"深度端口指纹识别","title":"Port: 17988 | Service: unknown","severity":"info","target":"http://zhibao.dzzq.com.cn","detail":"Port: 17988 | Service: unknown","evidence":"","request_log":"","plugin_type":"python","created_at":"2026-03-07T01:30:20.564+08:00"},{"id":2022,"task_id":10,"plugin_id":null,"plugin_name":"深度端口指纹识别","title":"Port: 6007 | Service: unknown","severity":"info","target":"http://zhibao.dzzq.com.cn","detail":"Port: 6007 | Service: unknown","evidence":"","request_log":"","plugin_type":"python","created_at":"2026-03-07T01:30:20.56+08:00"},{"id":2021,"task_id":10,"plugin_id":null,"plugin_name":"深度端口指纹识别","title":"Port: 6006 | Service: unknown","severity":"info","target":"http://zhibao.dzzq.com.cn","detail":"Port: 6006 | Service: unknown","evidence":"","request_log":"","plugin_type":"python","created_at":"2026-03-07T01:30:20.556+08:00"},{"id":2020,"task_id":10,"plugin_id":null,"plugin_name":"深度端口指纹识别","title":"Port: 6005 | Service: unknown","severity":"info","target":"http://zhibao.dzzq.com.cn","detail":"Port: 6005 | Service: unknown","evidence":"","request_log":"","plugin_type":"python","created_at":"2026-03-07T01:30:20.552+08:00"},{"id":2019,"task_id":10,"plugin_id":null,"plugin_name":"深度端口指纹识别","title":"Port: 9987 | Service: unknown","severity":"info","target":"http://zhibao.dzzq.com.cn","detail":"Port: 9987 | Service: unknown","evidence":"","request_log":"","plugin_type":"python","created_at":"2026-03-07T01:30:20.548+08:00"},{"id":2018,"task_id":10,"plugin_id":null,"plugin_name":"深度端口指纹识别","title":"Port: 1526 | Service: unknown","severity":"info","target":"http://zhibao.dzzq.com.cn","detail":"Port: 1526 | Service: unknown","evidence":"","request_log":"","plugin_type":"python","created_at":"2026-03-07T01:30:20.543+08:00"},{"id":2017,"task_id":10,"plugin_id":null,"plugin_name":"深度端口指纹识别","title":"Port: 6004 | Service: unknown","severity":"info","target":"http://zhibao.dzzq.com.cn","detail":"Port: 6004 | Service: unknown","evidence":"","request_log":"","plugin_type":"python","created_at":"2026-03-07T01:30:20.539+08:00"},{"id":2016,"task_id":10,"plugin_id":null,"plugin_name":"深度端口指纹识别","title":"Port: 6003 | Service: unknown","severity":"info","target":"http://zhibao.dzzq.com.cn","detail":"Port: 6003 | Service: unknown","evidence":"","request_log":"","plugin_type":"python","created_at":"2026-03-07T01:30:20.535+08:00"},{"id":2015,"task_id":10,"plugin_id":null,"plugin_name":"深度端口指纹识别","title":"Port: 28138 | Service: unknown","severity":"info","target":"http://zhibao.dzzq.com.cn","detail":"Port: 28138 | Service: unknown","evidence":"","request_log":"","plugin_type":"python","created_at":"2026-03-07T01:30:20.531+08:00"},{"id":2014,"task_id":10,"plugin_id":null,"plugin_name":"深度端口指纹识别","title":"Port: 6002 | Service: unknown","severity":"info","target":"http://zhibao.dzzq.com.cn","detail":"Port: 6002 | Service: unknown","evidence":"","request_log":"","plugin_type":"python","created_at":"2026-03-07T01:30:20.525+08:00"},{"id":2013,"task_id":10,"plugin_id":null,"plugin_name":"深度端口指纹识别","title":"Port: 6000 | Service: unknown","severity":"info","target":"http://zhibao.dzzq.com.cn","detail":"Port: 6000 | Service: unknown","evidence":"","request_log":"","plugin_type":"python","created_at":"2026-03-07T01:30:20.52+08:00"},{"id":2012,"task_id":10,"plugin_id":null,"plugin_name":"深度端口指纹识别","title":"Port: 5999 | Service: unknown","severity":"info","target":"http://zhibao.dzzq.com.cn","detail":"Port: 5999 | Service: unknown","evidence":"","request_log":"","plugin_type":"python","created_at":"2026-03-07T01:30:20.516+08:00"},{"id":2011,"task_id":10,"plugin_id":null,"plugin_name":"深度端口指纹识别","title":"Port: 26470 | Service: unknown","severity":"info","target":"http://zhibao.dzzq.com.cn","detail":"Port: 26470 | Service: unknown","evidence":"","request_log":"","plugin_type":"python","created_at":"2026-03-07T01:30:20.511+08:00"},{"id":2010,"task_id":10,"plugin_id":null,"plugin_name":"深度端口指纹识别","title":"Port: 5985 | Service: unknown","severity":"info","target":"http://zhibao.dzzq.com.cn","detail":"Port: 5985 | Service: unknown","evidence":"","request_log":"","plugin_type":"python","created_at":"2026-03-07T01:30:20.505+08:00"}],"total":822,"page":5,"pages":42}