{"items":[{"id":3625,"task_id":12,"plugin_id":null,"plugin_name":"深度端口指纹识别","title":"Port: 9930 | Service: unknown","severity":"info","target":"http://zhibao.dzzq.com.cn","detail":"Port: 9930 | Service: unknown","evidence":"","request_log":"","plugin_type":"python","created_at":"2026-03-07T02:50:57.822+08:00"},{"id":3624,"task_id":12,"plugin_id":null,"plugin_name":"深度端口指纹识别","title":"Port: 9931 | Service: unknown","severity":"info","target":"http://zhibao.dzzq.com.cn","detail":"Port: 9931 | Service: unknown","evidence":"","request_log":"","plugin_type":"python","created_at":"2026-03-07T02:50:57.819+08:00"},{"id":3623,"task_id":12,"plugin_id":null,"plugin_name":"深度端口指纹识别","title":"Port: 11965 | Service: unknown","severity":"info","target":"http://zhibao.dzzq.com.cn","detail":"Port: 11965 | Service: unknown","evidence":"","request_log":"","plugin_type":"python","created_at":"2026-03-07T02:50:57.807+08:00"},{"id":3622,"task_id":12,"plugin_id":null,"plugin_name":"深度端口指纹识别","title":"Port: 5802 | Service: unknown","severity":"info","target":"http://zhibao.dzzq.com.cn","detail":"Port: 5802 | Service: unknown","evidence":"","request_log":"","plugin_type":"python","created_at":"2026-03-07T02:50:57.805+08:00"},{"id":3621,"task_id":12,"plugin_id":null,"plugin_name":"深度端口指纹识别","title":"Port: 18086 | Service: unknown","severity":"info","target":"http://zhibao.dzzq.com.cn","detail":"Port: 18086 | Service: unknown","evidence":"","request_log":"","plugin_type":"python","created_at":"2026-03-07T02:50:57.802+08:00"},{"id":3620,"task_id":12,"plugin_id":null,"plugin_name":"深度端口指纹识别","title":"Port: 1687 | Service: unknown","severity":"info","target":"http://zhibao.dzzq.com.cn","detail":"Port: 1687 | Service: unknown","evidence":"","request_log":"","plugin_type":"python","created_at":"2026-03-07T02:50:57.799+08:00"},{"id":3619,"task_id":12,"plugin_id":null,"plugin_name":"深度端口指纹识别","title":"Port: 14000 | Service: unknown","severity":"info","target":"http://zhibao.dzzq.com.cn","detail":"Port: 14000 | Service: unknown","evidence":"","request_log":"","plugin_type":"python","created_at":"2026-03-07T02:50:57.797+08:00"},{"id":3618,"task_id":12,"plugin_id":null,"plugin_name":"深度端口指纹识别","title":"Port: 5801 | Service: unknown","severity":"info","target":"http://zhibao.dzzq.com.cn","detail":"Port: 5801 | Service: unknown","evidence":"","request_log":"","plugin_type":"python","created_at":"2026-03-07T02:50:57.794+08:00"},{"id":3617,"task_id":12,"plugin_id":null,"plugin_name":"深度端口指纹识别","title":"Port: 9875 | Service: unknown","severity":"info","target":"http://zhibao.dzzq.com.cn","detail":"Port: 9875 | Service: unknown","evidence":"","request_log":"","plugin_type":"python","created_at":"2026-03-07T02:50:57.791+08:00"},{"id":3616,"task_id":12,"plugin_id":null,"plugin_name":"深度端口指纹识别","title":"Port: 26256 | Service: unknown","severity":"info","target":"http://zhibao.dzzq.com.cn","detail":"Port: 26256 | Service: unknown","evidence":"","request_log":"","plugin_type":"python","created_at":"2026-03-07T02:50:57.788+08:00"},{"id":3615,"task_id":12,"plugin_id":null,"plugin_name":"深度端口指纹识别","title":"Port: 7801 | Service: unknown","severity":"info","target":"http://zhibao.dzzq.com.cn","detail":"Port: 7801 | Service: unknown","evidence":"","request_log":"","plugin_type":"python","created_at":"2026-03-07T02:50:57.785+08:00"},{"id":3614,"task_id":12,"plugin_id":null,"plugin_name":"深度端口指纹识别","title":"Port: 1702 | Service: unknown","severity":"info","target":"http://zhibao.dzzq.com.cn","detail":"Port: 1702 | Service: unknown","evidence":"","request_log":"","plugin_type":"python","created_at":"2026-03-07T02:50:57.783+08:00"},{"id":3613,"task_id":12,"plugin_id":null,"plugin_name":"深度端口指纹识别","title":"Port: 5803 | Service: unknown","severity":"info","target":"http://zhibao.dzzq.com.cn","detail":"Port: 5803 | Service: unknown","evidence":"","request_log":"","plugin_type":"python","created_at":"2026-03-07T02:50:57.78+08:00"},{"id":3612,"task_id":12,"plugin_id":null,"plugin_name":"深度端口指纹识别","title":"Port: 7776 | Service: unknown","severity":"info","target":"http://zhibao.dzzq.com.cn","detail":"Port: 7776 | Service: unknown","evidence":"","request_log":"","plugin_type":"python","created_at":"2026-03-07T02:50:57.777+08:00"},{"id":3611,"task_id":12,"plugin_id":null,"plugin_name":"深度端口指纹识别","title":"Port: 1666 | Service: unknown","severity":"info","target":"http://zhibao.dzzq.com.cn","detail":"Port: 1666 | Service: unknown","evidence":"","request_log":"","plugin_type":"python","created_at":"2026-03-07T02:50:57.774+08:00"},{"id":3610,"task_id":12,"plugin_id":null,"plugin_name":"深度端口指纹识别","title":"Port: 10099 | Service: unknown","severity":"info","target":"http://zhibao.dzzq.com.cn","detail":"Port: 10099 | Service: unknown","evidence":"","request_log":"","plugin_type":"python","created_at":"2026-03-07T02:50:57.771+08:00"},{"id":3609,"task_id":12,"plugin_id":null,"plugin_name":"深度端口指纹识别","title":"Port: 3175 | Service: unknown","severity":"info","target":"http://zhibao.dzzq.com.cn","detail":"Port: 3175 | Service: unknown","evidence":"","request_log":"","plugin_type":"python","created_at":"2026-03-07T02:50:57.769+08:00"},{"id":3608,"task_id":12,"plugin_id":null,"plugin_name":"深度端口指纹识别","title":"Port: 16000 | Service: unknown","severity":"info","target":"http://zhibao.dzzq.com.cn","detail":"Port: 16000 | Service: unknown","evidence":"","request_log":"","plugin_type":"python","created_at":"2026-03-07T02:50:57.766+08:00"},{"id":3607,"task_id":12,"plugin_id":null,"plugin_name":"深度端口指纹识别","title":"Port: 3689 | Service: unknown","severity":"info","target":"http://zhibao.dzzq.com.cn","detail":"Port: 3689 | Service: unknown","evidence":"","request_log":"","plugin_type":"python","created_at":"2026-03-07T02:50:57.763+08:00"},{"id":3606,"task_id":12,"plugin_id":null,"plugin_name":"深度端口指纹识别","title":"Port: 7780 | Service: unknown","severity":"info","target":"http://zhibao.dzzq.com.cn","detail":"Port: 7780 | Service: unknown","evidence":"","request_log":"","plugin_type":"python","created_at":"2026-03-07T02:50:57.76+08:00"}],"total":826,"page":8,"pages":42}