{"items":[{"id":1989,"task_id":10,"plugin_id":null,"plugin_name":"深度端口指纹识别","title":"Port: 18182 | Service: unknown","severity":"info","target":"http://zhibao.dzzq.com.cn","detail":"Port: 18182 | Service: unknown","evidence":"","request_log":"","plugin_type":"python","created_at":"2026-03-07T01:30:20.384+08:00"},{"id":1988,"task_id":10,"plugin_id":null,"plugin_name":"深度端口指纹识别","title":"Port: 51234 | Service: unknown","severity":"info","target":"http://zhibao.dzzq.com.cn","detail":"Port: 51234 | Service: unknown","evidence":"","request_log":"","plugin_type":"python","created_at":"2026-03-07T01:30:20.381+08:00"},{"id":1987,"task_id":10,"plugin_id":null,"plugin_name":"深度端口指纹识别","title":"Port: 5550 | Service: unknown","severity":"info","target":"http://zhibao.dzzq.com.cn","detail":"Port: 5550 | Service: unknown","evidence":"","request_log":"","plugin_type":"python","created_at":"2026-03-07T01:30:20.379+08:00"},{"id":1986,"task_id":10,"plugin_id":null,"plugin_name":"深度端口指纹识别","title":"Port: 30444 | Service: unknown","severity":"info","target":"http://zhibao.dzzq.com.cn","detail":"Port: 30444 | Service: unknown","evidence":"","request_log":"","plugin_type":"python","created_at":"2026-03-07T01:30:20.376+08:00"},{"id":1985,"task_id":10,"plugin_id":null,"plugin_name":"深度端口指纹识别","title":"Port: 10098 | Service: unknown","severity":"info","target":"http://zhibao.dzzq.com.cn","detail":"Port: 10098 | Service: unknown","evidence":"","request_log":"","plugin_type":"python","created_at":"2026-03-07T01:30:20.373+08:00"},{"id":1984,"task_id":10,"plugin_id":null,"plugin_name":"深度端口指纹识别","title":"Port: 1521 | Service: unknown","severity":"info","target":"http://zhibao.dzzq.com.cn","detail":"Port: 1521 | Service: unknown","evidence":"","request_log":"","plugin_type":"python","created_at":"2026-03-07T01:30:20.37+08:00"},{"id":1983,"task_id":10,"plugin_id":null,"plugin_name":"深度端口指纹识别","title":"Port: 1763 | Service: unknown","severity":"info","target":"http://zhibao.dzzq.com.cn","detail":"Port: 1763 | Service: unknown","evidence":"","request_log":"","plugin_type":"python","created_at":"2026-03-07T01:30:20.368+08:00"},{"id":1982,"task_id":10,"plugin_id":null,"plugin_name":"深度端口指纹识别","title":"Port: 12000 | Service: unknown","severity":"info","target":"http://zhibao.dzzq.com.cn","detail":"Port: 12000 | Service: unknown","evidence":"","request_log":"","plugin_type":"python","created_at":"2026-03-07T01:30:20.365+08:00"},{"id":1981,"task_id":10,"plugin_id":null,"plugin_name":"深度端口指纹识别","title":"Port: 1755 | Service: unknown","severity":"info","target":"http://zhibao.dzzq.com.cn","detail":"Port: 1755 | Service: unknown","evidence":"","request_log":"","plugin_type":"python","created_at":"2026-03-07T01:30:20.362+08:00"},{"id":1980,"task_id":10,"plugin_id":null,"plugin_name":"深度端口指纹识别","title":"Port: 1754 | Service: unknown","severity":"info","target":"http://zhibao.dzzq.com.cn","detail":"Port: 1754 | Service: unknown","evidence":"","request_log":"","plugin_type":"python","created_at":"2026-03-07T01:30:20.358+08:00"},{"id":1979,"task_id":10,"plugin_id":null,"plugin_name":"深度端口指纹识别","title":"Port: 50008 | Service: unknown","severity":"info","target":"http://zhibao.dzzq.com.cn","detail":"Port: 50008 | Service: unknown","evidence":"","request_log":"","plugin_type":"python","created_at":"2026-03-07T01:30:20.355+08:00"},{"id":1978,"task_id":10,"plugin_id":null,"plugin_name":"深度端口指纹识别","title":"Port: 7887 | Service: unknown","severity":"info","target":"http://zhibao.dzzq.com.cn","detail":"Port: 7887 | Service: unknown","evidence":"","request_log":"","plugin_type":"python","created_at":"2026-03-07T01:30:20.351+08:00"},{"id":1977,"task_id":10,"plugin_id":null,"plugin_name":"深度端口指纹识别","title":"Port: 3790 | Service: unknown","severity":"info","target":"http://zhibao.dzzq.com.cn","detail":"Port: 3790 | Service: unknown","evidence":"","request_log":"","plugin_type":"python","created_at":"2026-03-07T01:30:20.348+08:00"},{"id":1976,"task_id":10,"plugin_id":null,"plugin_name":"深度端口指纹识别","title":"Port: 7890 | Service: unknown","severity":"info","target":"http://zhibao.dzzq.com.cn","detail":"Port: 7890 | Service: unknown","evidence":"","request_log":"","plugin_type":"python","created_at":"2026-03-07T01:30:20.345+08:00"},{"id":1975,"task_id":10,"plugin_id":null,"plugin_name":"深度端口指纹识别","title":"Port: 9934 | Service: unknown","severity":"info","target":"http://zhibao.dzzq.com.cn","detail":"Port: 9934 | Service: unknown","evidence":"","request_log":"","plugin_type":"python","created_at":"2026-03-07T01:30:20.341+08:00"},{"id":1974,"task_id":10,"plugin_id":null,"plugin_name":"深度端口指纹识别","title":"Port: 9933 | Service: unknown","severity":"info","target":"http://zhibao.dzzq.com.cn","detail":"Port: 9933 | Service: unknown","evidence":"","request_log":"","plugin_type":"python","created_at":"2026-03-07T01:30:20.338+08:00"},{"id":1973,"task_id":10,"plugin_id":null,"plugin_name":"深度端口指纹识别","title":"Port: 9930 | Service: unknown","severity":"info","target":"http://zhibao.dzzq.com.cn","detail":"Port: 9930 | Service: unknown","evidence":"","request_log":"","plugin_type":"python","created_at":"2026-03-07T01:30:20.335+08:00"},{"id":1972,"task_id":10,"plugin_id":null,"plugin_name":"深度端口指纹识别","title":"Port: 7878 | Service: unknown","severity":"info","target":"http://zhibao.dzzq.com.cn","detail":"Port: 7878 | Service: unknown","evidence":"","request_log":"","plugin_type":"python","created_at":"2026-03-07T01:30:20.332+08:00"},{"id":1971,"task_id":10,"plugin_id":null,"plugin_name":"深度端口指纹识别","title":"Port: 11965 | Service: unknown","severity":"info","target":"http://zhibao.dzzq.com.cn","detail":"Port: 11965 | Service: unknown","evidence":"","request_log":"","plugin_type":"python","created_at":"2026-03-07T01:30:20.329+08:00"},{"id":1970,"task_id":10,"plugin_id":null,"plugin_name":"深度端口指纹识别","title":"Port: 1720 | Service: unknown","severity":"info","target":"http://zhibao.dzzq.com.cn","detail":"Port: 1720 | Service: unknown","evidence":"","request_log":"","plugin_type":"python","created_at":"2026-03-07T01:30:20.327+08:00"}],"total":822,"page":7,"pages":42}