{"items":[{"id":2109,"task_id":10,"plugin_id":null,"plugin_name":"深度端口指纹识别","title":"Port: 32767 | Service: unknown","severity":"info","target":"http://zhibao.dzzq.com.cn","detail":"Port: 32767 | Service: unknown","evidence":"","request_log":"","plugin_type":"python","created_at":"2026-03-07T01:30:26.381+08:00"},{"id":2108,"task_id":10,"plugin_id":null,"plugin_name":"深度端口指纹识别","title":"Port: 8088 | Service: http | App: Tengine httpd","severity":"info","target":"http://zhibao.dzzq.com.cn","detail":"Port: 8088 | Service: http | App: Tengine httpd","evidence":"","request_log":"","plugin_type":"python","created_at":"2026-03-07T01:30:26.378+08:00"},{"id":2107,"task_id":10,"plugin_id":null,"plugin_name":"深度端口指纹识别","title":"Port: 8181 | Service: http | App: Tengine httpd","severity":"info","target":"http://zhibao.dzzq.com.cn","detail":"Port: 8181 | Service: http | App: Tengine httpd","evidence":"","request_log":"","plugin_type":"python","created_at":"2026-03-07T01:30:26.375+08:00"},{"id":2106,"task_id":10,"plugin_id":null,"plugin_name":"深度端口指纹识别","title":"Port: 8118 | Service: unknown","severity":"info","target":"http://zhibao.dzzq.com.cn","detail":"Port: 8118 | Service: unknown","evidence":"","request_log":"","plugin_type":"python","created_at":"2026-03-07T01:30:26.372+08:00"},{"id":2105,"task_id":10,"plugin_id":null,"plugin_name":"深度端口指纹识别","title":"Port: 6050 | Service: unknown","severity":"info","target":"http://zhibao.dzzq.com.cn","detail":"Port: 6050 | Service: unknown","evidence":"","request_log":"","plugin_type":"python","created_at":"2026-03-07T01:30:26.369+08:00"},{"id":2104,"task_id":10,"plugin_id":null,"plugin_name":"深度端口指纹识别","title":"Port: 8091 | Service: http | App: Tengine httpd","severity":"info","target":"http://zhibao.dzzq.com.cn","detail":"Port: 8091 | Service: http | App: Tengine httpd","evidence":"","request_log":"","plugin_type":"python","created_at":"2026-03-07T01:30:26.366+08:00"},{"id":2103,"task_id":10,"plugin_id":null,"plugin_name":"深度端口指纹识别","title":"Port: 8087 | Service: http | App: Tengine httpd","severity":"info","target":"http://zhibao.dzzq.com.cn","detail":"Port: 8087 | Service: http | App: Tengine httpd","evidence":"","request_log":"","plugin_type":"python","created_at":"2026-03-07T01:30:26.363+08:00"},{"id":2102,"task_id":10,"plugin_id":null,"plugin_name":"深度端口指纹识别","title":"Port: 8081 | Service: http | App: Tengine httpd","severity":"info","target":"http://zhibao.dzzq.com.cn","detail":"Port: 8081 | Service: http | App: Tengine httpd","evidence":"","request_log":"","plugin_type":"python","created_at":"2026-03-07T01:30:26.36+08:00"},{"id":2101,"task_id":10,"plugin_id":null,"plugin_name":"深度端口指纹识别","title":"Port: 8083 | Service: http | App: Tengine httpd","severity":"info","target":"http://zhibao.dzzq.com.cn","detail":"Port: 8083 | Service: http | App: Tengine httpd","evidence":"","request_log":"","plugin_type":"python","created_at":"2026-03-07T01:30:26.356+08:00"},{"id":2100,"task_id":10,"plugin_id":null,"plugin_name":"深度端口指纹识别","title":"Port: 8080 | Service: http | App: Tengine httpd","severity":"info","target":"http://zhibao.dzzq.com.cn","detail":"Port: 8080 | Service: http | App: Tengine httpd","evidence":"","request_log":"","plugin_type":"python","created_at":"2026-03-07T01:30:26.353+08:00"},{"id":2099,"task_id":10,"plugin_id":null,"plugin_name":"深度端口指纹识别","title":"Port: 8085 | Service: http | App: Tengine httpd","severity":"info","target":"http://zhibao.dzzq.com.cn","detail":"Port: 8085 | Service: http | App: Tengine httpd","evidence":"","request_log":"","plugin_type":"python","created_at":"2026-03-07T01:30:26.349+08:00"},{"id":2098,"task_id":10,"plugin_id":null,"plugin_name":"深度端口指纹识别","title":"Port: 8084 | Service: http | App: Tengine httpd","severity":"info","target":"http://zhibao.dzzq.com.cn","detail":"Port: 8084 | Service: http | App: Tengine httpd","evidence":"","request_log":"","plugin_type":"python","created_at":"2026-03-07T01:30:26.345+08:00"},{"id":2097,"task_id":10,"plugin_id":null,"plugin_name":"深度端口指纹识别","title":"Port: 6014 | Service: unknown","severity":"info","target":"http://zhibao.dzzq.com.cn","detail":"Port: 6014 | Service: unknown","evidence":"","request_log":"","plugin_type":"python","created_at":"2026-03-07T01:30:26.341+08:00"},{"id":2096,"task_id":10,"plugin_id":null,"plugin_name":"深度端口指纹识别","title":"Port: 6008 | Service: unknown","severity":"info","target":"http://zhibao.dzzq.com.cn","detail":"Port: 6008 | Service: unknown","evidence":"","request_log":"","plugin_type":"python","created_at":"2026-03-07T01:30:26.337+08:00"},{"id":2095,"task_id":10,"plugin_id":null,"plugin_name":"深度端口指纹识别","title":"Port: 8082 | Service: http | App: Tengine httpd","severity":"info","target":"http://zhibao.dzzq.com.cn","detail":"Port: 8082 | Service: http | App: Tengine httpd","evidence":"","request_log":"","plugin_type":"python","created_at":"2026-03-07T01:30:26.333+08:00"},{"id":2094,"task_id":10,"plugin_id":null,"plugin_name":"深度端口指纹识别","title":"Port: 8001 | Service: http | App: Tengine httpd","severity":"info","target":"http://zhibao.dzzq.com.cn","detail":"Port: 8001 | Service: http | App: Tengine httpd","evidence":"","request_log":"","plugin_type":"python","created_at":"2026-03-07T01:30:26.329+08:00"},{"id":2093,"task_id":10,"plugin_id":null,"plugin_name":"深度端口指纹识别","title":"Port: 10000 | Service: http | App: Tengine httpd","severity":"info","target":"http://zhibao.dzzq.com.cn","detail":"Port: 10000 | Service: http | App: Tengine httpd","evidence":"","request_log":"","plugin_type":"python","created_at":"2026-03-07T01:30:26.324+08:00"},{"id":2092,"task_id":10,"plugin_id":null,"plugin_name":"深度端口指纹识别","title":"Port: 10080 | Service: http | App: Tengine httpd","severity":"info","target":"http://zhibao.dzzq.com.cn","detail":"Port: 10080 | Service: http | App: Tengine httpd","evidence":"","request_log":"","plugin_type":"python","created_at":"2026-03-07T01:30:26.319+08:00"},{"id":2091,"task_id":10,"plugin_id":null,"plugin_name":"深度端口指纹识别","title":"Port: 8002 | Service: http | App: Tengine httpd","severity":"info","target":"http://zhibao.dzzq.com.cn","detail":"Port: 8002 | Service: http | App: Tengine httpd","evidence":"","request_log":"","plugin_type":"python","created_at":"2026-03-07T01:30:26.314+08:00"},{"id":2090,"task_id":10,"plugin_id":null,"plugin_name":"深度端口指纹识别","title":"Port: 6001 | Service: http | App: Tengine httpd","severity":"info","target":"http://zhibao.dzzq.com.cn","detail":"Port: 6001 | Service: http | App: Tengine httpd","evidence":"","request_log":"","plugin_type":"python","created_at":"2026-03-07T01:30:26.309+08:00"}],"total":822,"page":1,"pages":42}