{"items":[{"id":3725,"task_id":12,"plugin_id":null,"plugin_name":"深度端口指纹识别","title":"Port: 9443 | Service: http | App: Tengine httpd","severity":"info","target":"http://zhibao.dzzq.com.cn","detail":"Port: 9443 | Service: http | App: Tengine httpd","evidence":"","request_log":"","plugin_type":"python","created_at":"2026-03-07T02:50:58.148+08:00"},{"id":3724,"task_id":12,"plugin_id":null,"plugin_name":"深度端口指纹识别","title":"Port: 32760 | Service: unknown","severity":"info","target":"http://zhibao.dzzq.com.cn","detail":"Port: 32760 | Service: unknown","evidence":"","request_log":"","plugin_type":"python","created_at":"2026-03-07T02:50:58.145+08:00"},{"id":3723,"task_id":12,"plugin_id":null,"plugin_name":"深度端口指纹识别","title":"Port: 32756 | Service: unknown","severity":"info","target":"http://zhibao.dzzq.com.cn","detail":"Port: 32756 | Service: unknown","evidence":"","request_log":"","plugin_type":"python","created_at":"2026-03-07T02:50:58.133+08:00"},{"id":3722,"task_id":12,"plugin_id":null,"plugin_name":"深度端口指纹识别","title":"Port: 32759 | Service: unknown","severity":"info","target":"http://zhibao.dzzq.com.cn","detail":"Port: 32759 | Service: unknown","evidence":"","request_log":"","plugin_type":"python","created_at":"2026-03-07T02:50:58.13+08:00"},{"id":3721,"task_id":12,"plugin_id":null,"plugin_name":"深度端口指纹识别","title":"Port: 32754 | Service: unknown","severity":"info","target":"http://zhibao.dzzq.com.cn","detail":"Port: 32754 | Service: unknown","evidence":"","request_log":"","plugin_type":"python","created_at":"2026-03-07T02:50:58.127+08:00"},{"id":3720,"task_id":12,"plugin_id":null,"plugin_name":"深度端口指纹识别","title":"Port: 32755 | Service: unknown","severity":"info","target":"http://zhibao.dzzq.com.cn","detail":"Port: 32755 | Service: unknown","evidence":"","request_log":"","plugin_type":"python","created_at":"2026-03-07T02:50:58.124+08:00"},{"id":3719,"task_id":12,"plugin_id":null,"plugin_name":"深度端口指纹识别","title":"Port: 32750 | Service: unknown","severity":"info","target":"http://zhibao.dzzq.com.cn","detail":"Port: 32750 | Service: unknown","evidence":"","request_log":"","plugin_type":"python","created_at":"2026-03-07T02:50:58.121+08:00"},{"id":3718,"task_id":12,"plugin_id":null,"plugin_name":"深度端口指纹识别","title":"Port: 32752 | Service: unknown","severity":"info","target":"http://zhibao.dzzq.com.cn","detail":"Port: 32752 | Service: unknown","evidence":"","request_log":"","plugin_type":"python","created_at":"2026-03-07T02:50:58.118+08:00"},{"id":3717,"task_id":12,"plugin_id":null,"plugin_name":"深度端口指纹识别","title":"Port: 32753 | Service: unknown","severity":"info","target":"http://zhibao.dzzq.com.cn","detail":"Port: 32753 | Service: unknown","evidence":"","request_log":"","plugin_type":"python","created_at":"2026-03-07T02:50:58.115+08:00"},{"id":3716,"task_id":12,"plugin_id":null,"plugin_name":"深度端口指纹识别","title":"Port: 32751 | Service: unknown","severity":"info","target":"http://zhibao.dzzq.com.cn","detail":"Port: 32751 | Service: unknown","evidence":"","request_log":"","plugin_type":"python","created_at":"2026-03-07T02:50:58.112+08:00"},{"id":3715,"task_id":12,"plugin_id":null,"plugin_name":"深度端口指纹识别","title":"Port: 2023 | Service: unknown","severity":"info","target":"http://zhibao.dzzq.com.cn","detail":"Port: 2023 | Service: unknown","evidence":"","request_log":"","plugin_type":"python","created_at":"2026-03-07T02:50:58.109+08:00"},{"id":3714,"task_id":12,"plugin_id":null,"plugin_name":"深度端口指纹识别","title":"Port: 2030 | Service: unknown","severity":"info","target":"http://zhibao.dzzq.com.cn","detail":"Port: 2030 | Service: unknown","evidence":"","request_log":"","plugin_type":"python","created_at":"2026-03-07T02:50:58.106+08:00"},{"id":3713,"task_id":12,"plugin_id":null,"plugin_name":"深度端口指纹识别","title":"Port: 6112 | Service: unknown","severity":"info","target":"http://zhibao.dzzq.com.cn","detail":"Port: 6112 | Service: unknown","evidence":"","request_log":"","plugin_type":"python","created_at":"2026-03-07T02:50:58.103+08:00"},{"id":3712,"task_id":12,"plugin_id":null,"plugin_name":"深度端口指纹识别","title":"Port: 2010 | Service: unknown","severity":"info","target":"http://zhibao.dzzq.com.cn","detail":"Port: 2010 | Service: unknown","evidence":"","request_log":"","plugin_type":"python","created_at":"2026-03-07T02:50:58.1+08:00"},{"id":3711,"task_id":12,"plugin_id":null,"plugin_name":"深度端口指纹识别","title":"Port: 2024 | Service: unknown","severity":"info","target":"http://zhibao.dzzq.com.cn","detail":"Port: 2024 | Service: unknown","evidence":"","request_log":"","plugin_type":"python","created_at":"2026-03-07T02:50:58.096+08:00"},{"id":3710,"task_id":12,"plugin_id":null,"plugin_name":"深度端口指纹识别","title":"Port: 22490 | Service: unknown","severity":"info","target":"http://zhibao.dzzq.com.cn","detail":"Port: 22490 | Service: unknown","evidence":"","request_log":"","plugin_type":"python","created_at":"2026-03-07T02:50:58.093+08:00"},{"id":3709,"task_id":12,"plugin_id":null,"plugin_name":"深度端口指纹识别","title":"Port: 2002 | Service: unknown","severity":"info","target":"http://zhibao.dzzq.com.cn","detail":"Port: 2002 | Service: unknown","evidence":"","request_log":"","plugin_type":"python","created_at":"2026-03-07T02:50:58.09+08:00"},{"id":3708,"task_id":12,"plugin_id":null,"plugin_name":"深度端口指纹识别","title":"Port: 8138 | Service: unknown","severity":"info","target":"http://zhibao.dzzq.com.cn","detail":"Port: 8138 | Service: unknown","evidence":"","request_log":"","plugin_type":"python","created_at":"2026-03-07T02:50:58.087+08:00"},{"id":3707,"task_id":12,"plugin_id":null,"plugin_name":"深度端口指纹识别","title":"Port: 4045 | Service: unknown","severity":"info","target":"http://zhibao.dzzq.com.cn","detail":"Port: 4045 | Service: unknown","evidence":"","request_log":"","plugin_type":"python","created_at":"2026-03-07T02:50:58.085+08:00"},{"id":3706,"task_id":12,"plugin_id":null,"plugin_name":"深度端口指纹识别","title":"Port: 2001 | Service: unknown","severity":"info","target":"http://zhibao.dzzq.com.cn","detail":"Port: 2001 | Service: unknown","evidence":"","request_log":"","plugin_type":"python","created_at":"2026-03-07T02:50:58.082+08:00"}],"total":826,"page":3,"pages":42}