{"items":[{"id":3645,"task_id":12,"plugin_id":null,"plugin_name":"深度端口指纹识别","title":"Port: 1755 | Service: unknown","severity":"info","target":"http://zhibao.dzzq.com.cn","detail":"Port: 1755 | Service: unknown","evidence":"","request_log":"","plugin_type":"python","created_at":"2026-03-07T02:50:57.888+08:00"},{"id":3644,"task_id":12,"plugin_id":null,"plugin_name":"深度端口指纹识别","title":"Port: 1763 | Service: unknown","severity":"info","target":"http://zhibao.dzzq.com.cn","detail":"Port: 1763 | Service: unknown","evidence":"","request_log":"","plugin_type":"python","created_at":"2026-03-07T02:50:57.884+08:00"},{"id":3643,"task_id":12,"plugin_id":null,"plugin_name":"深度端口指纹识别","title":"Port: 1762 | Service: unknown","severity":"info","target":"http://zhibao.dzzq.com.cn","detail":"Port: 1762 | Service: unknown","evidence":"","request_log":"","plugin_type":"python","created_at":"2026-03-07T02:50:57.872+08:00"},{"id":3642,"task_id":12,"plugin_id":null,"plugin_name":"深度端口指纹识别","title":"Port: 1761 | Service: unknown","severity":"info","target":"http://zhibao.dzzq.com.cn","detail":"Port: 1761 | Service: unknown","evidence":"","request_log":"","plugin_type":"python","created_at":"2026-03-07T02:50:57.87+08:00"},{"id":3641,"task_id":12,"plugin_id":null,"plugin_name":"深度端口指纹识别","title":"Port: 12000 | Service: unknown","severity":"info","target":"http://zhibao.dzzq.com.cn","detail":"Port: 12000 | Service: unknown","evidence":"","request_log":"","plugin_type":"python","created_at":"2026-03-07T02:50:57.868+08:00"},{"id":3640,"task_id":12,"plugin_id":null,"plugin_name":"深度端口指纹识别","title":"Port: 1754 | Service: unknown","severity":"info","target":"http://zhibao.dzzq.com.cn","detail":"Port: 1754 | Service: unknown","evidence":"","request_log":"","plugin_type":"python","created_at":"2026-03-07T02:50:57.865+08:00"},{"id":3639,"task_id":12,"plugin_id":null,"plugin_name":"深度端口指纹识别","title":"Port: 1748 | Service: unknown","severity":"info","target":"http://zhibao.dzzq.com.cn","detail":"Port: 1748 | Service: unknown","evidence":"","request_log":"","plugin_type":"python","created_at":"2026-03-07T02:50:57.862+08:00"},{"id":3638,"task_id":12,"plugin_id":null,"plugin_name":"深度端口指纹识别","title":"Port: 5000 | Service: http | App: Tengine httpd","severity":"info","target":"http://zhibao.dzzq.com.cn","detail":"Port: 5000 | Service: http | App: Tengine httpd","evidence":"","request_log":"","plugin_type":"python","created_at":"2026-03-07T02:50:57.86+08:00"},{"id":3637,"task_id":12,"plugin_id":null,"plugin_name":"深度端口指纹识别","title":"Port: 50008 | Service: unknown","severity":"info","target":"http://zhibao.dzzq.com.cn","detail":"Port: 50008 | Service: unknown","evidence":"","request_log":"","plugin_type":"python","created_at":"2026-03-07T02:50:57.857+08:00"},{"id":3636,"task_id":12,"plugin_id":null,"plugin_name":"深度端口指纹识别","title":"Port: 3790 | Service: unknown","severity":"info","target":"http://zhibao.dzzq.com.cn","detail":"Port: 3790 | Service: unknown","evidence":"","request_log":"","plugin_type":"python","created_at":"2026-03-07T02:50:57.854+08:00"},{"id":3635,"task_id":12,"plugin_id":null,"plugin_name":"深度端口指纹识别","title":"Port: 9933 | Service: unknown","severity":"info","target":"http://zhibao.dzzq.com.cn","detail":"Port: 9933 | Service: unknown","evidence":"","request_log":"","plugin_type":"python","created_at":"2026-03-07T02:50:57.851+08:00"},{"id":3634,"task_id":12,"plugin_id":null,"plugin_name":"深度端口指纹识别","title":"Port: 9932 | Service: unknown","severity":"info","target":"http://zhibao.dzzq.com.cn","detail":"Port: 9932 | Service: unknown","evidence":"","request_log":"","plugin_type":"python","created_at":"2026-03-07T02:50:57.848+08:00"},{"id":3633,"task_id":12,"plugin_id":null,"plugin_name":"深度端口指纹识别","title":"Port: 3784 | Service: unknown","severity":"info","target":"http://zhibao.dzzq.com.cn","detail":"Port: 3784 | Service: unknown","evidence":"","request_log":"","plugin_type":"python","created_at":"2026-03-07T02:50:57.846+08:00"},{"id":3632,"task_id":12,"plugin_id":null,"plugin_name":"深度端口指纹识别","title":"Port: 7887 | Service: unknown","severity":"info","target":"http://zhibao.dzzq.com.cn","detail":"Port: 7887 | Service: unknown","evidence":"","request_log":"","plugin_type":"python","created_at":"2026-03-07T02:50:57.843+08:00"},{"id":3631,"task_id":12,"plugin_id":null,"plugin_name":"深度端口指纹识别","title":"Port: 9934 | Service: unknown","severity":"info","target":"http://zhibao.dzzq.com.cn","detail":"Port: 9934 | Service: unknown","evidence":"","request_log":"","plugin_type":"python","created_at":"2026-03-07T02:50:57.84+08:00"},{"id":3630,"task_id":12,"plugin_id":null,"plugin_name":"深度端口指纹识别","title":"Port: 7890 | Service: unknown","severity":"info","target":"http://zhibao.dzzq.com.cn","detail":"Port: 7890 | Service: unknown","evidence":"","request_log":"","plugin_type":"python","created_at":"2026-03-07T02:50:57.838+08:00"},{"id":3629,"task_id":12,"plugin_id":null,"plugin_name":"深度端口指纹识别","title":"Port: 1720 | Service: unknown","severity":"info","target":"http://zhibao.dzzq.com.cn","detail":"Port: 1720 | Service: unknown","evidence":"","request_log":"","plugin_type":"python","created_at":"2026-03-07T02:50:57.835+08:00"},{"id":3628,"task_id":12,"plugin_id":null,"plugin_name":"深度端口指纹识别","title":"Port: 9910 | Service: unknown","severity":"info","target":"http://zhibao.dzzq.com.cn","detail":"Port: 9910 | Service: unknown","evidence":"","request_log":"","plugin_type":"python","created_at":"2026-03-07T02:50:57.832+08:00"},{"id":3627,"task_id":12,"plugin_id":null,"plugin_name":"深度端口指纹识别","title":"Port: 1719 | Service: unknown","severity":"info","target":"http://zhibao.dzzq.com.cn","detail":"Port: 1719 | Service: unknown","evidence":"","request_log":"","plugin_type":"python","created_at":"2026-03-07T02:50:57.829+08:00"},{"id":3626,"task_id":12,"plugin_id":null,"plugin_name":"深度端口指纹识别","title":"Port: 7878 | Service: unknown","severity":"info","target":"http://zhibao.dzzq.com.cn","detail":"Port: 7878 | Service: unknown","evidence":"","request_log":"","plugin_type":"python","created_at":"2026-03-07T02:50:57.826+08:00"}],"total":826,"page":7,"pages":42}