{"items":[{"id":1287,"task_id":9,"plugin_id":null,"plugin_name":"深度端口指纹识别","title":"Port: 6001 | Service: http | App: Tengine httpd","severity":"info","target":"http://zhibao.dzzq.com.cn","detail":"Port: 6001 | Service: http | App: Tengine httpd","evidence":"","request_log":"","plugin_type":"python","created_at":"2026-03-07T01:14:22.949+08:00"},{"id":1286,"task_id":9,"plugin_id":null,"plugin_name":"深度端口指纹识别","title":"Port: 32763 | Service: unknown","severity":"info","target":"http://zhibao.dzzq.com.cn","detail":"Port: 32763 | Service: unknown","evidence":"","request_log":"","plugin_type":"python","created_at":"2026-03-07T01:14:22.946+08:00"},{"id":1285,"task_id":9,"plugin_id":null,"plugin_name":"深度端口指纹识别","title":"Port: 8181 | Service: http | App: Tengine httpd","severity":"info","target":"http://zhibao.dzzq.com.cn","detail":"Port: 8181 | Service: http | App: Tengine httpd","evidence":"","request_log":"","plugin_type":"python","created_at":"2026-03-07T01:14:22.942+08:00"},{"id":1284,"task_id":9,"plugin_id":null,"plugin_name":"深度端口指纹识别","title":"Port: 32750 | Service: unknown","severity":"info","target":"http://zhibao.dzzq.com.cn","detail":"Port: 32750 | Service: unknown","evidence":"","request_log":"","plugin_type":"python","created_at":"2026-03-07T01:14:22.924+08:00"},{"id":1283,"task_id":9,"plugin_id":null,"plugin_name":"深度端口指纹识别","title":"Port: 6103 | Service: unknown","severity":"info","target":"http://zhibao.dzzq.com.cn","detail":"Port: 6103 | Service: unknown","evidence":"","request_log":"","plugin_type":"python","created_at":"2026-03-07T01:14:22.92+08:00"},{"id":1282,"task_id":9,"plugin_id":null,"plugin_name":"深度端口指纹识别","title":"Port: 32755 | Service: unknown","severity":"info","target":"http://zhibao.dzzq.com.cn","detail":"Port: 32755 | Service: unknown","evidence":"","request_log":"","plugin_type":"python","created_at":"2026-03-07T01:14:22.916+08:00"},{"id":1281,"task_id":9,"plugin_id":null,"plugin_name":"深度端口指纹识别","title":"Port: 8083 | Service: http | App: Tengine httpd","severity":"info","target":"http://zhibao.dzzq.com.cn","detail":"Port: 8083 | Service: http | App: Tengine httpd","evidence":"","request_log":"","plugin_type":"python","created_at":"2026-03-07T01:14:22.912+08:00"},{"id":1280,"task_id":9,"plugin_id":null,"plugin_name":"深度端口指纹识别","title":"Port: 1972 | Service: unknown","severity":"info","target":"http://zhibao.dzzq.com.cn","detail":"Port: 1972 | Service: unknown","evidence":"","request_log":"","plugin_type":"python","created_at":"2026-03-07T01:14:22.908+08:00"},{"id":1279,"task_id":9,"plugin_id":null,"plugin_name":"深度端口指纹识别","title":"Port: 8088 | Service: http | App: Tengine httpd","severity":"info","target":"http://zhibao.dzzq.com.cn","detail":"Port: 8088 | Service: http | App: Tengine httpd","evidence":"","request_log":"","plugin_type":"python","created_at":"2026-03-07T01:14:22.904+08:00"},{"id":1278,"task_id":9,"plugin_id":null,"plugin_name":"深度端口指纹识别","title":"Port: 8087 | Service: http | App: Tengine httpd","severity":"info","target":"http://zhibao.dzzq.com.cn","detail":"Port: 8087 | Service: http | App: Tengine httpd","evidence":"","request_log":"","plugin_type":"python","created_at":"2026-03-07T01:14:22.9+08:00"},{"id":1277,"task_id":9,"plugin_id":null,"plugin_name":"深度端口指纹识别","title":"Port: 8118 | Service: unknown","severity":"info","target":"http://zhibao.dzzq.com.cn","detail":"Port: 8118 | Service: unknown","evidence":"","request_log":"","plugin_type":"python","created_at":"2026-03-07T01:14:22.896+08:00"},{"id":1276,"task_id":9,"plugin_id":null,"plugin_name":"深度端口指纹识别","title":"Port: 1967 | Service: unknown","severity":"info","target":"http://zhibao.dzzq.com.cn","detail":"Port: 1967 | Service: unknown","evidence":"","request_log":"","plugin_type":"python","created_at":"2026-03-07T01:14:22.892+08:00"},{"id":1275,"task_id":9,"plugin_id":null,"plugin_name":"深度端口指纹识别","title":"Port: 8084 | Service: http | App: Tengine httpd","severity":"info","target":"http://zhibao.dzzq.com.cn","detail":"Port: 8084 | Service: http | App: Tengine httpd","evidence":"","request_log":"","plugin_type":"python","created_at":"2026-03-07T01:14:22.888+08:00"},{"id":1274,"task_id":9,"plugin_id":null,"plugin_name":"深度端口指纹识别","title":"Port: 8085 | Service: http | App: Tengine httpd","severity":"info","target":"http://zhibao.dzzq.com.cn","detail":"Port: 8085 | Service: http | App: Tengine httpd","evidence":"","request_log":"","plugin_type":"python","created_at":"2026-03-07T01:14:22.884+08:00"},{"id":1273,"task_id":9,"plugin_id":null,"plugin_name":"深度端口指纹识别","title":"Port: 14238 | Service: unknown","severity":"info","target":"http://zhibao.dzzq.com.cn","detail":"Port: 14238 | Service: unknown","evidence":"","request_log":"","plugin_type":"python","created_at":"2026-03-07T01:14:22.88+08:00"},{"id":1272,"task_id":9,"plugin_id":null,"plugin_name":"深度端口指纹识别","title":"Port: 8082 | Service: http | App: Tengine httpd","severity":"info","target":"http://zhibao.dzzq.com.cn","detail":"Port: 8082 | Service: http | App: Tengine httpd","evidence":"","request_log":"","plugin_type":"python","created_at":"2026-03-07T01:14:22.876+08:00"},{"id":1271,"task_id":9,"plugin_id":null,"plugin_name":"深度端口指纹识别","title":"Port: 8081 | Service: http | App: Tengine httpd","severity":"info","target":"http://zhibao.dzzq.com.cn","detail":"Port: 8081 | Service: http | App: Tengine httpd","evidence":"","request_log":"","plugin_type":"python","created_at":"2026-03-07T01:14:22.872+08:00"},{"id":1270,"task_id":9,"plugin_id":null,"plugin_name":"深度端口指纹识别","title":"Port: 8091 | Service: http | App: Tengine httpd","severity":"info","target":"http://zhibao.dzzq.com.cn","detail":"Port: 8091 | Service: http | App: Tengine httpd","evidence":"","request_log":"","plugin_type":"python","created_at":"2026-03-07T01:14:22.868+08:00"},{"id":1269,"task_id":9,"plugin_id":null,"plugin_name":"深度端口指纹识别","title":"Port: 8080 | Service: http | App: Tengine httpd","severity":"info","target":"http://zhibao.dzzq.com.cn","detail":"Port: 8080 | Service: http | App: Tengine httpd","evidence":"","request_log":"","plugin_type":"python","created_at":"2026-03-07T01:14:22.864+08:00"},{"id":1268,"task_id":9,"plugin_id":null,"plugin_name":"深度端口指纹识别","title":"Port: 6000 | Service: unknown","severity":"info","target":"http://zhibao.dzzq.com.cn","detail":"Port: 6000 | Service: unknown","evidence":"","request_log":"","plugin_type":"python","created_at":"2026-03-07T01:14:22.859+08:00"}],"total":826,"page":1,"pages":42}