{"items":[{"id":2879,"task_id":11,"plugin_id":null,"plugin_name":"深度端口指纹识别","title":"Port: 1972 | Service: unknown","severity":"info","target":"http://zhibao.dzzq.com.cn","detail":"Port: 1972 | Service: unknown","evidence":"","request_log":"","plugin_type":"python","created_at":"2026-03-07T02:00:21.22+08:00"},{"id":2878,"task_id":11,"plugin_id":null,"plugin_name":"深度端口指纹识别","title":"Port: 10162 | Service: unknown","severity":"info","target":"http://zhibao.dzzq.com.cn","detail":"Port: 10162 | Service: unknown","evidence":"","request_log":"","plugin_type":"python","created_at":"2026-03-07T02:00:21.215+08:00"},{"id":2877,"task_id":11,"plugin_id":null,"plugin_name":"深度端口指纹识别","title":"Port: 3151 | Service: unknown","severity":"info","target":"http://zhibao.dzzq.com.cn","detail":"Port: 3151 | Service: unknown","evidence":"","request_log":"","plugin_type":"python","created_at":"2026-03-07T02:00:21.21+08:00"},{"id":2876,"task_id":11,"plugin_id":null,"plugin_name":"深度端口指纹识别","title":"Port: 1967 | Service: unknown","severity":"info","target":"http://zhibao.dzzq.com.cn","detail":"Port: 1967 | Service: unknown","evidence":"","request_log":"","plugin_type":"python","created_at":"2026-03-07T02:00:21.186+08:00"},{"id":2875,"task_id":11,"plugin_id":null,"plugin_name":"深度端口指纹识别","title":"Port: 6060 | Service: unknown","severity":"info","target":"http://zhibao.dzzq.com.cn","detail":"Port: 6060 | Service: unknown","evidence":"","request_log":"","plugin_type":"python","created_at":"2026-03-07T02:00:21.182+08:00"},{"id":2874,"task_id":11,"plugin_id":null,"plugin_name":"深度端口指纹识别","title":"Port: 12203 | Service: unknown","severity":"info","target":"http://zhibao.dzzq.com.cn","detail":"Port: 12203 | Service: unknown","evidence":"","request_log":"","plugin_type":"python","created_at":"2026-03-07T02:00:21.178+08:00"},{"id":2873,"task_id":11,"plugin_id":null,"plugin_name":"深度端口指纹识别","title":"Port: 6050 | Service: unknown","severity":"info","target":"http://zhibao.dzzq.com.cn","detail":"Port: 6050 | Service: unknown","evidence":"","request_log":"","plugin_type":"python","created_at":"2026-03-07T02:00:21.174+08:00"},{"id":2872,"task_id":11,"plugin_id":null,"plugin_name":"深度端口指纹识别","title":"Port: 14238 | Service: unknown","severity":"info","target":"http://zhibao.dzzq.com.cn","detail":"Port: 14238 | Service: unknown","evidence":"","request_log":"","plugin_type":"python","created_at":"2026-03-07T02:00:21.17+08:00"},{"id":2871,"task_id":11,"plugin_id":null,"plugin_name":"深度端口指纹识别","title":"Port: 4000 | Service: unknown","severity":"info","target":"http://zhibao.dzzq.com.cn","detail":"Port: 4000 | Service: unknown","evidence":"","request_log":"","plugin_type":"python","created_at":"2026-03-07T02:00:21.166+08:00"},{"id":2870,"task_id":11,"plugin_id":null,"plugin_name":"深度端口指纹识别","title":"Port: 47002 | Service: unknown","severity":"info","target":"http://zhibao.dzzq.com.cn","detail":"Port: 47002 | Service: unknown","evidence":"","request_log":"","plugin_type":"python","created_at":"2026-03-07T02:00:21.162+08:00"},{"id":2869,"task_id":11,"plugin_id":null,"plugin_name":"深度端口指纹识别","title":"Port: 47001 | Service: unknown","severity":"info","target":"http://zhibao.dzzq.com.cn","detail":"Port: 47001 | Service: unknown","evidence":"","request_log":"","plugin_type":"python","created_at":"2026-03-07T02:00:21.157+08:00"},{"id":2868,"task_id":11,"plugin_id":null,"plugin_name":"深度端口指纹识别","title":"Port: 1935 | Service: unknown","severity":"info","target":"http://zhibao.dzzq.com.cn","detail":"Port: 1935 | Service: unknown","evidence":"","request_log":"","plugin_type":"python","created_at":"2026-03-07T02:00:21.153+08:00"},{"id":2867,"task_id":11,"plugin_id":null,"plugin_name":"深度端口指纹识别","title":"Port: 6020 | Service: unknown","severity":"info","target":"http://zhibao.dzzq.com.cn","detail":"Port: 6020 | Service: unknown","evidence":"","request_log":"","plugin_type":"python","created_at":"2026-03-07T02:00:21.148+08:00"},{"id":2866,"task_id":11,"plugin_id":null,"plugin_name":"深度端口指纹识别","title":"Port: 6019 | Service: unknown","severity":"info","target":"http://zhibao.dzzq.com.cn","detail":"Port: 6019 | Service: unknown","evidence":"","request_log":"","plugin_type":"python","created_at":"2026-03-07T02:00:21.144+08:00"},{"id":2865,"task_id":11,"plugin_id":null,"plugin_name":"深度端口指纹识别","title":"Port: 6018 | Service: unknown","severity":"info","target":"http://zhibao.dzzq.com.cn","detail":"Port: 6018 | Service: unknown","evidence":"","request_log":"","plugin_type":"python","created_at":"2026-03-07T02:00:21.139+08:00"},{"id":2864,"task_id":11,"plugin_id":null,"plugin_name":"深度端口指纹识别","title":"Port: 6017 | Service: unknown","severity":"info","target":"http://zhibao.dzzq.com.cn","detail":"Port: 6017 | Service: unknown","evidence":"","request_log":"","plugin_type":"python","created_at":"2026-03-07T02:00:21.135+08:00"},{"id":2863,"task_id":11,"plugin_id":null,"plugin_name":"深度端口指纹识别","title":"Port: 6016 | Service: unknown","severity":"info","target":"http://zhibao.dzzq.com.cn","detail":"Port: 6016 | Service: unknown","evidence":"","request_log":"","plugin_type":"python","created_at":"2026-03-07T02:00:21.131+08:00"},{"id":2862,"task_id":11,"plugin_id":null,"plugin_name":"深度端口指纹识别","title":"Port: 6015 | Service: unknown","severity":"info","target":"http://zhibao.dzzq.com.cn","detail":"Port: 6015 | Service: unknown","evidence":"","request_log":"","plugin_type":"python","created_at":"2026-03-07T02:00:21.126+08:00"},{"id":2861,"task_id":11,"plugin_id":null,"plugin_name":"深度端口指纹识别","title":"Port: 6013 | Service: unknown","severity":"info","target":"http://zhibao.dzzq.com.cn","detail":"Port: 6013 | Service: unknown","evidence":"","request_log":"","plugin_type":"python","created_at":"2026-03-07T02:00:21.121+08:00"},{"id":2860,"task_id":11,"plugin_id":null,"plugin_name":"深度端口指纹识别","title":"Port: 6012 | Service: unknown","severity":"info","target":"http://zhibao.dzzq.com.cn","detail":"Port: 6012 | Service: unknown","evidence":"","request_log":"","plugin_type":"python","created_at":"2026-03-07T02:00:21.116+08:00"}],"total":830,"page":4,"pages":42}