{"items":[{"id":1969,"task_id":10,"plugin_id":null,"plugin_name":"深度端口指纹识别","title":"Port: 1610 | Service: unknown","severity":"info","target":"http://zhibao.dzzq.com.cn","detail":"Port: 1610 | Service: unknown","evidence":"","request_log":"","plugin_type":"python","created_at":"2026-03-07T01:30:20.314+08:00"},{"id":1968,"task_id":10,"plugin_id":null,"plugin_name":"深度端口指纹识别","title":"Port: 9910 | Service: unknown","severity":"info","target":"http://zhibao.dzzq.com.cn","detail":"Port: 9910 | Service: unknown","evidence":"","request_log":"","plugin_type":"python","created_at":"2026-03-07T01:30:20.312+08:00"},{"id":1967,"task_id":10,"plugin_id":null,"plugin_name":"深度端口指纹识别","title":"Port: 5803 | Service: unknown","severity":"info","target":"http://zhibao.dzzq.com.cn","detail":"Port: 5803 | Service: unknown","evidence":"","request_log":"","plugin_type":"python","created_at":"2026-03-07T01:30:20.309+08:00"},{"id":1966,"task_id":10,"plugin_id":null,"plugin_name":"深度端口指纹识别","title":"Port: 5802 | Service: unknown","severity":"info","target":"http://zhibao.dzzq.com.cn","detail":"Port: 5802 | Service: unknown","evidence":"","request_log":"","plugin_type":"python","created_at":"2026-03-07T01:30:20.306+08:00"},{"id":1965,"task_id":10,"plugin_id":null,"plugin_name":"深度端口指纹识别","title":"Port: 3168 | Service: unknown","severity":"info","target":"http://zhibao.dzzq.com.cn","detail":"Port: 3168 | Service: unknown","evidence":"","request_log":"","plugin_type":"python","created_at":"2026-03-07T01:30:20.304+08:00"},{"id":1964,"task_id":10,"plugin_id":null,"plugin_name":"深度端口指纹识别","title":"Port: 1095 | Service: unknown","severity":"info","target":"http://zhibao.dzzq.com.cn","detail":"Port: 1095 | Service: unknown","evidence":"","request_log":"","plugin_type":"python","created_at":"2026-03-07T01:30:20.301+08:00"},{"id":1963,"task_id":10,"plugin_id":null,"plugin_name":"深度端口指纹识别","title":"Port: 1702 | Service: unknown","severity":"info","target":"http://zhibao.dzzq.com.cn","detail":"Port: 1702 | Service: unknown","evidence":"","request_log":"","plugin_type":"python","created_at":"2026-03-07T01:30:20.298+08:00"},{"id":1962,"task_id":10,"plugin_id":null,"plugin_name":"深度端口指纹识别","title":"Port: 18086 | Service: unknown","severity":"info","target":"http://zhibao.dzzq.com.cn","detail":"Port: 18086 | Service: unknown","evidence":"","request_log":"","plugin_type":"python","created_at":"2026-03-07T01:30:20.296+08:00"},{"id":1961,"task_id":10,"plugin_id":null,"plugin_name":"深度端口指纹识别","title":"Port: 1688 | Service: unknown","severity":"info","target":"http://zhibao.dzzq.com.cn","detail":"Port: 1688 | Service: unknown","evidence":"","request_log":"","plugin_type":"python","created_at":"2026-03-07T01:30:20.293+08:00"},{"id":1960,"task_id":10,"plugin_id":null,"plugin_name":"深度端口指纹识别","title":"Port: 1687 | Service: unknown","severity":"info","target":"http://zhibao.dzzq.com.cn","detail":"Port: 1687 | Service: unknown","evidence":"","request_log":"","plugin_type":"python","created_at":"2026-03-07T01:30:20.29+08:00"},{"id":1959,"task_id":10,"plugin_id":null,"plugin_name":"深度端口指纹识别","title":"Port: 9875 | Service: unknown","severity":"info","target":"http://zhibao.dzzq.com.cn","detail":"Port: 9875 | Service: unknown","evidence":"","request_log":"","plugin_type":"python","created_at":"2026-03-07T01:30:20.287+08:00"},{"id":1958,"task_id":10,"plugin_id":null,"plugin_name":"深度端口指纹识别","title":"Port: 16000 | Service: unknown","severity":"info","target":"http://zhibao.dzzq.com.cn","detail":"Port: 16000 | Service: unknown","evidence":"","request_log":"","plugin_type":"python","created_at":"2026-03-07T01:30:20.284+08:00"},{"id":1957,"task_id":10,"plugin_id":null,"plugin_name":"深度端口指纹识别","title":"Port: 1666 | Service: unknown","severity":"info","target":"http://zhibao.dzzq.com.cn","detail":"Port: 1666 | Service: unknown","evidence":"","request_log":"","plugin_type":"python","created_at":"2026-03-07T01:30:20.281+08:00"},{"id":1956,"task_id":10,"plugin_id":null,"plugin_name":"深度端口指纹识别","title":"Port: 26256 | Service: unknown","severity":"info","target":"http://zhibao.dzzq.com.cn","detail":"Port: 26256 | Service: unknown","evidence":"","request_log":"","plugin_type":"python","created_at":"2026-03-07T01:30:20.279+08:00"},{"id":1955,"task_id":10,"plugin_id":null,"plugin_name":"深度端口指纹识别","title":"Port: 10099 | Service: unknown","severity":"info","target":"http://zhibao.dzzq.com.cn","detail":"Port: 10099 | Service: unknown","evidence":"","request_log":"","plugin_type":"python","created_at":"2026-03-07T01:30:20.276+08:00"},{"id":1954,"task_id":10,"plugin_id":null,"plugin_name":"深度端口指纹识别","title":"Port: 1418 | Service: unknown","severity":"info","target":"http://zhibao.dzzq.com.cn","detail":"Port: 1418 | Service: unknown","evidence":"","request_log":"","plugin_type":"python","created_at":"2026-03-07T01:30:20.273+08:00"},{"id":1953,"task_id":10,"plugin_id":null,"plugin_name":"深度端口指纹识别","title":"Port: 7801 | Service: unknown","severity":"info","target":"http://zhibao.dzzq.com.cn","detail":"Port: 7801 | Service: unknown","evidence":"","request_log":"","plugin_type":"python","created_at":"2026-03-07T01:30:20.27+08:00"},{"id":1952,"task_id":10,"plugin_id":null,"plugin_name":"深度端口指纹识别","title":"Port: 3689 | Service: unknown","severity":"info","target":"http://zhibao.dzzq.com.cn","detail":"Port: 3689 | Service: unknown","evidence":"","request_log":"","plugin_type":"python","created_at":"2026-03-07T01:30:20.267+08:00"},{"id":1951,"task_id":10,"plugin_id":null,"plugin_name":"深度端口指纹识别","title":"Port: 3175 | Service: unknown","severity":"info","target":"http://zhibao.dzzq.com.cn","detail":"Port: 3175 | Service: unknown","evidence":"","request_log":"","plugin_type":"python","created_at":"2026-03-07T01:30:20.264+08:00"},{"id":1950,"task_id":10,"plugin_id":null,"plugin_name":"深度端口指纹识别","title":"Port: 26214 | Service: unknown","severity":"info","target":"http://zhibao.dzzq.com.cn","detail":"Port: 26214 | Service: unknown","evidence":"","request_log":"","plugin_type":"python","created_at":"2026-03-07T01:30:20.26+08:00"}],"total":822,"page":8,"pages":42}