{"items":[{"id":2899,"task_id":11,"plugin_id":null,"plugin_name":"深度端口指纹识别","title":"Port: 32753 | Service: unknown","severity":"info","target":"http://zhibao.dzzq.com.cn","detail":"Port: 32753 | Service: unknown","evidence":"","request_log":"","plugin_type":"python","created_at":"2026-03-07T02:00:21.316+08:00"},{"id":2898,"task_id":11,"plugin_id":null,"plugin_name":"深度端口指纹识别","title":"Port: 2030 | Service: unknown","severity":"info","target":"http://zhibao.dzzq.com.cn","detail":"Port: 2030 | Service: unknown","evidence":"","request_log":"","plugin_type":"python","created_at":"2026-03-07T02:00:21.312+08:00"},{"id":2897,"task_id":11,"plugin_id":null,"plugin_name":"深度端口指纹识别","title":"Port: 3165 | Service: unknown","severity":"info","target":"http://zhibao.dzzq.com.cn","detail":"Port: 3165 | Service: unknown","evidence":"","request_log":"","plugin_type":"python","created_at":"2026-03-07T02:00:21.308+08:00"},{"id":2896,"task_id":11,"plugin_id":null,"plugin_name":"深度端口指纹识别","title":"Port: 32750 | Service: unknown","severity":"info","target":"http://zhibao.dzzq.com.cn","detail":"Port: 32750 | Service: unknown","evidence":"","request_log":"","plugin_type":"python","created_at":"2026-03-07T02:00:21.286+08:00"},{"id":2895,"task_id":11,"plugin_id":null,"plugin_name":"深度端口指纹识别","title":"Port: 2024 | Service: unknown","severity":"info","target":"http://zhibao.dzzq.com.cn","detail":"Port: 2024 | Service: unknown","evidence":"","request_log":"","plugin_type":"python","created_at":"2026-03-07T02:00:21.283+08:00"},{"id":2894,"task_id":11,"plugin_id":null,"plugin_name":"深度端口指纹识别","title":"Port: 2023 | Service: unknown","severity":"info","target":"http://zhibao.dzzq.com.cn","detail":"Port: 2023 | Service: unknown","evidence":"","request_log":"","plugin_type":"python","created_at":"2026-03-07T02:00:21.28+08:00"},{"id":2893,"task_id":11,"plugin_id":null,"plugin_name":"深度端口指纹识别","title":"Port: 6112 | Service: unknown","severity":"info","target":"http://zhibao.dzzq.com.cn","detail":"Port: 6112 | Service: unknown","evidence":"","request_log":"","plugin_type":"python","created_at":"2026-03-07T02:00:21.277+08:00"},{"id":2892,"task_id":11,"plugin_id":null,"plugin_name":"深度端口指纹识别","title":"Port: 22490 | Service: unknown","severity":"info","target":"http://zhibao.dzzq.com.cn","detail":"Port: 22490 | Service: unknown","evidence":"","request_log":"","plugin_type":"python","created_at":"2026-03-07T02:00:21.274+08:00"},{"id":2891,"task_id":11,"plugin_id":null,"plugin_name":"深度端口指纹识别","title":"Port: 2010 | Service: unknown","severity":"info","target":"http://zhibao.dzzq.com.cn","detail":"Port: 2010 | Service: unknown","evidence":"","request_log":"","plugin_type":"python","created_at":"2026-03-07T02:00:21.27+08:00"},{"id":2890,"task_id":11,"plugin_id":null,"plugin_name":"深度端口指纹识别","title":"Port: 2002 | Service: unknown","severity":"info","target":"http://zhibao.dzzq.com.cn","detail":"Port: 2002 | Service: unknown","evidence":"","request_log":"","plugin_type":"python","created_at":"2026-03-07T02:00:21.266+08:00"},{"id":2889,"task_id":11,"plugin_id":null,"plugin_name":"深度端口指纹识别","title":"Port: 6103 | Service: unknown","severity":"info","target":"http://zhibao.dzzq.com.cn","detail":"Port: 6103 | Service: unknown","evidence":"","request_log":"","plugin_type":"python","created_at":"2026-03-07T02:00:21.262+08:00"},{"id":2888,"task_id":11,"plugin_id":null,"plugin_name":"深度端口指纹识别","title":"Port: 2001 | Service: unknown","severity":"info","target":"http://zhibao.dzzq.com.cn","detail":"Port: 2001 | Service: unknown","evidence":"","request_log":"","plugin_type":"python","created_at":"2026-03-07T02:00:21.258+08:00"},{"id":2887,"task_id":11,"plugin_id":null,"plugin_name":"深度端口指纹识别","title":"Port: 2000 | Service: unknown","severity":"info","target":"http://zhibao.dzzq.com.cn","detail":"Port: 2000 | Service: unknown","evidence":"","request_log":"","plugin_type":"python","created_at":"2026-03-07T02:00:21.254+08:00"},{"id":2886,"task_id":11,"plugin_id":null,"plugin_name":"深度端口指纹识别","title":"Port: 6010 | Service: unknown","severity":"info","target":"http://zhibao.dzzq.com.cn","detail":"Port: 6010 | Service: unknown","evidence":"","request_log":"","plugin_type":"python","created_at":"2026-03-07T02:00:21.25+08:00"},{"id":2885,"task_id":11,"plugin_id":null,"plugin_name":"深度端口指纹识别","title":"Port: 4045 | Service: unknown","severity":"info","target":"http://zhibao.dzzq.com.cn","detail":"Port: 4045 | Service: unknown","evidence":"","request_log":"","plugin_type":"python","created_at":"2026-03-07T02:00:21.246+08:00"},{"id":2884,"task_id":11,"plugin_id":null,"plugin_name":"深度端口指纹识别","title":"Port: 8138 | Service: unknown","severity":"info","target":"http://zhibao.dzzq.com.cn","detail":"Port: 8138 | Service: unknown","evidence":"","request_log":"","plugin_type":"python","created_at":"2026-03-07T02:00:21.242+08:00"},{"id":2883,"task_id":11,"plugin_id":null,"plugin_name":"深度端口指纹识别","title":"Port: 5800 | Service: unknown","severity":"info","target":"http://zhibao.dzzq.com.cn","detail":"Port: 5800 | Service: unknown","evidence":"","request_log":"","plugin_type":"python","created_at":"2026-03-07T02:00:21.237+08:00"},{"id":2882,"task_id":11,"plugin_id":null,"plugin_name":"深度端口指纹识别","title":"Port: 1981 | Service: unknown","severity":"info","target":"http://zhibao.dzzq.com.cn","detail":"Port: 1981 | Service: unknown","evidence":"","request_log":"","plugin_type":"python","created_at":"2026-03-07T02:00:21.233+08:00"},{"id":2881,"task_id":11,"plugin_id":null,"plugin_name":"深度端口指纹识别","title":"Port: 8118 | Service: unknown","severity":"info","target":"http://zhibao.dzzq.com.cn","detail":"Port: 8118 | Service: unknown","evidence":"","request_log":"","plugin_type":"python","created_at":"2026-03-07T02:00:21.229+08:00"},{"id":2880,"task_id":11,"plugin_id":null,"plugin_name":"深度端口指纹识别","title":"Port: 49156 | Service: unknown","severity":"info","target":"http://zhibao.dzzq.com.cn","detail":"Port: 49156 | Service: unknown","evidence":"","request_log":"","plugin_type":"python","created_at":"2026-03-07T02:00:21.225+08:00"}],"total":830,"page":3,"pages":42}