{"items":[{"id":3765,"task_id":12,"plugin_id":null,"plugin_name":"深度端口指纹识别","title":"Port: 8181 | Service: http | App: Tengine httpd","severity":"info","target":"http://zhibao.dzzq.com.cn","detail":"Port: 8181 | Service: http | App: Tengine httpd","evidence":"","request_log":"","plugin_type":"python","created_at":"2026-03-07T02:51:03.347+08:00"},{"id":3764,"task_id":12,"plugin_id":null,"plugin_name":"深度端口指纹识别","title":"Port: 8081 | Service: http | App: Tengine httpd","severity":"info","target":"http://zhibao.dzzq.com.cn","detail":"Port: 8081 | Service: http | App: Tengine httpd","evidence":"","request_log":"","plugin_type":"python","created_at":"2026-03-07T02:51:03.344+08:00"},{"id":3763,"task_id":12,"plugin_id":null,"plugin_name":"深度端口指纹识别","title":"Port: 8088 | Service: http | App: Tengine httpd","severity":"info","target":"http://zhibao.dzzq.com.cn","detail":"Port: 8088 | Service: http | App: Tengine httpd","evidence":"","request_log":"","plugin_type":"python","created_at":"2026-03-07T02:51:03.329+08:00"},{"id":3762,"task_id":12,"plugin_id":null,"plugin_name":"深度端口指纹识别","title":"Port: 8082 | Service: http | App: Tengine httpd","severity":"info","target":"http://zhibao.dzzq.com.cn","detail":"Port: 8082 | Service: http | App: Tengine httpd","evidence":"","request_log":"","plugin_type":"python","created_at":"2026-03-07T02:51:03.325+08:00"},{"id":3761,"task_id":12,"plugin_id":null,"plugin_name":"深度端口指纹识别","title":"Port: 8091 | Service: http | App: Tengine httpd","severity":"info","target":"http://zhibao.dzzq.com.cn","detail":"Port: 8091 | Service: http | App: Tengine httpd","evidence":"","request_log":"","plugin_type":"python","created_at":"2026-03-07T02:51:03.321+08:00"},{"id":3760,"task_id":12,"plugin_id":null,"plugin_name":"深度端口指纹识别","title":"Port: 8083 | Service: http | App: Tengine httpd","severity":"info","target":"http://zhibao.dzzq.com.cn","detail":"Port: 8083 | Service: http | App: Tengine httpd","evidence":"","request_log":"","plugin_type":"python","created_at":"2026-03-07T02:51:03.317+08:00"},{"id":3759,"task_id":12,"plugin_id":null,"plugin_name":"深度端口指纹识别","title":"Port: 8080 | Service: http | App: Tengine httpd","severity":"info","target":"http://zhibao.dzzq.com.cn","detail":"Port: 8080 | Service: http | App: Tengine httpd","evidence":"","request_log":"","plugin_type":"python","created_at":"2026-03-07T02:51:03.313+08:00"},{"id":3758,"task_id":12,"plugin_id":null,"plugin_name":"深度端口指纹识别","title":"Port: 8085 | Service: http | App: Tengine httpd","severity":"info","target":"http://zhibao.dzzq.com.cn","detail":"Port: 8085 | Service: http | App: Tengine httpd","evidence":"","request_log":"","plugin_type":"python","created_at":"2026-03-07T02:51:03.308+08:00"},{"id":3757,"task_id":12,"plugin_id":null,"plugin_name":"深度端口指纹识别","title":"Port: 8084 | Service: http | App: Tengine httpd","severity":"info","target":"http://zhibao.dzzq.com.cn","detail":"Port: 8084 | Service: http | App: Tengine httpd","evidence":"","request_log":"","plugin_type":"python","created_at":"2026-03-07T02:51:03.305+08:00"},{"id":3756,"task_id":12,"plugin_id":null,"plugin_name":"深度端口指纹识别","title":"Port: 8001 | Service: http | App: Tengine httpd","severity":"info","target":"http://zhibao.dzzq.com.cn","detail":"Port: 8001 | Service: http | App: Tengine httpd","evidence":"","request_log":"","plugin_type":"python","created_at":"2026-03-07T02:51:03.301+08:00"},{"id":3755,"task_id":12,"plugin_id":null,"plugin_name":"深度端口指纹识别","title":"Port: 8087 | Service: http | App: Tengine httpd","severity":"info","target":"http://zhibao.dzzq.com.cn","detail":"Port: 8087 | Service: http | App: Tengine httpd","evidence":"","request_log":"","plugin_type":"python","created_at":"2026-03-07T02:51:03.297+08:00"},{"id":3754,"task_id":12,"plugin_id":null,"plugin_name":"深度端口指纹识别","title":"Port: 8003 | Service: http | App: Tengine httpd","severity":"info","target":"http://zhibao.dzzq.com.cn","detail":"Port: 8003 | Service: http | App: Tengine httpd","evidence":"","request_log":"","plugin_type":"python","created_at":"2026-03-07T02:51:03.293+08:00"},{"id":3753,"task_id":12,"plugin_id":null,"plugin_name":"深度端口指纹识别","title":"Port: 8009 | Service: http | App: Tengine httpd","severity":"info","target":"http://zhibao.dzzq.com.cn","detail":"Port: 8009 | Service: http | App: Tengine httpd","evidence":"","request_log":"","plugin_type":"python","created_at":"2026-03-07T02:51:03.289+08:00"},{"id":3752,"task_id":12,"plugin_id":null,"plugin_name":"深度端口指纹识别","title":"Port: 10001 | Service: http | App: Tengine httpd","severity":"info","target":"http://zhibao.dzzq.com.cn","detail":"Port: 10001 | Service: http | App: Tengine httpd","evidence":"","request_log":"","plugin_type":"python","created_at":"2026-03-07T02:51:03.285+08:00"},{"id":3751,"task_id":12,"plugin_id":null,"plugin_name":"深度端口指纹识别","title":"Port: 8002 | Service: http | App: Tengine httpd","severity":"info","target":"http://zhibao.dzzq.com.cn","detail":"Port: 8002 | Service: http | App: Tengine httpd","evidence":"","request_log":"","plugin_type":"python","created_at":"2026-03-07T02:51:03.281+08:00"},{"id":3750,"task_id":12,"plugin_id":null,"plugin_name":"深度端口指纹识别","title":"Port: 8008 | Service: http | App: Tengine httpd","severity":"info","target":"http://zhibao.dzzq.com.cn","detail":"Port: 8008 | Service: http | App: Tengine httpd","evidence":"","request_log":"","plugin_type":"python","created_at":"2026-03-07T02:51:03.277+08:00"},{"id":3749,"task_id":12,"plugin_id":null,"plugin_name":"深度端口指纹识别","title":"Port: 10000 | Service: http | App: Tengine httpd","severity":"info","target":"http://zhibao.dzzq.com.cn","detail":"Port: 10000 | Service: http | App: Tengine httpd","evidence":"","request_log":"","plugin_type":"python","created_at":"2026-03-07T02:51:03.273+08:00"},{"id":3748,"task_id":12,"plugin_id":null,"plugin_name":"深度端口指纹识别","title":"Port: 6001 | Service: http | App: Tengine httpd","severity":"info","target":"http://zhibao.dzzq.com.cn","detail":"Port: 6001 | Service: http | App: Tengine httpd","evidence":"","request_log":"","plugin_type":"python","created_at":"2026-03-07T02:51:03.269+08:00"},{"id":3747,"task_id":12,"plugin_id":null,"plugin_name":"深度端口指纹识别","title":"Port: 10080 | Service: http | App: Tengine httpd","severity":"info","target":"http://zhibao.dzzq.com.cn","detail":"Port: 10080 | Service: http | App: Tengine httpd","evidence":"","request_log":"","plugin_type":"python","created_at":"2026-03-07T02:51:03.264+08:00"},{"id":3746,"task_id":12,"plugin_id":null,"plugin_name":"深度端口指纹识别","title":"Port: 51234 | Service: unknown","severity":"info","target":"http://zhibao.dzzq.com.cn","detail":"Port: 51234 | Service: unknown","evidence":"","request_log":"","plugin_type":"python","created_at":"2026-03-07T02:51:03.259+08:00"}],"total":826,"page":1,"pages":42}