{"items":[{"id":6106,"task_id":15,"plugin_id":null,"plugin_name":"任意邮件伪造检测","title":"ccn.com.cn","severity":"medium","target":"http://ccn.com.cn","detail":"ccn.com.cn","evidence":"","request_log":"","plugin_type":"python","created_at":"2026-03-07T04:53:45.017+08:00"},{"id":6143,"task_id":15,"plugin_id":null,"plugin_name":"WEB中间件信息收集","title":"中间件: nginx/1.15.11, Nginx — www2.ccn.com.cn","severity":"low","target":"http://www2.ccn.com.cn","detail":"中间件: nginx/1.15.11, Nginx — www2.ccn.com.cn","evidence":"","request_log":"[{\"url\": \"www2.ccn.com.cn\", \"request\": \"GET www2.ccn.com.cn HTTP/1.1\\r\\nUser-Agent: Mozilla/5.0 (Windows NT 10.0; Win64; x64) AppleWebKit/537.36 (KHTML, like Gecko) Chrome/120.0.0.0 Safari/537.36\\r\\nAccept-Encoding: gzip, deflate\\r\\nConnection: keep-alive\\r\\nHost: \", \"response\": \"HTTP/1.1 404\\r\\nServer: nginx/1.15.11\\r\\nDate: Fri, 06 Mar 2026 21:20:53 GMT\\r\\nContent-Type: text/html\\r\\nContent-Length: 154\\r\\nConnection: close\\r\\n\\r\\n\u003chtml\u003e\\r\\n\u003chead\u003e\u003ctitle\u003e404 Not Found\u003c/title\u003e\u003c/head\u003e\\r\\n\u003cbody\u003e\\r\\n\u003ccenter\u003e\u003ch1\u003e404 Not Found\u003c/h1\u003e\u003c/center\u003e\\r\\n\u003chr\u003e\u003ccenter\u003enginx/1.15.11\u003c/center\u003e\\r\\n\u003c/body\u003e\\r\\n\u003c/html\u003e\\r\\n\"}]","plugin_type":"python","created_at":"2026-03-07T05:20:54.658+08:00"},{"id":6141,"task_id":15,"plugin_id":null,"plugin_name":"WEB程序信息收集","title":"技术栈: nginx/1.15.11 — www2.ccn.com.cn","severity":"low","target":"http://www2.ccn.com.cn","detail":"技术栈: nginx/1.15.11 — www2.ccn.com.cn","evidence":"","request_log":"[{\"url\": \"www2.ccn.com.cn\", \"request\": \"GET www2.ccn.com.cn HTTP/1.1\\r\\nUser-Agent: Mozilla/5.0 (Windows NT 10.0; Win64; x64) AppleWebKit/537.36 (KHTML, like Gecko) Chrome/120.0.0.0 Safari/537.36\\r\\nAccept-Encoding: gzip, deflate\\r\\nConnection: keep-alive\\r\\nHost: \", \"response\": \"HTTP/1.1 404\\r\\nServer: nginx/1.15.11\\r\\nDate: Fri, 06 Mar 2026 21:20:49 GMT\\r\\nContent-Type: text/html\\r\\nContent-Length: 154\\r\\nConnection: close\\r\\n\\r\\n\u003chtml\u003e\\r\\n\u003chead\u003e\u003ctitle\u003e404 Not Found\u003c/title\u003e\u003c/head\u003e\\r\\n\u003cbody\u003e\\r\\n\u003ccenter\u003e\u003ch1\u003e404 Not Found\u003c/h1\u003e\u003c/center\u003e\\r\\n\u003chr\u003e\u003ccenter\u003enginx/1.15.11\u003c/center\u003e\\r\\n\u003c/body\u003e\\r\\n\u003c/html\u003e\\r\\n\"}]","plugin_type":"python","created_at":"2026-03-07T05:20:49.613+08:00"},{"id":6140,"task_id":15,"plugin_id":null,"plugin_name":"页面信息获取","title":"页面标题: 404 Not Found — www2.ccn.com.cn","severity":"low","target":"http://www2.ccn.com.cn","detail":"页面标题: 404 Not Found — www2.ccn.com.cn","evidence":"","request_log":"[{\"url\": \"www2.ccn.com.cn\", \"request\": \"GET www2.ccn.com.cn HTTP/1.1\\r\\nUser-Agent: Mozilla/5.0 (Windows NT 10.0; Win64; x64) AppleWebKit/537.36 (KHTML, like Gecko) Chrome/120.0.0.0 Safari/537.36\\r\\nAccept-Encoding: gzip, deflate\\r\\nConnection: keep-alive\\r\\nHost: \", \"response\": \"HTTP/1.1 404\\r\\nServer: nginx/1.15.11\\r\\nDate: Fri, 06 Mar 2026 21:20:18 GMT\\r\\nContent-Type: text/html\\r\\nContent-Length: 154\\r\\nConnection: close\\r\\n\\r\\n\u003chtml\u003e\\r\\n\u003chead\u003e\u003ctitle\u003e404 Not Found\u003c/title\u003e\u003c/head\u003e\\r\\n\u003cbody\u003e\\r\\n\u003ccenter\u003e\u003ch1\u003e404 Not Found\u003c/h1\u003e\u003c/center\u003e\\r\\n\u003chr\u003e\u003ccenter\u003enginx/1.15.11\u003c/center\u003e\\r\\n\u003c/body\u003e\\r\\n\u003c/html\u003e\\r\\n\"}]","plugin_type":"python","created_at":"2026-03-07T05:20:19.461+08:00"},{"id":6139,"task_id":15,"plugin_id":null,"plugin_name":"WEB中间件信息收集","title":"中间件: nginx/1.15.11, Nginx — wx.ccn.com.cn","severity":"low","target":"http://wx.ccn.com.cn","detail":"中间件: nginx/1.15.11, Nginx — wx.ccn.com.cn","evidence":"","request_log":"[{\"url\": \"wx.ccn.com.cn\", \"request\": \"GET wx.ccn.com.cn HTTP/1.1\\r\\nUser-Agent: Mozilla/5.0 (Windows NT 10.0; Win64; x64) AppleWebKit/537.36 (KHTML, like Gecko) Chrome/120.0.0.0 Safari/537.36\\r\\nAccept-Encoding: gzip, deflate\\r\\nConnection: keep-alive\\r\\nHost: \", \"response\": \"HTTP/1.1 404\\r\\nServer: nginx/1.15.11\\r\\nDate: Fri, 06 Mar 2026 21:16:32 GMT\\r\\nContent-Type: text/html\\r\\nContent-Length: 154\\r\\nConnection: close\\r\\n\\r\\n\u003chtml\u003e\\r\\n\u003chead\u003e\u003ctitle\u003e404 Not Found\u003c/title\u003e\u003c/head\u003e\\r\\n\u003cbody\u003e\\r\\n\u003ccenter\u003e\u003ch1\u003e404 Not Found\u003c/h1\u003e\u003c/center\u003e\\r\\n\u003chr\u003e\u003ccenter\u003enginx/1.15.11\u003c/center\u003e\\r\\n\u003c/body\u003e\\r\\n\u003c/html\u003e\\r\\n\"}]","plugin_type":"python","created_at":"2026-03-07T05:16:33.195+08:00"},{"id":6137,"task_id":15,"plugin_id":null,"plugin_name":"WEB程序信息收集","title":"技术栈: nginx/1.15.11 — wx.ccn.com.cn","severity":"low","target":"http://wx.ccn.com.cn","detail":"技术栈: nginx/1.15.11 — wx.ccn.com.cn","evidence":"","request_log":"[{\"url\": \"wx.ccn.com.cn\", \"request\": \"GET wx.ccn.com.cn HTTP/1.1\\r\\nUser-Agent: Mozilla/5.0 (Windows NT 10.0; Win64; x64) AppleWebKit/537.36 (KHTML, like Gecko) Chrome/120.0.0.0 Safari/537.36\\r\\nAccept-Encoding: gzip, deflate\\r\\nConnection: keep-alive\\r\\nHost: \", \"response\": \"HTTP/1.1 404\\r\\nServer: nginx/1.15.11\\r\\nDate: Fri, 06 Mar 2026 21:16:28 GMT\\r\\nContent-Type: text/html\\r\\nContent-Length: 154\\r\\nConnection: close\\r\\n\\r\\n\u003chtml\u003e\\r\\n\u003chead\u003e\u003ctitle\u003e404 Not Found\u003c/title\u003e\u003c/head\u003e\\r\\n\u003cbody\u003e\\r\\n\u003ccenter\u003e\u003ch1\u003e404 Not Found\u003c/h1\u003e\u003c/center\u003e\\r\\n\u003chr\u003e\u003ccenter\u003enginx/1.15.11\u003c/center\u003e\\r\\n\u003c/body\u003e\\r\\n\u003c/html\u003e\\r\\n\"}]","plugin_type":"python","created_at":"2026-03-07T05:16:28.148+08:00"},{"id":6136,"task_id":15,"plugin_id":null,"plugin_name":"页面信息获取","title":"页面标题: 404 Not Found — wx.ccn.com.cn","severity":"low","target":"http://wx.ccn.com.cn","detail":"页面标题: 404 Not Found — wx.ccn.com.cn","evidence":"","request_log":"[{\"url\": \"wx.ccn.com.cn\", \"request\": \"GET wx.ccn.com.cn HTTP/1.1\\r\\nUser-Agent: Mozilla/5.0 (Windows NT 10.0; Win64; x64) AppleWebKit/537.36 (KHTML, like Gecko) Chrome/120.0.0.0 Safari/537.36\\r\\nAccept-Encoding: gzip, deflate\\r\\nConnection: keep-alive\\r\\nHost: \", \"response\": \"HTTP/1.1 404\\r\\nServer: nginx/1.15.11\\r\\nDate: Fri, 06 Mar 2026 21:16:02 GMT\\r\\nContent-Type: text/html\\r\\nContent-Length: 154\\r\\nConnection: close\\r\\n\\r\\n\u003chtml\u003e\\r\\n\u003chead\u003e\u003ctitle\u003e404 Not Found\u003c/title\u003e\u003c/head\u003e\\r\\n\u003cbody\u003e\\r\\n\u003ccenter\u003e\u003ch1\u003e404 Not Found\u003c/h1\u003e\u003c/center\u003e\\r\\n\u003chr\u003e\u003ccenter\u003enginx/1.15.11\u003c/center\u003e\\r\\n\u003c/body\u003e\\r\\n\u003c/html\u003e\\r\\n\"}]","plugin_type":"python","created_at":"2026-03-07T05:16:02.999+08:00"},{"id":6135,"task_id":15,"plugin_id":null,"plugin_name":"WEB中间件信息收集","title":"中间件: nginx/1.15.11, Nginx — pic.ccn.com.cn","severity":"low","target":"http://pic.ccn.com.cn","detail":"中间件: nginx/1.15.11, Nginx — pic.ccn.com.cn","evidence":"","request_log":"[{\"url\": \"pic.ccn.com.cn\", \"request\": \"GET pic.ccn.com.cn HTTP/1.1\\r\\nUser-Agent: Mozilla/5.0 (Windows NT 10.0; Win64; x64) AppleWebKit/537.36 (KHTML, like Gecko) Chrome/120.0.0.0 Safari/537.36\\r\\nAccept-Encoding: gzip, deflate\\r\\nConnection: keep-alive\\r\\nHost: \", \"response\": \"HTTP/1.1 404\\r\\nServer: nginx/1.15.11\\r\\nDate: Fri, 06 Mar 2026 21:15:58 GMT\\r\\nContent-Type: text/html\\r\\nContent-Length: 154\\r\\nConnection: close\\r\\n\\r\\n\u003chtml\u003e\\r\\n\u003chead\u003e\u003ctitle\u003e404 Not Found\u003c/title\u003e\u003c/head\u003e\\r\\n\u003cbody\u003e\\r\\n\u003ccenter\u003e\u003ch1\u003e404 Not Found\u003c/h1\u003e\u003c/center\u003e\\r\\n\u003chr\u003e\u003ccenter\u003enginx/1.15.11\u003c/center\u003e\\r\\n\u003c/body\u003e\\r\\n\u003c/html\u003e\\r\\n\"}]","plugin_type":"python","created_at":"2026-03-07T05:16:02.994+08:00"},{"id":6133,"task_id":15,"plugin_id":null,"plugin_name":"WEB程序信息收集","title":"技术栈: nginx/1.15.11 — pic.ccn.com.cn","severity":"low","target":"http://pic.ccn.com.cn","detail":"技术栈: nginx/1.15.11 — pic.ccn.com.cn","evidence":"","request_log":"[{\"url\": \"pic.ccn.com.cn\", \"request\": \"GET pic.ccn.com.cn HTTP/1.1\\r\\nUser-Agent: Mozilla/5.0 (Windows NT 10.0; Win64; x64) AppleWebKit/537.36 (KHTML, like Gecko) Chrome/120.0.0.0 Safari/537.36\\r\\nAccept-Encoding: gzip, deflate\\r\\nConnection: keep-alive\\r\\nHost: \", \"response\": \"HTTP/1.1 404\\r\\nServer: nginx/1.15.11\\r\\nDate: Fri, 06 Mar 2026 21:15:54 GMT\\r\\nContent-Type: text/html\\r\\nContent-Length: 154\\r\\nConnection: close\\r\\n\\r\\n\u003chtml\u003e\\r\\n\u003chead\u003e\u003ctitle\u003e404 Not Found\u003c/title\u003e\u003c/head\u003e\\r\\n\u003cbody\u003e\\r\\n\u003ccenter\u003e\u003ch1\u003e404 Not Found\u003c/h1\u003e\u003c/center\u003e\\r\\n\u003chr\u003e\u003ccenter\u003enginx/1.15.11\u003c/center\u003e\\r\\n\u003c/body\u003e\\r\\n\u003c/html\u003e\\r\\n\"}]","plugin_type":"python","created_at":"2026-03-07T05:15:57.937+08:00"},{"id":6132,"task_id":15,"plugin_id":null,"plugin_name":"页面信息获取","title":"页面标题: 404 Not Found — pic.ccn.com.cn","severity":"low","target":"http://pic.ccn.com.cn","detail":"页面标题: 404 Not Found — pic.ccn.com.cn","evidence":"","request_log":"[{\"url\": \"pic.ccn.com.cn\", \"request\": \"GET pic.ccn.com.cn HTTP/1.1\\r\\nUser-Agent: Mozilla/5.0 (Windows NT 10.0; Win64; x64) AppleWebKit/537.36 (KHTML, like Gecko) Chrome/120.0.0.0 Safari/537.36\\r\\nAccept-Encoding: gzip, deflate\\r\\nConnection: keep-alive\\r\\nHost: \", \"response\": \"HTTP/1.1 404\\r\\nServer: nginx/1.15.11\\r\\nDate: Fri, 06 Mar 2026 21:15:31 GMT\\r\\nContent-Type: text/html\\r\\nContent-Length: 154\\r\\nConnection: close\\r\\n\\r\\n\u003chtml\u003e\\r\\n\u003chead\u003e\u003ctitle\u003e404 Not Found\u003c/title\u003e\u003c/head\u003e\\r\\n\u003cbody\u003e\\r\\n\u003ccenter\u003e\u003ch1\u003e404 Not Found\u003c/h1\u003e\u003c/center\u003e\\r\\n\u003chr\u003e\u003ccenter\u003enginx/1.15.11\u003c/center\u003e\\r\\n\u003c/body\u003e\\r\\n\u003c/html\u003e\\r\\n\"}]","plugin_type":"python","created_at":"2026-03-07T05:15:32.814+08:00"},{"id":6131,"task_id":15,"plugin_id":null,"plugin_name":"WEB中间件信息收集","title":"中间件: nginx/1.15.11, Nginx — zxb.ccn.com.cn","severity":"low","target":"http://zxb.ccn.com.cn","detail":"中间件: nginx/1.15.11, Nginx — zxb.ccn.com.cn","evidence":"","request_log":"[{\"url\": \"zxb.ccn.com.cn\", \"request\": \"GET zxb.ccn.com.cn HTTP/1.1\\r\\nUser-Agent: Mozilla/5.0 (Windows NT 10.0; Win64; x64) AppleWebKit/537.36 (KHTML, like Gecko) Chrome/120.0.0.0 Safari/537.36\\r\\nAccept-Encoding: gzip, deflate\\r\\nConnection: keep-alive\\r\\nHost: \", \"response\": \"HTTP/1.1 404\\r\\nServer: nginx/1.15.11\\r\\nDate: Fri, 06 Mar 2026 21:15:29 GMT\\r\\nContent-Type: text/html\\r\\nContent-Length: 154\\r\\nConnection: close\\r\\n\\r\\n\u003chtml\u003e\\r\\n\u003chead\u003e\u003ctitle\u003e404 Not Found\u003c/title\u003e\u003c/head\u003e\\r\\n\u003cbody\u003e\\r\\n\u003ccenter\u003e\u003ch1\u003e404 Not Found\u003c/h1\u003e\u003c/center\u003e\\r\\n\u003chr\u003e\u003ccenter\u003enginx/1.15.11\u003c/center\u003e\\r\\n\u003c/body\u003e\\r\\n\u003c/html\u003e\\r\\n\"}]","plugin_type":"python","created_at":"2026-03-07T05:15:32.809+08:00"},{"id":6129,"task_id":15,"plugin_id":null,"plugin_name":"WEB程序信息收集","title":"技术栈: nginx/1.15.11 — zxb.ccn.com.cn","severity":"low","target":"http://zxb.ccn.com.cn","detail":"技术栈: nginx/1.15.11 — zxb.ccn.com.cn","evidence":"","request_log":"[{\"url\": \"zxb.ccn.com.cn\", \"request\": \"GET zxb.ccn.com.cn HTTP/1.1\\r\\nUser-Agent: Mozilla/5.0 (Windows NT 10.0; Win64; x64) AppleWebKit/537.36 (KHTML, like Gecko) Chrome/120.0.0.0 Safari/537.36\\r\\nAccept-Encoding: gzip, deflate\\r\\nConnection: keep-alive\\r\\nHost: \", \"response\": \"HTTP/1.1 404\\r\\nServer: nginx/1.15.11\\r\\nDate: Fri, 06 Mar 2026 21:15:28 GMT\\r\\nContent-Type: text/html\\r\\nContent-Length: 154\\r\\nConnection: close\\r\\n\\r\\n\u003chtml\u003e\\r\\n\u003chead\u003e\u003ctitle\u003e404 Not Found\u003c/title\u003e\u003c/head\u003e\\r\\n\u003cbody\u003e\\r\\n\u003ccenter\u003e\u003ch1\u003e404 Not Found\u003c/h1\u003e\u003c/center\u003e\\r\\n\u003chr\u003e\u003ccenter\u003enginx/1.15.11\u003c/center\u003e\\r\\n\u003c/body\u003e\\r\\n\u003c/html\u003e\\r\\n\"}]","plugin_type":"python","created_at":"2026-03-07T05:15:32.799+08:00"},{"id":6128,"task_id":15,"plugin_id":null,"plugin_name":"页面信息获取","title":"页面标题: 404 Not Found — zxb.ccn.com.cn","severity":"low","target":"http://zxb.ccn.com.cn","detail":"页面标题: 404 Not Found — zxb.ccn.com.cn","evidence":"","request_log":"[{\"url\": \"zxb.ccn.com.cn\", \"request\": \"GET zxb.ccn.com.cn HTTP/1.1\\r\\nUser-Agent: Mozilla/5.0 (Windows NT 10.0; Win64; x64) AppleWebKit/537.36 (KHTML, like Gecko) Chrome/120.0.0.0 Safari/537.36\\r\\nAccept-Encoding: gzip, deflate\\r\\nConnection: keep-alive\\r\\nHost: \", \"response\": \"HTTP/1.1 404\\r\\nServer: nginx/1.15.11\\r\\nDate: Fri, 06 Mar 2026 21:15:16 GMT\\r\\nContent-Type: text/html\\r\\nContent-Length: 154\\r\\nConnection: close\\r\\n\\r\\n\u003chtml\u003e\\r\\n\u003chead\u003e\u003ctitle\u003e404 Not Found\u003c/title\u003e\u003c/head\u003e\\r\\n\u003cbody\u003e\\r\\n\u003ccenter\u003e\u003ch1\u003e404 Not Found\u003c/h1\u003e\u003c/center\u003e\\r\\n\u003chr\u003e\u003ccenter\u003enginx/1.15.11\u003c/center\u003e\\r\\n\u003c/body\u003e\\r\\n\u003c/html\u003e\\r\\n\"}]","plugin_type":"python","created_at":"2026-03-07T05:15:17.732+08:00"},{"id":6127,"task_id":15,"plugin_id":null,"plugin_name":"WEB中间件信息收集","title":"中间件: nginx/1.15.11, Nginx — 315sh.ccn.com.cn","severity":"low","target":"http://315sh.ccn.com.cn","detail":"中间件: nginx/1.15.11, Nginx — 315sh.ccn.com.cn","evidence":"","request_log":"[{\"url\": \"315sh.ccn.com.cn\", \"request\": \"GET 315sh.ccn.com.cn HTTP/1.1\\r\\nUser-Agent: Mozilla/5.0 (Windows NT 10.0; Win64; x64) AppleWebKit/537.36 (KHTML, like Gecko) Chrome/120.0.0.0 Safari/537.36\\r\\nAccept-Encoding: gzip, deflate\\r\\nConnection: keep-alive\\r\\nHost: \", \"response\": \"HTTP/1.1 404\\r\\nServer: nginx/1.15.11\\r\\nDate: Fri, 06 Mar 2026 21:15:14 GMT\\r\\nContent-Type: text/html\\r\\nContent-Length: 154\\r\\nConnection: close\\r\\n\\r\\n\u003chtml\u003e\\r\\n\u003chead\u003e\u003ctitle\u003e404 Not Found\u003c/title\u003e\u003c/head\u003e\\r\\n\u003cbody\u003e\\r\\n\u003ccenter\u003e\u003ch1\u003e404 Not Found\u003c/h1\u003e\u003c/center\u003e\\r\\n\u003chr\u003e\u003ccenter\u003enginx/1.15.11\u003c/center\u003e\\r\\n\u003c/body\u003e\\r\\n\u003c/html\u003e\\r\\n\"}]","plugin_type":"python","created_at":"2026-03-07T05:15:17.727+08:00"},{"id":6125,"task_id":15,"plugin_id":null,"plugin_name":"WEB程序信息收集","title":"技术栈: nginx/1.15.11 — 315sh.ccn.com.cn","severity":"low","target":"http://315sh.ccn.com.cn","detail":"技术栈: nginx/1.15.11 — 315sh.ccn.com.cn","evidence":"","request_log":"[{\"url\": \"315sh.ccn.com.cn\", \"request\": \"GET 315sh.ccn.com.cn HTTP/1.1\\r\\nUser-Agent: Mozilla/5.0 (Windows NT 10.0; Win64; x64) AppleWebKit/537.36 (KHTML, like Gecko) Chrome/120.0.0.0 Safari/537.36\\r\\nAccept-Encoding: gzip, deflate\\r\\nConnection: keep-alive\\r\\nHost: \", \"response\": \"HTTP/1.1 404\\r\\nServer: nginx/1.15.11\\r\\nDate: Fri, 06 Mar 2026 21:15:13 GMT\\r\\nContent-Type: text/html\\r\\nContent-Length: 154\\r\\nConnection: close\\r\\n\\r\\n\u003chtml\u003e\\r\\n\u003chead\u003e\u003ctitle\u003e404 Not Found\u003c/title\u003e\u003c/head\u003e\\r\\n\u003cbody\u003e\\r\\n\u003ccenter\u003e\u003ch1\u003e404 Not Found\u003c/h1\u003e\u003c/center\u003e\\r\\n\u003chr\u003e\u003ccenter\u003enginx/1.15.11\u003c/center\u003e\\r\\n\u003c/body\u003e\\r\\n\u003c/html\u003e\\r\\n\"}]","plugin_type":"python","created_at":"2026-03-07T05:15:17.716+08:00"},{"id":6124,"task_id":15,"plugin_id":null,"plugin_name":"页面信息获取","title":"页面标题: 404 Not Found — 315sh.ccn.com.cn","severity":"low","target":"http://315sh.ccn.com.cn","detail":"页面标题: 404 Not Found — 315sh.ccn.com.cn","evidence":"","request_log":"[{\"url\": \"315sh.ccn.com.cn\", \"request\": \"GET 315sh.ccn.com.cn HTTP/1.1\\r\\nUser-Agent: Mozilla/5.0 (Windows NT 10.0; Win64; x64) AppleWebKit/537.36 (KHTML, like Gecko) Chrome/120.0.0.0 Safari/537.36\\r\\nAccept-Encoding: gzip, deflate\\r\\nConnection: keep-alive\\r\\nHost: \", \"response\": \"HTTP/1.1 404\\r\\nServer: nginx/1.15.11\\r\\nDate: Fri, 06 Mar 2026 21:15:01 GMT\\r\\nContent-Type: text/html\\r\\nContent-Length: 154\\r\\nConnection: close\\r\\n\\r\\n\u003chtml\u003e\\r\\n\u003chead\u003e\u003ctitle\u003e404 Not Found\u003c/title\u003e\u003c/head\u003e\\r\\n\u003cbody\u003e\\r\\n\u003ccenter\u003e\u003ch1\u003e404 Not Found\u003c/h1\u003e\u003c/center\u003e\\r\\n\u003chr\u003e\u003ccenter\u003enginx/1.15.11\u003c/center\u003e\\r\\n\u003c/body\u003e\\r\\n\u003c/html\u003e\\r\\n\"}]","plugin_type":"python","created_at":"2026-03-07T05:15:02.662+08:00"},{"id":6123,"task_id":15,"plugin_id":null,"plugin_name":"WEB中间件信息收集","title":"中间件: nginx/1.15.11, Nginx — tem.ccn.com.cn","severity":"low","target":"http://tem.ccn.com.cn","detail":"中间件: nginx/1.15.11, Nginx — tem.ccn.com.cn","evidence":"","request_log":"[{\"url\": \"tem.ccn.com.cn\", \"request\": \"GET tem.ccn.com.cn HTTP/1.1\\r\\nUser-Agent: Mozilla/5.0 (Windows NT 10.0; Win64; x64) AppleWebKit/537.36 (KHTML, like Gecko) Chrome/120.0.0.0 Safari/537.36\\r\\nAccept-Encoding: gzip, deflate\\r\\nConnection: keep-alive\\r\\nHost: \", \"response\": \"HTTP/1.1 404\\r\\nServer: nginx/1.15.11\\r\\nDate: Fri, 06 Mar 2026 21:14:59 GMT\\r\\nContent-Type: text/html\\r\\nContent-Length: 154\\r\\nConnection: close\\r\\n\\r\\n\u003chtml\u003e\\r\\n\u003chead\u003e\u003ctitle\u003e404 Not Found\u003c/title\u003e\u003c/head\u003e\\r\\n\u003cbody\u003e\\r\\n\u003ccenter\u003e\u003ch1\u003e404 Not Found\u003c/h1\u003e\u003c/center\u003e\\r\\n\u003chr\u003e\u003ccenter\u003enginx/1.15.11\u003c/center\u003e\\r\\n\u003c/body\u003e\\r\\n\u003c/html\u003e\\r\\n\"}]","plugin_type":"python","created_at":"2026-03-07T05:15:02.656+08:00"},{"id":6121,"task_id":15,"plugin_id":null,"plugin_name":"WEB程序信息收集","title":"技术栈: nginx/1.15.11 — tem.ccn.com.cn","severity":"low","target":"http://tem.ccn.com.cn","detail":"技术栈: nginx/1.15.11 — tem.ccn.com.cn","evidence":"","request_log":"[{\"url\": \"tem.ccn.com.cn\", \"request\": \"GET tem.ccn.com.cn HTTP/1.1\\r\\nUser-Agent: Mozilla/5.0 (Windows NT 10.0; Win64; x64) AppleWebKit/537.36 (KHTML, like Gecko) Chrome/120.0.0.0 Safari/537.36\\r\\nAccept-Encoding: gzip, deflate\\r\\nConnection: keep-alive\\r\\nHost: \", \"response\": \"HTTP/1.1 404\\r\\nServer: nginx/1.15.11\\r\\nDate: Fri, 06 Mar 2026 21:14:56 GMT\\r\\nContent-Type: text/html\\r\\nContent-Length: 154\\r\\nConnection: close\\r\\n\\r\\n\u003chtml\u003e\\r\\n\u003chead\u003e\u003ctitle\u003e404 Not Found\u003c/title\u003e\u003c/head\u003e\\r\\n\u003cbody\u003e\\r\\n\u003ccenter\u003e\u003ch1\u003e404 Not Found\u003c/h1\u003e\u003c/center\u003e\\r\\n\u003chr\u003e\u003ccenter\u003enginx/1.15.11\u003c/center\u003e\\r\\n\u003c/body\u003e\\r\\n\u003c/html\u003e\\r\\n\"}]","plugin_type":"python","created_at":"2026-03-07T05:14:57.62+08:00"},{"id":6120,"task_id":15,"plugin_id":null,"plugin_name":"页面信息获取","title":"页面标题: 404 Not Found — tem.ccn.com.cn","severity":"low","target":"http://tem.ccn.com.cn","detail":"页面标题: 404 Not Found — tem.ccn.com.cn","evidence":"","request_log":"[{\"url\": \"tem.ccn.com.cn\", \"request\": \"GET tem.ccn.com.cn HTTP/1.1\\r\\nUser-Agent: Mozilla/5.0 (Windows NT 10.0; Win64; x64) AppleWebKit/537.36 (KHTML, like Gecko) Chrome/120.0.0.0 Safari/537.36\\r\\nAccept-Encoding: gzip, deflate\\r\\nConnection: keep-alive\\r\\nHost: \", \"response\": \"HTTP/1.1 404\\r\\nServer: nginx/1.15.11\\r\\nDate: Fri, 06 Mar 2026 21:14:30 GMT\\r\\nContent-Type: text/html\\r\\nContent-Length: 154\\r\\nConnection: close\\r\\n\\r\\n\u003chtml\u003e\\r\\n\u003chead\u003e\u003ctitle\u003e404 Not Found\u003c/title\u003e\u003c/head\u003e\\r\\n\u003cbody\u003e\\r\\n\u003ccenter\u003e\u003ch1\u003e404 Not Found\u003c/h1\u003e\u003c/center\u003e\\r\\n\u003chr\u003e\u003ccenter\u003enginx/1.15.11\u003c/center\u003e\\r\\n\u003c/body\u003e\\r\\n\u003c/html\u003e\\r\\n\"}]","plugin_type":"python","created_at":"2026-03-07T05:14:32.499+08:00"},{"id":6119,"task_id":15,"plugin_id":null,"plugin_name":"WEB中间件信息收集","title":"中间件: nginx/1.15.11, Nginx — js.ccn.com.cn","severity":"low","target":"http://js.ccn.com.cn","detail":"中间件: nginx/1.15.11, Nginx — js.ccn.com.cn","evidence":"","request_log":"[{\"url\": \"js.ccn.com.cn\", \"request\": \"GET js.ccn.com.cn HTTP/1.1\\r\\nUser-Agent: Mozilla/5.0 (Windows NT 10.0; Win64; x64) AppleWebKit/537.36 (KHTML, like Gecko) Chrome/120.0.0.0 Safari/537.36\\r\\nAccept-Encoding: gzip, deflate\\r\\nConnection: keep-alive\\r\\nHost: \", \"response\": \"HTTP/1.1 404\\r\\nServer: nginx/1.15.11\\r\\nDate: Fri, 06 Mar 2026 21:14:27 GMT\\r\\nContent-Type: text/html\\r\\nContent-Length: 154\\r\\nConnection: close\\r\\n\\r\\n\u003chtml\u003e\\r\\n\u003chead\u003e\u003ctitle\u003e404 Not Found\u003c/title\u003e\u003c/head\u003e\\r\\n\u003cbody\u003e\\r\\n\u003ccenter\u003e\u003ch1\u003e404 Not Found\u003c/h1\u003e\u003c/center\u003e\\r\\n\u003chr\u003e\u003ccenter\u003enginx/1.15.11\u003c/center\u003e\\r\\n\u003c/body\u003e\\r\\n\u003c/html\u003e\\r\\n\"}]","plugin_type":"python","created_at":"2026-03-07T05:14:27.452+08:00"}],"total":42,"page":1,"pages":3}