{"items":[{"id":96,"task_id":3,"plugin_id":null,"plugin_name":"任意邮件伪造检测","title":"ccn.com.cn","severity":"medium","target":"https://ccn.com.cn","detail":"ccn.com.cn","evidence":"","request_log":"","plugin_type":"python","created_at":"2026-03-06T21:54:25.153+08:00"},{"id":451,"task_id":3,"plugin_id":null,"plugin_name":"深度端口指纹识别","title":"Port: 80 | Service: unknown | Response: 'HTTP/1.1 400 Bad Request\\r\\nDate: Fri, 06 Mar 2026 1'","severity":"info","target":"http://43.154.252.250","detail":"Port: 80 | Service: unknown | Response: 'HTTP/1.1 400 Bad Request\\r\\nDate: Fri, 06 Mar 2026 1'","evidence":"","request_log":"","plugin_type":"python","created_at":"2026-03-06T22:26:51.772+08:00"},{"id":450,"task_id":3,"plugin_id":null,"plugin_name":"深度端口指纹识别","title":"TCP ports: [80, 443]","severity":"info","target":"http://43.154.252.250","detail":"TCP ports: [80, 443]","evidence":"","request_log":"","plugin_type":"python","created_at":"2026-03-06T22:26:51.767+08:00"},{"id":449,"task_id":3,"plugin_id":null,"plugin_name":"深度端口指纹识别","title":"Port: 80 | Service: http | App: Tengine httpd","severity":"info","target":"http://js.ccn.com.cn","detail":"Port: 80 | Service: http | App: Tengine httpd","evidence":"","request_log":"","plugin_type":"python","created_at":"2026-03-06T22:17:46.504+08:00"},{"id":448,"task_id":3,"plugin_id":null,"plugin_name":"深度端口指纹识别","title":"TCP ports: [80, 443, 1935]","severity":"info","target":"http://js.ccn.com.cn","detail":"TCP ports: [80, 443, 1935]","evidence":"","request_log":"","plugin_type":"python","created_at":"2026-03-06T22:17:46.498+08:00"},{"id":447,"task_id":3,"plugin_id":null,"plugin_name":"深度端口指纹识别","title":"Port: 54321 | Service: ssl/http | App: nginx","severity":"info","target":"https://ccn.com.cn","detail":"Port: 54321 | Service: ssl/http | App: nginx","evidence":"","request_log":"","plugin_type":"python","created_at":"2026-03-06T21:58:16.585+08:00"},{"id":446,"task_id":3,"plugin_id":null,"plugin_name":"深度端口指纹识别","title":"Port: 50001 | Service: unknown | Response: 'HTTP/1.1 400 Bad Request\\r\\nDate: Fri, 06 Mar 2026 1'","severity":"info","target":"https://ccn.com.cn","detail":"Port: 50001 | Service: unknown | Response: 'HTTP/1.1 400 Bad Request\\r\\nDate: Fri, 06 Mar 2026 1'","evidence":"","request_log":"","plugin_type":"python","created_at":"2026-03-06T21:58:16.582+08:00"},{"id":445,"task_id":3,"plugin_id":null,"plugin_name":"深度端口指纹识别","title":"Port: 48000 | Service: ssl/http | App: nginx","severity":"info","target":"https://ccn.com.cn","detail":"Port: 48000 | Service: ssl/http | App: nginx","evidence":"","request_log":"","plugin_type":"python","created_at":"2026-03-06T21:58:16.58+08:00"},{"id":444,"task_id":3,"plugin_id":null,"plugin_name":"深度端口指纹识别","title":"Port: 50000 | Service: unknown | Response: 'HTTP/1.1 400 Bad Request\\r\\nDate: Fri, 06 Mar 2026 1'","severity":"info","target":"https://ccn.com.cn","detail":"Port: 50000 | Service: unknown | Response: 'HTTP/1.1 400 Bad Request\\r\\nDate: Fri, 06 Mar 2026 1'","evidence":"","request_log":"","plugin_type":"python","created_at":"2026-03-06T21:58:16.577+08:00"},{"id":443,"task_id":3,"plugin_id":null,"plugin_name":"深度端口指纹识别","title":"Port: 48001 | Service: ssl/http | App: nginx","severity":"info","target":"https://ccn.com.cn","detail":"Port: 48001 | Service: ssl/http | App: nginx","evidence":"","request_log":"","plugin_type":"python","created_at":"2026-03-06T21:58:16.574+08:00"},{"id":442,"task_id":3,"plugin_id":null,"plugin_name":"深度端口指纹识别","title":"Port: 40001 | Service: ssl/http | App: nginx","severity":"info","target":"https://ccn.com.cn","detail":"Port: 40001 | Service: ssl/http | App: nginx","evidence":"","request_log":"","plugin_type":"python","created_at":"2026-03-06T21:58:16.572+08:00"},{"id":441,"task_id":3,"plugin_id":null,"plugin_name":"深度端口指纹识别","title":"Port: 41443 | Service: ssl/http | App: nginx","severity":"info","target":"https://ccn.com.cn","detail":"Port: 41443 | Service: ssl/http | App: nginx","evidence":"","request_log":"","plugin_type":"python","created_at":"2026-03-06T21:58:16.561+08:00"},{"id":440,"task_id":3,"plugin_id":null,"plugin_name":"深度端口指纹识别","title":"Port: 34567 | Service: http | App: nginx","severity":"info","target":"https://ccn.com.cn","detail":"Port: 34567 | Service: http | App: nginx","evidence":"","request_log":"","plugin_type":"python","created_at":"2026-03-06T21:58:16.558+08:00"},{"id":439,"task_id":3,"plugin_id":null,"plugin_name":"深度端口指纹识别","title":"Port: 28001 | Service: unknown | Response: 'HTTP/1.1 400 Bad Request\\r\\nDate: Fri, 06 Mar 2026 1'","severity":"info","target":"https://ccn.com.cn","detail":"Port: 28001 | Service: unknown | Response: 'HTTP/1.1 400 Bad Request\\r\\nDate: Fri, 06 Mar 2026 1'","evidence":"","request_log":"","plugin_type":"python","created_at":"2026-03-06T21:58:16.555+08:00"},{"id":438,"task_id":3,"plugin_id":null,"plugin_name":"深度端口指纹识别","title":"Port: 30101 | Service: ssl/http | App: nginx","severity":"info","target":"https://ccn.com.cn","detail":"Port: 30101 | Service: ssl/http | App: nginx","evidence":"","request_log":"","plugin_type":"python","created_at":"2026-03-06T21:58:16.553+08:00"},{"id":437,"task_id":3,"plugin_id":null,"plugin_name":"深度端口指纹识别","title":"Port: 22000 | Service: ssl/http | App: nginx","severity":"info","target":"https://ccn.com.cn","detail":"Port: 22000 | Service: ssl/http | App: nginx","evidence":"","request_log":"","plugin_type":"python","created_at":"2026-03-06T21:58:16.55+08:00"},{"id":436,"task_id":3,"plugin_id":null,"plugin_name":"深度端口指纹识别","title":"Port: 30001 | Service: ssl/http | App: nginx","severity":"info","target":"https://ccn.com.cn","detail":"Port: 30001 | Service: ssl/http | App: nginx","evidence":"","request_log":"","plugin_type":"python","created_at":"2026-03-06T21:58:16.548+08:00"},{"id":435,"task_id":3,"plugin_id":null,"plugin_name":"深度端口指纹识别","title":"Port: 20020 | Service: unknown | Response: 'HTTP/1.1 400 Bad Request\\r\\nDate: Fri, 06 Mar 2026 1'","severity":"info","target":"https://ccn.com.cn","detail":"Port: 20020 | Service: unknown | Response: 'HTTP/1.1 400 Bad Request\\r\\nDate: Fri, 06 Mar 2026 1'","evidence":"","request_log":"","plugin_type":"python","created_at":"2026-03-06T21:58:16.545+08:00"},{"id":434,"task_id":3,"plugin_id":null,"plugin_name":"深度端口指纹识别","title":"Port: 17770 | Service: ssl/http | App: nginx","severity":"info","target":"https://ccn.com.cn","detail":"Port: 17770 | Service: ssl/http | App: nginx","evidence":"","request_log":"","plugin_type":"python","created_at":"2026-03-06T21:58:16.542+08:00"},{"id":433,"task_id":3,"plugin_id":null,"plugin_name":"深度端口指纹识别","title":"Port: 20200 | Service: ssl/http | App: nginx","severity":"info","target":"https://ccn.com.cn","detail":"Port: 20200 | Service: ssl/http | App: nginx","evidence":"","request_log":"","plugin_type":"python","created_at":"2026-03-06T21:58:16.539+08:00"}],"total":357,"page":1,"pages":18}