{"items":[{"id":2859,"task_id":11,"plugin_id":null,"plugin_name":"深度端口指纹识别","title":"Port: 6011 | Service: unknown","severity":"info","target":"http://zhibao.dzzq.com.cn","detail":"Port: 6011 | Service: unknown","evidence":"","request_log":"","plugin_type":"python","created_at":"2026-03-07T02:00:21.112+08:00"},{"id":2858,"task_id":11,"plugin_id":null,"plugin_name":"深度端口指纹识别","title":"Port: 6009 | Service: unknown","severity":"info","target":"http://zhibao.dzzq.com.cn","detail":"Port: 6009 | Service: unknown","evidence":"","request_log":"","plugin_type":"python","created_at":"2026-03-07T02:00:21.107+08:00"},{"id":2857,"task_id":11,"plugin_id":null,"plugin_name":"深度端口指纹识别","title":"Port: 6008 | Service: unknown","severity":"info","target":"http://zhibao.dzzq.com.cn","detail":"Port: 6008 | Service: unknown","evidence":"","request_log":"","plugin_type":"python","created_at":"2026-03-07T02:00:21.102+08:00"},{"id":2856,"task_id":11,"plugin_id":null,"plugin_name":"深度端口指纹识别","title":"Port: 6007 | Service: unknown","severity":"info","target":"http://zhibao.dzzq.com.cn","detail":"Port: 6007 | Service: unknown","evidence":"","request_log":"","plugin_type":"python","created_at":"2026-03-07T02:00:21.075+08:00"},{"id":2855,"task_id":11,"plugin_id":null,"plugin_name":"深度端口指纹识别","title":"Port: 1761 | Service: unknown","severity":"info","target":"http://zhibao.dzzq.com.cn","detail":"Port: 1761 | Service: unknown","evidence":"","request_log":"","plugin_type":"python","created_at":"2026-03-07T02:00:21.071+08:00"},{"id":2854,"task_id":11,"plugin_id":null,"plugin_name":"深度端口指纹识别","title":"Port: 1415 | Service: unknown","severity":"info","target":"http://zhibao.dzzq.com.cn","detail":"Port: 1415 | Service: unknown","evidence":"","request_log":"","plugin_type":"python","created_at":"2026-03-07T02:00:21.066+08:00"},{"id":2853,"task_id":11,"plugin_id":null,"plugin_name":"深度端口指纹识别","title":"Port: 6006 | Service: unknown","severity":"info","target":"http://zhibao.dzzq.com.cn","detail":"Port: 6006 | Service: unknown","evidence":"","request_log":"","plugin_type":"python","created_at":"2026-03-07T02:00:21.062+08:00"},{"id":2852,"task_id":11,"plugin_id":null,"plugin_name":"深度端口指纹识别","title":"Port: 6004 | Service: unknown","severity":"info","target":"http://zhibao.dzzq.com.cn","detail":"Port: 6004 | Service: unknown","evidence":"","request_log":"","plugin_type":"python","created_at":"2026-03-07T02:00:21.058+08:00"},{"id":2851,"task_id":11,"plugin_id":null,"plugin_name":"深度端口指纹识别","title":"Port: 6005 | Service: unknown","severity":"info","target":"http://zhibao.dzzq.com.cn","detail":"Port: 6005 | Service: unknown","evidence":"","request_log":"","plugin_type":"python","created_at":"2026-03-07T02:00:21.053+08:00"},{"id":2850,"task_id":11,"plugin_id":null,"plugin_name":"深度端口指纹识别","title":"Port: 6000 | Service: unknown","severity":"info","target":"http://zhibao.dzzq.com.cn","detail":"Port: 6000 | Service: unknown","evidence":"","request_log":"","plugin_type":"python","created_at":"2026-03-07T02:00:21.048+08:00"},{"id":2849,"task_id":11,"plugin_id":null,"plugin_name":"深度端口指纹识别","title":"Port: 6003 | Service: unknown","severity":"info","target":"http://zhibao.dzzq.com.cn","detail":"Port: 6003 | Service: unknown","evidence":"","request_log":"","plugin_type":"python","created_at":"2026-03-07T02:00:21.044+08:00"},{"id":2848,"task_id":11,"plugin_id":null,"plugin_name":"深度端口指纹识别","title":"Port: 6002 | Service: unknown","severity":"info","target":"http://zhibao.dzzq.com.cn","detail":"Port: 6002 | Service: unknown","evidence":"","request_log":"","plugin_type":"python","created_at":"2026-03-07T02:00:21.04+08:00"},{"id":2847,"task_id":11,"plugin_id":null,"plugin_name":"深度端口指纹识别","title":"Port: 5999 | Service: unknown","severity":"info","target":"http://zhibao.dzzq.com.cn","detail":"Port: 5999 | Service: unknown","evidence":"","request_log":"","plugin_type":"python","created_at":"2026-03-07T02:00:21.036+08:00"},{"id":2846,"task_id":11,"plugin_id":null,"plugin_name":"深度端口指纹识别","title":"Port: 26002 | Service: unknown","severity":"info","target":"http://zhibao.dzzq.com.cn","detail":"Port: 26002 | Service: unknown","evidence":"","request_log":"","plugin_type":"python","created_at":"2026-03-07T02:00:21.032+08:00"},{"id":2845,"task_id":11,"plugin_id":null,"plugin_name":"深度端口指纹识别","title":"Port: 3940 | Service: unknown","severity":"info","target":"http://zhibao.dzzq.com.cn","detail":"Port: 3940 | Service: unknown","evidence":"","request_log":"","plugin_type":"python","created_at":"2026-03-07T02:00:21.028+08:00"},{"id":2844,"task_id":11,"plugin_id":null,"plugin_name":"深度端口指纹识别","title":"Port: 5985 | Service: unknown","severity":"info","target":"http://zhibao.dzzq.com.cn","detail":"Port: 5985 | Service: unknown","evidence":"","request_log":"","plugin_type":"python","created_at":"2026-03-07T02:00:21.024+08:00"},{"id":2843,"task_id":11,"plugin_id":null,"plugin_name":"深度端口指纹识别","title":"Port: 18264 | Service: unknown","severity":"info","target":"http://zhibao.dzzq.com.cn","detail":"Port: 18264 | Service: unknown","evidence":"","request_log":"","plugin_type":"python","created_at":"2026-03-07T02:00:21.02+08:00"},{"id":2842,"task_id":11,"plugin_id":null,"plugin_name":"深度端口指纹识别","title":"Port: 1400 | Service: unknown","severity":"info","target":"http://zhibao.dzzq.com.cn","detail":"Port: 1400 | Service: unknown","evidence":"","request_log":"","plugin_type":"python","created_at":"2026-03-07T02:00:21.016+08:00"},{"id":2841,"task_id":11,"plugin_id":null,"plugin_name":"深度端口指纹识别","title":"Port: 8010 | Service: unknown","severity":"info","target":"http://zhibao.dzzq.com.cn","detail":"Port: 8010 | Service: unknown","evidence":"","request_log":"","plugin_type":"python","created_at":"2026-03-07T02:00:21.012+08:00"},{"id":2840,"task_id":11,"plugin_id":null,"plugin_name":"深度端口指纹识别","title":"Port: 8007 | Service: unknown","severity":"info","target":"http://zhibao.dzzq.com.cn","detail":"Port: 8007 | Service: unknown","evidence":"","request_log":"","plugin_type":"python","created_at":"2026-03-07T02:00:21.007+08:00"}],"total":830,"page":5,"pages":42}