{"items":[{"id":3665,"task_id":12,"plugin_id":null,"plugin_name":"深度端口指纹识别","title":"Port: 6002 | Service: unknown","severity":"info","target":"http://zhibao.dzzq.com.cn","detail":"Port: 6002 | Service: unknown","evidence":"","request_log":"","plugin_type":"python","created_at":"2026-03-07T02:50:57.951+08:00"},{"id":3664,"task_id":12,"plugin_id":null,"plugin_name":"深度端口指纹识别","title":"Port: 6013 | Service: unknown","severity":"info","target":"http://zhibao.dzzq.com.cn","detail":"Port: 6013 | Service: unknown","evidence":"","request_log":"","plugin_type":"python","created_at":"2026-03-07T02:50:57.948+08:00"},{"id":3663,"task_id":12,"plugin_id":null,"plugin_name":"深度端口指纹识别","title":"Port: 8010 | Service: unknown","severity":"info","target":"http://zhibao.dzzq.com.cn","detail":"Port: 8010 | Service: unknown","evidence":"","request_log":"","plugin_type":"python","created_at":"2026-03-07T02:50:57.937+08:00"},{"id":3662,"task_id":12,"plugin_id":null,"plugin_name":"深度端口指纹识别","title":"Port: 8007 | Service: unknown","severity":"info","target":"http://zhibao.dzzq.com.cn","detail":"Port: 8007 | Service: unknown","evidence":"","request_log":"","plugin_type":"python","created_at":"2026-03-07T02:50:57.934+08:00"},{"id":3661,"task_id":12,"plugin_id":null,"plugin_name":"深度端口指纹识别","title":"Port: 6000 | Service: unknown","severity":"info","target":"http://zhibao.dzzq.com.cn","detail":"Port: 6000 | Service: unknown","evidence":"","request_log":"","plugin_type":"python","created_at":"2026-03-07T02:50:57.932+08:00"},{"id":3660,"task_id":12,"plugin_id":null,"plugin_name":"深度端口指纹识别","title":"Port: 8006 | Service: unknown","severity":"info","target":"http://zhibao.dzzq.com.cn","detail":"Port: 8006 | Service: unknown","evidence":"","request_log":"","plugin_type":"python","created_at":"2026-03-07T02:50:57.929+08:00"},{"id":3659,"task_id":12,"plugin_id":null,"plugin_name":"深度端口指纹识别","title":"Port: 8005 | Service: unknown","severity":"info","target":"http://zhibao.dzzq.com.cn","detail":"Port: 8005 | Service: unknown","evidence":"","request_log":"","plugin_type":"python","created_at":"2026-03-07T02:50:57.926+08:00"},{"id":3658,"task_id":12,"plugin_id":null,"plugin_name":"深度端口指纹识别","title":"Port: 8004 | Service: unknown","severity":"info","target":"http://zhibao.dzzq.com.cn","detail":"Port: 8004 | Service: unknown","evidence":"","request_log":"","plugin_type":"python","created_at":"2026-03-07T02:50:57.923+08:00"},{"id":3657,"task_id":12,"plugin_id":null,"plugin_name":"深度端口指纹识别","title":"Port: 3900 | Service: unknown","severity":"info","target":"http://zhibao.dzzq.com.cn","detail":"Port: 3900 | Service: unknown","evidence":"","request_log":"","plugin_type":"python","created_at":"2026-03-07T02:50:57.921+08:00"},{"id":3656,"task_id":12,"plugin_id":null,"plugin_name":"深度端口指纹识别","title":"Port: 10005 | Service: unknown","severity":"info","target":"http://zhibao.dzzq.com.cn","detail":"Port: 10005 | Service: unknown","evidence":"","request_log":"","plugin_type":"python","created_at":"2026-03-07T02:50:57.918+08:00"},{"id":3655,"task_id":12,"plugin_id":null,"plugin_name":"深度端口指纹识别","title":"Port: 3872 | Service: unknown","severity":"info","target":"http://zhibao.dzzq.com.cn","detail":"Port: 3872 | Service: unknown","evidence":"","request_log":"","plugin_type":"python","created_at":"2026-03-07T02:50:57.915+08:00"},{"id":3654,"task_id":12,"plugin_id":null,"plugin_name":"深度端口指纹识别","title":"Port: 3892 | Service: unknown","severity":"info","target":"http://zhibao.dzzq.com.cn","detail":"Port: 3892 | Service: unknown","evidence":"","request_log":"","plugin_type":"python","created_at":"2026-03-07T02:50:57.912+08:00"},{"id":3653,"task_id":12,"plugin_id":null,"plugin_name":"深度端口指纹识别","title":"Port: 1830 | Service: unknown","severity":"info","target":"http://zhibao.dzzq.com.cn","detail":"Port: 1830 | Service: unknown","evidence":"","request_log":"","plugin_type":"python","created_at":"2026-03-07T02:50:57.909+08:00"},{"id":3652,"task_id":12,"plugin_id":null,"plugin_name":"深度端口指纹识别","title":"Port: 10031 | Service: unknown","severity":"info","target":"http://zhibao.dzzq.com.cn","detail":"Port: 10031 | Service: unknown","evidence":"","request_log":"","plugin_type":"python","created_at":"2026-03-07T02:50:57.907+08:00"},{"id":3651,"task_id":12,"plugin_id":null,"plugin_name":"深度端口指纹识别","title":"Port: 1000 | Service: http | App: Tengine httpd","severity":"info","target":"http://zhibao.dzzq.com.cn","detail":"Port: 1000 | Service: http | App: Tengine httpd","evidence":"","request_log":"","plugin_type":"python","created_at":"2026-03-07T02:50:57.904+08:00"},{"id":3650,"task_id":12,"plugin_id":null,"plugin_name":"深度端口指纹识别","title":"Port: 7070 | Service: http | App: Tengine httpd","severity":"info","target":"http://zhibao.dzzq.com.cn","detail":"Port: 7070 | Service: http | App: Tengine httpd","evidence":"","request_log":"","plugin_type":"python","created_at":"2026-03-07T02:50:57.901+08:00"},{"id":3649,"task_id":12,"plugin_id":null,"plugin_name":"深度端口指纹识别","title":"Port: 9987 | Service: unknown","severity":"info","target":"http://zhibao.dzzq.com.cn","detail":"Port: 9987 | Service: unknown","evidence":"","request_log":"","plugin_type":"python","created_at":"2026-03-07T02:50:57.899+08:00"},{"id":3648,"task_id":12,"plugin_id":null,"plugin_name":"深度端口指纹识别","title":"Port: 9991 | Service: unknown","severity":"info","target":"http://zhibao.dzzq.com.cn","detail":"Port: 9991 | Service: unknown","evidence":"","request_log":"","plugin_type":"python","created_at":"2026-03-07T02:50:57.896+08:00"},{"id":3647,"task_id":12,"plugin_id":null,"plugin_name":"深度端口指纹识别","title":"Port: 18182 | Service: unknown","severity":"info","target":"http://zhibao.dzzq.com.cn","detail":"Port: 18182 | Service: unknown","evidence":"","request_log":"","plugin_type":"python","created_at":"2026-03-07T02:50:57.893+08:00"},{"id":3646,"task_id":12,"plugin_id":null,"plugin_name":"深度端口指纹识别","title":"Port: 30444 | Service: unknown","severity":"info","target":"http://zhibao.dzzq.com.cn","detail":"Port: 30444 | Service: unknown","evidence":"","request_log":"","plugin_type":"python","created_at":"2026-03-07T02:50:57.89+08:00"}],"total":826,"page":6,"pages":42}