{"items":[{"id":2939,"task_id":11,"plugin_id":null,"plugin_name":"深度端口指纹识别","title":"Port: 32757 | Service: unknown","severity":"info","target":"http://zhibao.dzzq.com.cn","detail":"Port: 32757 | Service: unknown","evidence":"","request_log":"","plugin_type":"python","created_at":"2026-03-07T02:00:26.8+08:00"},{"id":2938,"task_id":11,"plugin_id":null,"plugin_name":"深度端口指纹识别","title":"Port: 8181 | Service: http | App: Tengine httpd","severity":"info","target":"http://zhibao.dzzq.com.cn","detail":"Port: 8181 | Service: http | App: Tengine httpd","evidence":"","request_log":"","plugin_type":"python","created_at":"2026-03-07T02:00:26.796+08:00"},{"id":2937,"task_id":11,"plugin_id":null,"plugin_name":"深度端口指纹识别","title":"Port: 8087 | Service: http | App: Tengine httpd","severity":"info","target":"http://zhibao.dzzq.com.cn","detail":"Port: 8087 | Service: http | App: Tengine httpd","evidence":"","request_log":"","plugin_type":"python","created_at":"2026-03-07T02:00:26.792+08:00"},{"id":2936,"task_id":11,"plugin_id":null,"plugin_name":"深度端口指纹识别","title":"Port: 32751 | Service: unknown","severity":"info","target":"http://zhibao.dzzq.com.cn","detail":"Port: 32751 | Service: unknown","evidence":"","request_log":"","plugin_type":"python","created_at":"2026-03-07T02:00:26.776+08:00"},{"id":2935,"task_id":11,"plugin_id":null,"plugin_name":"深度端口指纹识别","title":"Port: 8082 | Service: http | App: Tengine httpd","severity":"info","target":"http://zhibao.dzzq.com.cn","detail":"Port: 8082 | Service: http | App: Tengine httpd","evidence":"","request_log":"","plugin_type":"python","created_at":"2026-03-07T02:00:26.772+08:00"},{"id":2934,"task_id":11,"plugin_id":null,"plugin_name":"深度端口指纹识别","title":"Port: 8088 | Service: http | App: Tengine httpd","severity":"info","target":"http://zhibao.dzzq.com.cn","detail":"Port: 8088 | Service: http | App: Tengine httpd","evidence":"","request_log":"","plugin_type":"python","created_at":"2026-03-07T02:00:26.769+08:00"},{"id":2933,"task_id":11,"plugin_id":null,"plugin_name":"深度端口指纹识别","title":"Port: 8085 | Service: http | App: Tengine httpd","severity":"info","target":"http://zhibao.dzzq.com.cn","detail":"Port: 8085 | Service: http | App: Tengine httpd","evidence":"","request_log":"","plugin_type":"python","created_at":"2026-03-07T02:00:26.765+08:00"},{"id":2932,"task_id":11,"plugin_id":null,"plugin_name":"深度端口指纹识别","title":"Port: 8091 | Service: http | App: Tengine httpd","severity":"info","target":"http://zhibao.dzzq.com.cn","detail":"Port: 8091 | Service: http | App: Tengine httpd","evidence":"","request_log":"","plugin_type":"python","created_at":"2026-03-07T02:00:26.761+08:00"},{"id":2931,"task_id":11,"plugin_id":null,"plugin_name":"深度端口指纹识别","title":"Port: 8084 | Service: http | App: Tengine httpd","severity":"info","target":"http://zhibao.dzzq.com.cn","detail":"Port: 8084 | Service: http | App: Tengine httpd","evidence":"","request_log":"","plugin_type":"python","created_at":"2026-03-07T02:00:26.757+08:00"},{"id":2930,"task_id":11,"plugin_id":null,"plugin_name":"深度端口指纹识别","title":"Port: 8080 | Service: http | App: Tengine httpd","severity":"info","target":"http://zhibao.dzzq.com.cn","detail":"Port: 8080 | Service: http | App: Tengine httpd","evidence":"","request_log":"","plugin_type":"python","created_at":"2026-03-07T02:00:26.752+08:00"},{"id":2929,"task_id":11,"plugin_id":null,"plugin_name":"深度端口指纹识别","title":"Port: 8009 | Service: http | App: Tengine httpd","severity":"info","target":"http://zhibao.dzzq.com.cn","detail":"Port: 8009 | Service: http | App: Tengine httpd","evidence":"","request_log":"","plugin_type":"python","created_at":"2026-03-07T02:00:26.749+08:00"},{"id":2928,"task_id":11,"plugin_id":null,"plugin_name":"深度端口指纹识别","title":"Port: 6014 | Service: unknown","severity":"info","target":"http://zhibao.dzzq.com.cn","detail":"Port: 6014 | Service: unknown","evidence":"","request_log":"","plugin_type":"python","created_at":"2026-03-07T02:00:26.745+08:00"},{"id":2927,"task_id":11,"plugin_id":null,"plugin_name":"深度端口指纹识别","title":"Port: 8083 | Service: http | App: Tengine httpd","severity":"info","target":"http://zhibao.dzzq.com.cn","detail":"Port: 8083 | Service: http | App: Tengine httpd","evidence":"","request_log":"","plugin_type":"python","created_at":"2026-03-07T02:00:26.741+08:00"},{"id":2926,"task_id":11,"plugin_id":null,"plugin_name":"深度端口指纹识别","title":"Port: 8081 | Service: http | App: Tengine httpd","severity":"info","target":"http://zhibao.dzzq.com.cn","detail":"Port: 8081 | Service: http | App: Tengine httpd","evidence":"","request_log":"","plugin_type":"python","created_at":"2026-03-07T02:00:26.737+08:00"},{"id":2925,"task_id":11,"plugin_id":null,"plugin_name":"深度端口指纹识别","title":"Port: 6001 | Service: http | App: Tengine httpd","severity":"info","target":"http://zhibao.dzzq.com.cn","detail":"Port: 6001 | Service: http | App: Tengine httpd","evidence":"","request_log":"","plugin_type":"python","created_at":"2026-03-07T02:00:26.733+08:00"},{"id":2924,"task_id":11,"plugin_id":null,"plugin_name":"深度端口指纹识别","title":"Port: 10080 | Service: http | App: Tengine httpd","severity":"info","target":"http://zhibao.dzzq.com.cn","detail":"Port: 10080 | Service: http | App: Tengine httpd","evidence":"","request_log":"","plugin_type":"python","created_at":"2026-03-07T02:00:26.729+08:00"},{"id":2923,"task_id":11,"plugin_id":null,"plugin_name":"深度端口指纹识别","title":"Port: 8008 | Service: http | App: Tengine httpd","severity":"info","target":"http://zhibao.dzzq.com.cn","detail":"Port: 8008 | Service: http | App: Tengine httpd","evidence":"","request_log":"","plugin_type":"python","created_at":"2026-03-07T02:00:26.725+08:00"},{"id":2922,"task_id":11,"plugin_id":null,"plugin_name":"深度端口指纹识别","title":"Port: 8001 | Service: http | App: Tengine httpd","severity":"info","target":"http://zhibao.dzzq.com.cn","detail":"Port: 8001 | Service: http | App: Tengine httpd","evidence":"","request_log":"","plugin_type":"python","created_at":"2026-03-07T02:00:26.72+08:00"},{"id":2921,"task_id":11,"plugin_id":null,"plugin_name":"深度端口指纹识别","title":"Port: 26470 | Service: unknown","severity":"info","target":"http://zhibao.dzzq.com.cn","detail":"Port: 26470 | Service: unknown","evidence":"","request_log":"","plugin_type":"python","created_at":"2026-03-07T02:00:26.715+08:00"},{"id":2920,"task_id":11,"plugin_id":null,"plugin_name":"深度端口指纹识别","title":"Port: 8002 | Service: http | App: Tengine httpd","severity":"info","target":"http://zhibao.dzzq.com.cn","detail":"Port: 8002 | Service: http | App: Tengine httpd","evidence":"","request_log":"","plugin_type":"python","created_at":"2026-03-07T02:00:26.711+08:00"}],"total":830,"page":1,"pages":42}