{"items":[{"id":2819,"task_id":11,"plugin_id":null,"plugin_name":"深度端口指纹识别","title":"Port: 1762 | Service: unknown","severity":"info","target":"http://zhibao.dzzq.com.cn","detail":"Port: 1762 | Service: unknown","evidence":"","request_log":"","plugin_type":"python","created_at":"2026-03-07T02:00:20.896+08:00"},{"id":2818,"task_id":11,"plugin_id":null,"plugin_name":"深度端口指纹识别","title":"Port: 7890 | Service: unknown","severity":"info","target":"http://zhibao.dzzq.com.cn","detail":"Port: 7890 | Service: unknown","evidence":"","request_log":"","plugin_type":"python","created_at":"2026-03-07T02:00:20.891+08:00"},{"id":2817,"task_id":11,"plugin_id":null,"plugin_name":"深度端口指纹识别","title":"Port: 1754 | Service: unknown","severity":"info","target":"http://zhibao.dzzq.com.cn","detail":"Port: 1754 | Service: unknown","evidence":"","request_log":"","plugin_type":"python","created_at":"2026-03-07T02:00:20.886+08:00"},{"id":2816,"task_id":11,"plugin_id":null,"plugin_name":"深度端口指纹识别","title":"Port: 50008 | Service: unknown","severity":"info","target":"http://zhibao.dzzq.com.cn","detail":"Port: 50008 | Service: unknown","evidence":"","request_log":"","plugin_type":"python","created_at":"2026-03-07T02:00:20.866+08:00"},{"id":2815,"task_id":11,"plugin_id":null,"plugin_name":"深度端口指纹识别","title":"Port: 1755 | Service: unknown","severity":"info","target":"http://zhibao.dzzq.com.cn","detail":"Port: 1755 | Service: unknown","evidence":"","request_log":"","plugin_type":"python","created_at":"2026-03-07T02:00:20.863+08:00"},{"id":2814,"task_id":11,"plugin_id":null,"plugin_name":"深度端口指纹识别","title":"Port: 12000 | Service: unknown","severity":"info","target":"http://zhibao.dzzq.com.cn","detail":"Port: 12000 | Service: unknown","evidence":"","request_log":"","plugin_type":"python","created_at":"2026-03-07T02:00:20.86+08:00"},{"id":2813,"task_id":11,"plugin_id":null,"plugin_name":"深度端口指纹识别","title":"Port: 1748 | Service: unknown","severity":"info","target":"http://zhibao.dzzq.com.cn","detail":"Port: 1748 | Service: unknown","evidence":"","request_log":"","plugin_type":"python","created_at":"2026-03-07T02:00:20.858+08:00"},{"id":2812,"task_id":11,"plugin_id":null,"plugin_name":"深度端口指纹识别","title":"Port: 27963 | Service: unknown","severity":"info","target":"http://zhibao.dzzq.com.cn","detail":"Port: 27963 | Service: unknown","evidence":"","request_log":"","plugin_type":"python","created_at":"2026-03-07T02:00:20.855+08:00"},{"id":2811,"task_id":11,"plugin_id":null,"plugin_name":"深度端口指纹识别","title":"Port: 7887 | Service: unknown","severity":"info","target":"http://zhibao.dzzq.com.cn","detail":"Port: 7887 | Service: unknown","evidence":"","request_log":"","plugin_type":"python","created_at":"2026-03-07T02:00:20.852+08:00"},{"id":2810,"task_id":11,"plugin_id":null,"plugin_name":"深度端口指纹识别","title":"Port: 3790 | Service: unknown","severity":"info","target":"http://zhibao.dzzq.com.cn","detail":"Port: 3790 | Service: unknown","evidence":"","request_log":"","plugin_type":"python","created_at":"2026-03-07T02:00:20.849+08:00"},{"id":2809,"task_id":11,"plugin_id":null,"plugin_name":"深度端口指纹识别","title":"Port: 9931 | Service: unknown","severity":"info","target":"http://zhibao.dzzq.com.cn","detail":"Port: 9931 | Service: unknown","evidence":"","request_log":"","plugin_type":"python","created_at":"2026-03-07T02:00:20.846+08:00"},{"id":2808,"task_id":11,"plugin_id":null,"plugin_name":"深度端口指纹识别","title":"Port: 3784 | Service: unknown","severity":"info","target":"http://zhibao.dzzq.com.cn","detail":"Port: 3784 | Service: unknown","evidence":"","request_log":"","plugin_type":"python","created_at":"2026-03-07T02:00:20.843+08:00"},{"id":2807,"task_id":11,"plugin_id":null,"plugin_name":"深度端口指纹识别","title":"Port: 9933 | Service: unknown","severity":"info","target":"http://zhibao.dzzq.com.cn","detail":"Port: 9933 | Service: unknown","evidence":"","request_log":"","plugin_type":"python","created_at":"2026-03-07T02:00:20.84+08:00"},{"id":2806,"task_id":11,"plugin_id":null,"plugin_name":"深度端口指纹识别","title":"Port: 9934 | Service: unknown","severity":"info","target":"http://zhibao.dzzq.com.cn","detail":"Port: 9934 | Service: unknown","evidence":"","request_log":"","plugin_type":"python","created_at":"2026-03-07T02:00:20.837+08:00"},{"id":2805,"task_id":11,"plugin_id":null,"plugin_name":"深度端口指纹识别","title":"Port: 7878 | Service: unknown","severity":"info","target":"http://zhibao.dzzq.com.cn","detail":"Port: 7878 | Service: unknown","evidence":"","request_log":"","plugin_type":"python","created_at":"2026-03-07T02:00:20.834+08:00"},{"id":2804,"task_id":11,"plugin_id":null,"plugin_name":"深度端口指纹识别","title":"Port: 9930 | Service: unknown","severity":"info","target":"http://zhibao.dzzq.com.cn","detail":"Port: 9930 | Service: unknown","evidence":"","request_log":"","plugin_type":"python","created_at":"2026-03-07T02:00:20.831+08:00"},{"id":2803,"task_id":11,"plugin_id":null,"plugin_name":"深度端口指纹识别","title":"Port: 9932 | Service: unknown","severity":"info","target":"http://zhibao.dzzq.com.cn","detail":"Port: 9932 | Service: unknown","evidence":"","request_log":"","plugin_type":"python","created_at":"2026-03-07T02:00:20.828+08:00"},{"id":2802,"task_id":11,"plugin_id":null,"plugin_name":"深度端口指纹识别","title":"Port: 1434 | Service: unknown","severity":"info","target":"http://zhibao.dzzq.com.cn","detail":"Port: 1434 | Service: unknown","evidence":"","request_log":"","plugin_type":"python","created_at":"2026-03-07T02:00:20.825+08:00"},{"id":2801,"task_id":11,"plugin_id":null,"plugin_name":"深度端口指纹识别","title":"Port: 1241 | Service: unknown","severity":"info","target":"http://zhibao.dzzq.com.cn","detail":"Port: 1241 | Service: unknown","evidence":"","request_log":"","plugin_type":"python","created_at":"2026-03-07T02:00:20.821+08:00"},{"id":2800,"task_id":11,"plugin_id":null,"plugin_name":"深度端口指纹识别","title":"Port: 11965 | Service: unknown","severity":"info","target":"http://zhibao.dzzq.com.cn","detail":"Port: 11965 | Service: unknown","evidence":"","request_log":"","plugin_type":"python","created_at":"2026-03-07T02:00:20.818+08:00"}],"total":830,"page":7,"pages":42}