{"items":[{"id":2089,"task_id":10,"plugin_id":null,"plugin_name":"深度端口指纹识别","title":"Port: 8000 | Service: http | App: Tengine httpd","severity":"info","target":"http://zhibao.dzzq.com.cn","detail":"Port: 8000 | Service: http | App: Tengine httpd","evidence":"","request_log":"","plugin_type":"python","created_at":"2026-03-07T01:30:20.873+08:00"},{"id":2088,"task_id":10,"plugin_id":null,"plugin_name":"深度端口指纹识别","title":"Port: 8009 | Service: http | App: Tengine httpd","severity":"info","target":"http://zhibao.dzzq.com.cn","detail":"Port: 8009 | Service: http | App: Tengine httpd","evidence":"","request_log":"","plugin_type":"python","created_at":"2026-03-07T01:30:20.869+08:00"},{"id":2087,"task_id":10,"plugin_id":null,"plugin_name":"深度端口指纹识别","title":"Port: 8008 | Service: http | App: Tengine httpd","severity":"info","target":"http://zhibao.dzzq.com.cn","detail":"Port: 8008 | Service: http | App: Tengine httpd","evidence":"","request_log":"","plugin_type":"python","created_at":"2026-03-07T01:30:20.866+08:00"},{"id":2086,"task_id":10,"plugin_id":null,"plugin_name":"深度端口指纹识别","title":"Port: 8003 | Service: http | App: Tengine httpd","severity":"info","target":"http://zhibao.dzzq.com.cn","detail":"Port: 8003 | Service: http | App: Tengine httpd","evidence":"","request_log":"","plugin_type":"python","created_at":"2026-03-07T01:30:20.863+08:00"},{"id":2085,"task_id":10,"plugin_id":null,"plugin_name":"深度端口指纹识别","title":"Port: 10001 | Service: http | App: Tengine httpd","severity":"info","target":"http://zhibao.dzzq.com.cn","detail":"Port: 10001 | Service: http | App: Tengine httpd","evidence":"","request_log":"","plugin_type":"python","created_at":"2026-03-07T01:30:20.86+08:00"},{"id":2084,"task_id":10,"plugin_id":null,"plugin_name":"深度端口指纹识别","title":"Port: 1762 | Service: unknown","severity":"info","target":"http://zhibao.dzzq.com.cn","detail":"Port: 1762 | Service: unknown","evidence":"","request_log":"","plugin_type":"python","created_at":"2026-03-07T01:30:20.857+08:00"},{"id":2083,"task_id":10,"plugin_id":null,"plugin_name":"深度端口指纹识别","title":"Port: 9999 | Service: http | App: Tengine httpd","severity":"info","target":"http://zhibao.dzzq.com.cn","detail":"Port: 9999 | Service: http | App: Tengine httpd","evidence":"","request_log":"","plugin_type":"python","created_at":"2026-03-07T01:30:20.854+08:00"},{"id":2082,"task_id":10,"plugin_id":null,"plugin_name":"深度端口指纹识别","title":"Port: 2010 | Service: unknown","severity":"info","target":"http://zhibao.dzzq.com.cn","detail":"Port: 2010 | Service: unknown","evidence":"","request_log":"","plugin_type":"python","created_at":"2026-03-07T01:30:20.851+08:00"},{"id":2081,"task_id":10,"plugin_id":null,"plugin_name":"深度端口指纹识别","title":"Port: 1761 | Service: unknown","severity":"info","target":"http://zhibao.dzzq.com.cn","detail":"Port: 1761 | Service: unknown","evidence":"","request_log":"","plugin_type":"python","created_at":"2026-03-07T01:30:20.848+08:00"},{"id":2080,"task_id":10,"plugin_id":null,"plugin_name":"深度端口指纹识别","title":"Port: 1981 | Service: unknown","severity":"info","target":"http://zhibao.dzzq.com.cn","detail":"Port: 1981 | Service: unknown","evidence":"","request_log":"","plugin_type":"python","created_at":"2026-03-07T01:30:20.844+08:00"},{"id":2079,"task_id":10,"plugin_id":null,"plugin_name":"深度端口指纹识别","title":"Port: 1748 | Service: unknown","severity":"info","target":"http://zhibao.dzzq.com.cn","detail":"Port: 1748 | Service: unknown","evidence":"","request_log":"","plugin_type":"python","created_at":"2026-03-07T01:30:20.839+08:00"},{"id":2078,"task_id":10,"plugin_id":null,"plugin_name":"深度端口指纹识别","title":"Port: 32766 | Service: unknown","severity":"info","target":"http://zhibao.dzzq.com.cn","detail":"Port: 32766 | Service: unknown","evidence":"","request_log":"","plugin_type":"python","created_at":"2026-03-07T01:30:20.835+08:00"},{"id":2077,"task_id":10,"plugin_id":null,"plugin_name":"深度端口指纹识别","title":"Port: 32758 | Service: unknown","severity":"info","target":"http://zhibao.dzzq.com.cn","detail":"Port: 32758 | Service: unknown","evidence":"","request_log":"","plugin_type":"python","created_at":"2026-03-07T01:30:20.832+08:00"},{"id":2076,"task_id":10,"plugin_id":null,"plugin_name":"深度端口指纹识别","title":"Port: 32757 | Service: unknown","severity":"info","target":"http://zhibao.dzzq.com.cn","detail":"Port: 32757 | Service: unknown","evidence":"","request_log":"","plugin_type":"python","created_at":"2026-03-07T01:30:20.828+08:00"},{"id":2075,"task_id":10,"plugin_id":null,"plugin_name":"深度端口指纹识别","title":"Port: 32763 | Service: unknown","severity":"info","target":"http://zhibao.dzzq.com.cn","detail":"Port: 32763 | Service: unknown","evidence":"","request_log":"","plugin_type":"python","created_at":"2026-03-07T01:30:20.824+08:00"},{"id":2074,"task_id":10,"plugin_id":null,"plugin_name":"深度端口指纹识别","title":"Port: 32761 | Service: unknown","severity":"info","target":"http://zhibao.dzzq.com.cn","detail":"Port: 32761 | Service: unknown","evidence":"","request_log":"","plugin_type":"python","created_at":"2026-03-07T01:30:20.82+08:00"},{"id":2073,"task_id":10,"plugin_id":null,"plugin_name":"深度端口指纹识别","title":"Port: 32762 | Service: unknown","severity":"info","target":"http://zhibao.dzzq.com.cn","detail":"Port: 32762 | Service: unknown","evidence":"","request_log":"","plugin_type":"python","created_at":"2026-03-07T01:30:20.817+08:00"},{"id":2072,"task_id":10,"plugin_id":null,"plugin_name":"深度端口指纹识别","title":"Port: 32760 | Service: unknown","severity":"info","target":"http://zhibao.dzzq.com.cn","detail":"Port: 32760 | Service: unknown","evidence":"","request_log":"","plugin_type":"python","created_at":"2026-03-07T01:30:20.81+08:00"},{"id":2071,"task_id":10,"plugin_id":null,"plugin_name":"深度端口指纹识别","title":"Port: 32759 | Service: unknown","severity":"info","target":"http://zhibao.dzzq.com.cn","detail":"Port: 32759 | Service: unknown","evidence":"","request_log":"","plugin_type":"python","created_at":"2026-03-07T01:30:20.803+08:00"},{"id":2070,"task_id":10,"plugin_id":null,"plugin_name":"深度端口指纹识别","title":"Port: 47001 | Service: unknown","severity":"info","target":"http://zhibao.dzzq.com.cn","detail":"Port: 47001 | Service: unknown","evidence":"","request_log":"","plugin_type":"python","created_at":"2026-03-07T01:30:20.798+08:00"}],"total":822,"page":2,"pages":42}