{"items":[{"id":5227,"task_id":13,"plugin_id":null,"plugin_name":"子域名探测","title":"Subdomain: deere.com.cn\\nwww.deere.com.cn ()","severity":"low","target":"http://zhibao.dzzq.com.cn","detail":"Subdomain: deere.com.cn\\nwww.deere.com.cn ()","evidence":"","request_log":"","plugin_type":"python","created_at":"2026-03-07T04:08:04.802+08:00"},{"id":5226,"task_id":13,"plugin_id":null,"plugin_name":"子域名探测","title":"Subdomain: dealernet.bmw.com.cn\\nsecure.bmw.com.cn\\nwww.portal.minichina.com.cn ()","severity":"low","target":"http://zhibao.dzzq.com.cn","detail":"Subdomain: dealernet.bmw.com.cn\\nsecure.bmw.com.cn\\nwww.portal.minichina.com.cn ()","evidence":"","request_log":"","plugin_type":"python","created_at":"2026-03-07T04:08:04.798+08:00"},{"id":5225,"task_id":13,"plugin_id":null,"plugin_name":"子域名探测","title":"Subdomain: dealernet.bmw.com.cn\\nsecure.bmw.com.cn\\nsecurestore.minichina.com.cn\\nstg.benefitcosmetics.com.cn\\nwww.benefitcosmetics.com.cn\\nwww.portal.minichina.com.cn ()","severity":"low","target":"http://zhibao.dzzq.com.cn","detail":"Subdomain: dealernet.bmw.com.cn\\nsecure.bmw.com.cn\\nsecurestore.minichina.com.cn\\nstg.benefitcosmetics.com.cn\\nwww.benefitcosmetics.com.cn\\nwww.portal.minichina.com.cn ()","evidence":"","request_log":"","plugin_type":"python","created_at":"2026-03-07T04:08:04.794+08:00"},{"id":5224,"task_id":13,"plugin_id":null,"plugin_name":"子域名探测","title":"Subdomain: dealernet.bmw.com.cn\\nsecure.bmw.com.cn\\nsecurestore.minichina.com.cn\\nstg.benefitcosmetics.com.cn\\nwww.benefitcosmetics.com.cn\\nwww.clarins.com.cn\\nwww.portal.minichina.com.cn ()","severity":"low","target":"http://zhibao.dzzq.com.cn","detail":"Subdomain: dealernet.bmw.com.cn\\nsecure.bmw.com.cn\\nsecurestore.minichina.com.cn\\nstg.benefitcosmetics.com.cn\\nwww.benefitcosmetics.com.cn\\nwww.clarins.com.cn\\nwww.portal.minichina.com.cn ()","evidence":"","request_log":"","plugin_type":"python","created_at":"2026-03-07T04:08:04.789+08:00"},{"id":5223,"task_id":13,"plugin_id":null,"plugin_name":"子域名探测","title":"Subdomain: dealernet.bmw.com.cn\\nsecure.bmw.com.cn\\nsecurestore.minichina.com.cn\\nstg.benefitcosmetics.com.cn\\nwww.benefitcosmetics.com.cn\\nwww.clarins.com.cn\\nwww.mesheven.com.cn\\nwww.portal.minichina.com.cn ()","severity":"low","target":"http://zhibao.dzzq.com.cn","detail":"Subdomain: dealernet.bmw.com.cn\\nsecure.bmw.com.cn\\nsecurestore.minichina.com.cn\\nstg.benefitcosmetics.com.cn\\nwww.benefitcosmetics.com.cn\\nwww.clarins.com.cn\\nwww.mesheven.com.cn\\nwww.portal.minichina.com.cn ()","evidence":"","request_log":"","plugin_type":"python","created_at":"2026-03-07T04:08:04.785+08:00"},{"id":5222,"task_id":13,"plugin_id":null,"plugin_name":"子域名探测","title":"Subdomain: dealernet.bmw.com.cn\\nsecure.bmw.com.cn\\nsecure.store-int.minichina.com.cn\\nstg.benefitcosmetics.com.cn\\nwww.benefitcosmetics.com.cn\\nwww.portal.minichina.com.cn ()","severity":"low","target":"http://zhibao.dzzq.com.cn","detail":"Subdomain: dealernet.bmw.com.cn\\nsecure.bmw.com.cn\\nsecure.store-int.minichina.com.cn\\nstg.benefitcosmetics.com.cn\\nwww.benefitcosmetics.com.cn\\nwww.portal.minichina.com.cn ()","evidence":"","request_log":"","plugin_type":"python","created_at":"2026-03-07T04:08:04.78+08:00"},{"id":5221,"task_id":13,"plugin_id":null,"plugin_name":"子域名探测","title":"Subdomain: dealernet.bmw.com.cn\\nsecure.bmw.com.cn\\nsecure.store-int.minichina.com.cn\\nsecurestore.minichina.com.cn\\nstg.benefitcosmetics.com.cn\\nwww.benefitcosmetics.com.cn\\nwww.portal.minichina.com.cn ()","severity":"low","target":"http://zhibao.dzzq.com.cn","detail":"Subdomain: dealernet.bmw.com.cn\\nsecure.bmw.com.cn\\nsecure.store-int.minichina.com.cn\\nsecurestore.minichina.com.cn\\nstg.benefitcosmetics.com.cn\\nwww.benefitcosmetics.com.cn\\nwww.portal.minichina.com.cn ()","evidence":"","request_log":"","plugin_type":"python","created_at":"2026-03-07T04:08:04.774+08:00"},{"id":5220,"task_id":13,"plugin_id":null,"plugin_name":"子域名探测","title":"Subdomain: dealernet.bmw.com.cn\\nsecure.bmw.com.cn ()","severity":"low","target":"http://zhibao.dzzq.com.cn","detail":"Subdomain: dealernet.bmw.com.cn\\nsecure.bmw.com.cn ()","evidence":"","request_log":"","plugin_type":"python","created_at":"2026-03-07T04:07:59.762+08:00"},{"id":5219,"task_id":13,"plugin_id":null,"plugin_name":"子域名探测","title":"Subdomain: dd.96558.com.cn\\nwww.dd.96558.com.cn (156.252.98.68)","severity":"low","target":"http://zhibao.dzzq.com.cn","detail":"Subdomain: dd.96558.com.cn\\nwww.dd.96558.com.cn (156.252.98.68)","evidence":"","request_log":"","plugin_type":"python","created_at":"2026-03-07T04:07:59.758+08:00"},{"id":5218,"task_id":13,"plugin_id":null,"plugin_name":"子域名探测","title":"Subdomain: dcta.com.cn\\nemr.dcta.com.cn\\nwebmaster@dcta.com.cn ()","severity":"low","target":"http://zhibao.dzzq.com.cn","detail":"Subdomain: dcta.com.cn\\nemr.dcta.com.cn\\nwebmaster@dcta.com.cn ()","evidence":"","request_log":"","plugin_type":"python","created_at":"2026-03-07T04:07:59.753+08:00"},{"id":5217,"task_id":13,"plugin_id":null,"plugin_name":"子域名探测","title":"Subdomain: dce.com.cn ()","severity":"low","target":"http://zhibao.dzzq.com.cn","detail":"Subdomain: dce.com.cn ()","evidence":"","request_log":"","plugin_type":"python","created_at":"2026-03-07T04:07:59.748+08:00"},{"id":5216,"task_id":13,"plugin_id":null,"plugin_name":"子域名探测","title":"Subdomain: dcc.trident.com.cn\\nwww.dcc.trident.com.cn (76.223.54.146)","severity":"low","target":"http://zhibao.dzzq.com.cn","detail":"Subdomain: dcc.trident.com.cn\\nwww.dcc.trident.com.cn (76.223.54.146)","evidence":"","request_log":"","plugin_type":"python","created_at":"2026-03-07T04:07:59.743+08:00"},{"id":5215,"task_id":13,"plugin_id":null,"plugin_name":"子域名探测","title":"Subdomain: dbst.com.cn\\nwww.dbst.com.cn ()","severity":"low","target":"http://zhibao.dzzq.com.cn","detail":"Subdomain: dbst.com.cn\\nwww.dbst.com.cn ()","evidence":"","request_log":"","plugin_type":"python","created_at":"2026-03-07T04:07:59.738+08:00"},{"id":5214,"task_id":13,"plugin_id":null,"plugin_name":"子域名探测","title":"Subdomain: dbst.com.cn\\nwebmaster@dbst.com.cn\\nwww.dbst.com.cn ()","severity":"low","target":"http://zhibao.dzzq.com.cn","detail":"Subdomain: dbst.com.cn\\nwebmaster@dbst.com.cn\\nwww.dbst.com.cn ()","evidence":"","request_log":"","plugin_type":"python","created_at":"2026-03-07T04:07:54.704+08:00"},{"id":5213,"task_id":13,"plugin_id":null,"plugin_name":"子域名探测","title":"Subdomain: dbank.hxb.com.cn (114.255.228.44)","severity":"low","target":"http://zhibao.dzzq.com.cn","detail":"Subdomain: dbank.hxb.com.cn (114.255.228.44)","evidence":"","request_log":"","plugin_type":"python","created_at":"2026-03-07T04:07:54.699+08:00"},{"id":5212,"task_id":13,"plugin_id":null,"plugin_name":"子域名探测","title":"Subdomain: daton.com.cn\\ndaton.com.cn ()","severity":"low","target":"http://zhibao.dzzq.com.cn","detail":"Subdomain: daton.com.cn\\ndaton.com.cn ()","evidence":"","request_log":"","plugin_type":"python","created_at":"2026-03-07T04:07:49.667+08:00"},{"id":5211,"task_id":13,"plugin_id":null,"plugin_name":"子域名探测","title":"Subdomain: data.stg.nokia.com.cn ()","severity":"low","target":"http://zhibao.dzzq.com.cn","detail":"Subdomain: data.stg.nokia.com.cn ()","evidence":"","request_log":"","plugin_type":"python","created_at":"2026-03-07T04:07:49.663+08:00"},{"id":5210,"task_id":13,"plugin_id":null,"plugin_name":"子域名探测","title":"Subdomain: data.rproxy.nokia.com.cn ()","severity":"low","target":"http://zhibao.dzzq.com.cn","detail":"Subdomain: data.rproxy.nokia.com.cn ()","evidence":"","request_log":"","plugin_type":"python","created_at":"2026-03-07T04:07:49.659+08:00"},{"id":5209,"task_id":13,"plugin_id":null,"plugin_name":"子域名探测","title":"Subdomain: data.nokia.com.cn ()","severity":"low","target":"http://zhibao.dzzq.com.cn","detail":"Subdomain: data.nokia.com.cn ()","evidence":"","request_log":"","plugin_type":"python","created_at":"2026-03-07T04:07:49.655+08:00"},{"id":5208,"task_id":13,"plugin_id":null,"plugin_name":"子域名探测","title":"Subdomain: dashboard.socgen.com.cn (203.161.180.20)","severity":"low","target":"http://zhibao.dzzq.com.cn","detail":"Subdomain: dashboard.socgen.com.cn (203.161.180.20)","evidence":"","request_log":"","plugin_type":"python","created_at":"2026-03-07T04:07:49.651+08:00"}],"total":1462,"page":1,"pages":74}