{"items":[{"id":3745,"task_id":12,"plugin_id":null,"plugin_name":"深度端口指纹识别","title":"Port: 8000 | Service: http | App: Tengine httpd","severity":"info","target":"http://zhibao.dzzq.com.cn","detail":"Port: 8000 | Service: http | App: Tengine httpd","evidence":"","request_log":"","plugin_type":"python","created_at":"2026-03-07T02:51:03.254+08:00"},{"id":3744,"task_id":12,"plugin_id":null,"plugin_name":"深度端口指纹识别","title":"Port: 9999 | Service: http | App: Tengine httpd","severity":"info","target":"http://zhibao.dzzq.com.cn","detail":"Port: 9999 | Service: http | App: Tengine httpd","evidence":"","request_log":"","plugin_type":"python","created_at":"2026-03-07T02:51:03.249+08:00"},{"id":3743,"task_id":12,"plugin_id":null,"plugin_name":"深度端口指纹识别","title":"Port: 7777 | Service: http | App: Tengine httpd","severity":"info","target":"http://zhibao.dzzq.com.cn","detail":"Port: 7777 | Service: http | App: Tengine httpd","evidence":"","request_log":"","plugin_type":"python","created_at":"2026-03-07T02:50:58.21+08:00"},{"id":3742,"task_id":12,"plugin_id":null,"plugin_name":"深度端口指纹识别","title":"Port: 7800 | Service: http | App: Tengine httpd","severity":"info","target":"http://zhibao.dzzq.com.cn","detail":"Port: 7800 | Service: http | App: Tengine httpd","evidence":"","request_log":"","plugin_type":"python","created_at":"2026-03-07T02:50:58.206+08:00"},{"id":3741,"task_id":12,"plugin_id":null,"plugin_name":"深度端口指纹识别","title":"Port: 5900 | Service: unknown","severity":"info","target":"http://zhibao.dzzq.com.cn","detail":"Port: 5900 | Service: unknown","evidence":"","request_log":"","plugin_type":"python","created_at":"2026-03-07T02:50:58.203+08:00"},{"id":3740,"task_id":12,"plugin_id":null,"plugin_name":"深度端口指纹识别","title":"Port: 5800 | Service: unknown","severity":"info","target":"http://zhibao.dzzq.com.cn","detail":"Port: 5800 | Service: unknown","evidence":"","request_log":"","plugin_type":"python","created_at":"2026-03-07T02:50:58.199+08:00"},{"id":3739,"task_id":12,"plugin_id":null,"plugin_name":"深度端口指纹识别","title":"Port: 7443 | Service: http | App: Tengine httpd","severity":"info","target":"http://zhibao.dzzq.com.cn","detail":"Port: 7443 | Service: http | App: Tengine httpd","evidence":"","request_log":"","plugin_type":"python","created_at":"2026-03-07T02:50:58.195+08:00"},{"id":3738,"task_id":12,"plugin_id":null,"plugin_name":"深度端口指纹识别","title":"Port: 1434 | Service: unknown","severity":"info","target":"http://zhibao.dzzq.com.cn","detail":"Port: 1434 | Service: unknown","evidence":"","request_log":"","plugin_type":"python","created_at":"2026-03-07T02:50:58.191+08:00"},{"id":3737,"task_id":12,"plugin_id":null,"plugin_name":"深度端口指纹识别","title":"Port: 5443 | Service: ssl","severity":"info","target":"http://zhibao.dzzq.com.cn","detail":"Port: 5443 | Service: ssl","evidence":"","request_log":"","plugin_type":"python","created_at":"2026-03-07T02:50:58.186+08:00"},{"id":3736,"task_id":12,"plugin_id":null,"plugin_name":"深度端口指纹识别","title":"Port: 1521 | Service: unknown","severity":"info","target":"http://zhibao.dzzq.com.cn","detail":"Port: 1521 | Service: unknown","evidence":"","request_log":"","plugin_type":"python","created_at":"2026-03-07T02:50:58.181+08:00"},{"id":3735,"task_id":12,"plugin_id":null,"plugin_name":"深度端口指纹识别","title":"Port: 3333 | Service: http | App: Tengine httpd","severity":"info","target":"http://zhibao.dzzq.com.cn","detail":"Port: 3333 | Service: http | App: Tengine httpd","evidence":"","request_log":"","plugin_type":"python","created_at":"2026-03-07T02:50:58.177+08:00"},{"id":3734,"task_id":12,"plugin_id":null,"plugin_name":"深度端口指纹识别","title":"Port: 32758 | Service: unknown","severity":"info","target":"http://zhibao.dzzq.com.cn","detail":"Port: 32758 | Service: unknown","evidence":"","request_log":"","plugin_type":"python","created_at":"2026-03-07T02:50:58.173+08:00"},{"id":3733,"task_id":12,"plugin_id":null,"plugin_name":"深度端口指纹识别","title":"Port: 32757 | Service: unknown","severity":"info","target":"http://zhibao.dzzq.com.cn","detail":"Port: 32757 | Service: unknown","evidence":"","request_log":"","plugin_type":"python","created_at":"2026-03-07T02:50:58.171+08:00"},{"id":3732,"task_id":12,"plugin_id":null,"plugin_name":"深度端口指纹识别","title":"Port: 32767 | Service: unknown","severity":"info","target":"http://zhibao.dzzq.com.cn","detail":"Port: 32767 | Service: unknown","evidence":"","request_log":"","plugin_type":"python","created_at":"2026-03-07T02:50:58.168+08:00"},{"id":3731,"task_id":12,"plugin_id":null,"plugin_name":"深度端口指纹识别","title":"Port: 32766 | Service: unknown","severity":"info","target":"http://zhibao.dzzq.com.cn","detail":"Port: 32766 | Service: unknown","evidence":"","request_log":"","plugin_type":"python","created_at":"2026-03-07T02:50:58.165+08:00"},{"id":3730,"task_id":12,"plugin_id":null,"plugin_name":"深度端口指纹识别","title":"Port: 6010 | Service: unknown","severity":"info","target":"http://zhibao.dzzq.com.cn","detail":"Port: 6010 | Service: unknown","evidence":"","request_log":"","plugin_type":"python","created_at":"2026-03-07T02:50:58.162+08:00"},{"id":3729,"task_id":12,"plugin_id":null,"plugin_name":"深度端口指纹识别","title":"Port: 32763 | Service: unknown","severity":"info","target":"http://zhibao.dzzq.com.cn","detail":"Port: 32763 | Service: unknown","evidence":"","request_log":"","plugin_type":"python","created_at":"2026-03-07T02:50:58.159+08:00"},{"id":3728,"task_id":12,"plugin_id":null,"plugin_name":"深度端口指纹识别","title":"Port: 3389 | Service: unknown","severity":"info","target":"http://zhibao.dzzq.com.cn","detail":"Port: 3389 | Service: unknown","evidence":"","request_log":"","plugin_type":"python","created_at":"2026-03-07T02:50:58.156+08:00"},{"id":3727,"task_id":12,"plugin_id":null,"plugin_name":"深度端口指纹识别","title":"Port: 32761 | Service: unknown","severity":"info","target":"http://zhibao.dzzq.com.cn","detail":"Port: 32761 | Service: unknown","evidence":"","request_log":"","plugin_type":"python","created_at":"2026-03-07T02:50:58.153+08:00"},{"id":3726,"task_id":12,"plugin_id":null,"plugin_name":"深度端口指纹识别","title":"Port: 32762 | Service: unknown","severity":"info","target":"http://zhibao.dzzq.com.cn","detail":"Port: 32762 | Service: unknown","evidence":"","request_log":"","plugin_type":"python","created_at":"2026-03-07T02:50:58.15+08:00"}],"total":826,"page":2,"pages":42}