{"items":[{"id":1267,"task_id":9,"plugin_id":null,"plugin_name":"深度端口指纹识别","title":"Port: 6016 | Service: unknown","severity":"info","target":"http://zhibao.dzzq.com.cn","detail":"Port: 6016 | Service: unknown","evidence":"","request_log":"","plugin_type":"python","created_at":"2026-03-07T01:14:22.854+08:00"},{"id":1266,"task_id":9,"plugin_id":null,"plugin_name":"深度端口指纹识别","title":"Port: 6013 | Service: unknown","severity":"info","target":"http://zhibao.dzzq.com.cn","detail":"Port: 6013 | Service: unknown","evidence":"","request_log":"","plugin_type":"python","created_at":"2026-03-07T01:14:22.848+08:00"},{"id":1265,"task_id":9,"plugin_id":null,"plugin_name":"深度端口指纹识别","title":"Port: 8003 | Service: http | App: Tengine httpd","severity":"info","target":"http://zhibao.dzzq.com.cn","detail":"Port: 8003 | Service: http | App: Tengine httpd","evidence":"","request_log":"","plugin_type":"python","created_at":"2026-03-07T01:14:22.843+08:00"},{"id":1264,"task_id":9,"plugin_id":null,"plugin_name":"深度端口指纹识别","title":"Port: 10080 | Service: http | App: Tengine httpd","severity":"info","target":"http://zhibao.dzzq.com.cn","detail":"Port: 10080 | Service: http | App: Tengine httpd","evidence":"","request_log":"","plugin_type":"python","created_at":"2026-03-07T01:14:17.407+08:00"},{"id":1263,"task_id":9,"plugin_id":null,"plugin_name":"深度端口指纹识别","title":"Port: 8002 | Service: http | App: Tengine httpd","severity":"info","target":"http://zhibao.dzzq.com.cn","detail":"Port: 8002 | Service: http | App: Tengine httpd","evidence":"","request_log":"","plugin_type":"python","created_at":"2026-03-07T01:14:17.404+08:00"},{"id":1262,"task_id":9,"plugin_id":null,"plugin_name":"深度端口指纹识别","title":"Port: 6006 | Service: unknown","severity":"info","target":"http://zhibao.dzzq.com.cn","detail":"Port: 6006 | Service: unknown","evidence":"","request_log":"","plugin_type":"python","created_at":"2026-03-07T01:14:17.401+08:00"},{"id":1261,"task_id":9,"plugin_id":null,"plugin_name":"深度端口指纹识别","title":"Port: 32759 | Service: unknown","severity":"info","target":"http://zhibao.dzzq.com.cn","detail":"Port: 32759 | Service: unknown","evidence":"","request_log":"","plugin_type":"python","created_at":"2026-03-07T01:14:17.398+08:00"},{"id":1260,"task_id":9,"plugin_id":null,"plugin_name":"深度端口指纹识别","title":"Port: 10001 | Service: http | App: Tengine httpd","severity":"info","target":"http://zhibao.dzzq.com.cn","detail":"Port: 10001 | Service: http | App: Tengine httpd","evidence":"","request_log":"","plugin_type":"python","created_at":"2026-03-07T01:14:17.395+08:00"},{"id":1259,"task_id":9,"plugin_id":null,"plugin_name":"深度端口指纹识别","title":"Port: 8000 | Service: http | App: Tengine httpd","severity":"info","target":"http://zhibao.dzzq.com.cn","detail":"Port: 8000 | Service: http | App: Tengine httpd","evidence":"","request_log":"","plugin_type":"python","created_at":"2026-03-07T01:14:17.392+08:00"},{"id":1258,"task_id":9,"plugin_id":null,"plugin_name":"深度端口指纹识别","title":"Port: 8008 | Service: http | App: Tengine httpd","severity":"info","target":"http://zhibao.dzzq.com.cn","detail":"Port: 8008 | Service: http | App: Tengine httpd","evidence":"","request_log":"","plugin_type":"python","created_at":"2026-03-07T01:14:17.389+08:00"},{"id":1257,"task_id":9,"plugin_id":null,"plugin_name":"深度端口指纹识别","title":"Port: 32767 | Service: unknown","severity":"info","target":"http://zhibao.dzzq.com.cn","detail":"Port: 32767 | Service: unknown","evidence":"","request_log":"","plugin_type":"python","created_at":"2026-03-07T01:14:17.385+08:00"},{"id":1256,"task_id":9,"plugin_id":null,"plugin_name":"深度端口指纹识别","title":"Port: 32766 | Service: unknown","severity":"info","target":"http://zhibao.dzzq.com.cn","detail":"Port: 32766 | Service: unknown","evidence":"","request_log":"","plugin_type":"python","created_at":"2026-03-07T01:14:17.382+08:00"},{"id":1255,"task_id":9,"plugin_id":null,"plugin_name":"深度端口指纹识别","title":"Port: 32758 | Service: unknown","severity":"info","target":"http://zhibao.dzzq.com.cn","detail":"Port: 32758 | Service: unknown","evidence":"","request_log":"","plugin_type":"python","created_at":"2026-03-07T01:14:17.379+08:00"},{"id":1254,"task_id":9,"plugin_id":null,"plugin_name":"深度端口指纹识别","title":"Port: 18264 | Service: unknown","severity":"info","target":"http://zhibao.dzzq.com.cn","detail":"Port: 18264 | Service: unknown","evidence":"","request_log":"","plugin_type":"python","created_at":"2026-03-07T01:14:17.376+08:00"},{"id":1253,"task_id":9,"plugin_id":null,"plugin_name":"深度端口指纹识别","title":"Port: 32757 | Service: unknown","severity":"info","target":"http://zhibao.dzzq.com.cn","detail":"Port: 32757 | Service: unknown","evidence":"","request_log":"","plugin_type":"python","created_at":"2026-03-07T01:14:17.373+08:00"},{"id":1252,"task_id":9,"plugin_id":null,"plugin_name":"深度端口指纹识别","title":"Port: 32762 | Service: unknown","severity":"info","target":"http://zhibao.dzzq.com.cn","detail":"Port: 32762 | Service: unknown","evidence":"","request_log":"","plugin_type":"python","created_at":"2026-03-07T01:14:17.37+08:00"},{"id":1251,"task_id":9,"plugin_id":null,"plugin_name":"深度端口指纹识别","title":"Port: 32761 | Service: unknown","severity":"info","target":"http://zhibao.dzzq.com.cn","detail":"Port: 32761 | Service: unknown","evidence":"","request_log":"","plugin_type":"python","created_at":"2026-03-07T01:14:17.367+08:00"},{"id":1250,"task_id":9,"plugin_id":null,"plugin_name":"深度端口指纹识别","title":"Port: 8009 | Service: http | App: Tengine httpd","severity":"info","target":"http://zhibao.dzzq.com.cn","detail":"Port: 8009 | Service: http | App: Tengine httpd","evidence":"","request_log":"","plugin_type":"python","created_at":"2026-03-07T01:14:17.364+08:00"},{"id":1249,"task_id":9,"plugin_id":null,"plugin_name":"深度端口指纹识别","title":"Port: 8001 | Service: http | App: Tengine httpd","severity":"info","target":"http://zhibao.dzzq.com.cn","detail":"Port: 8001 | Service: http | App: Tengine httpd","evidence":"","request_log":"","plugin_type":"python","created_at":"2026-03-07T01:14:17.36+08:00"},{"id":1248,"task_id":9,"plugin_id":null,"plugin_name":"深度端口指纹识别","title":"Port: 32760 | Service: unknown","severity":"info","target":"http://zhibao.dzzq.com.cn","detail":"Port: 32760 | Service: unknown","evidence":"","request_log":"","plugin_type":"python","created_at":"2026-03-07T01:14:17.357+08:00"}],"total":826,"page":2,"pages":42}