{"items":[{"id":3705,"task_id":12,"plugin_id":null,"plugin_name":"深度端口指纹识别","title":"Port: 6103 | Service: unknown","severity":"info","target":"http://zhibao.dzzq.com.cn","detail":"Port: 6103 | Service: unknown","evidence":"","request_log":"","plugin_type":"python","created_at":"2026-03-07T02:50:58.08+08:00"},{"id":3704,"task_id":12,"plugin_id":null,"plugin_name":"深度端口指纹识别","title":"Port: 3176 | Service: unknown","severity":"info","target":"http://zhibao.dzzq.com.cn","detail":"Port: 3176 | Service: unknown","evidence":"","request_log":"","plugin_type":"python","created_at":"2026-03-07T02:50:58.077+08:00"},{"id":3703,"task_id":12,"plugin_id":null,"plugin_name":"深度端口指纹识别","title":"Port: 2000 | Service: unknown","severity":"info","target":"http://zhibao.dzzq.com.cn","detail":"Port: 2000 | Service: unknown","evidence":"","request_log":"","plugin_type":"python","created_at":"2026-03-07T02:50:58.066+08:00"},{"id":3702,"task_id":12,"plugin_id":null,"plugin_name":"深度端口指纹识别","title":"Port: 1688 | Service: unknown","severity":"info","target":"http://zhibao.dzzq.com.cn","detail":"Port: 1688 | Service: unknown","evidence":"","request_log":"","plugin_type":"python","created_at":"2026-03-07T02:50:58.063+08:00"},{"id":3701,"task_id":12,"plugin_id":null,"plugin_name":"深度端口指纹识别","title":"Port: 8118 | Service: unknown","severity":"info","target":"http://zhibao.dzzq.com.cn","detail":"Port: 8118 | Service: unknown","evidence":"","request_log":"","plugin_type":"python","created_at":"2026-03-07T02:50:58.061+08:00"},{"id":3700,"task_id":12,"plugin_id":null,"plugin_name":"深度端口指纹识别","title":"Port: 6050 | Service: unknown","severity":"info","target":"http://zhibao.dzzq.com.cn","detail":"Port: 6050 | Service: unknown","evidence":"","request_log":"","plugin_type":"python","created_at":"2026-03-07T02:50:58.058+08:00"},{"id":3699,"task_id":12,"plugin_id":null,"plugin_name":"深度端口指纹识别","title":"Port: 1972 | Service: unknown","severity":"info","target":"http://zhibao.dzzq.com.cn","detail":"Port: 1972 | Service: unknown","evidence":"","request_log":"","plugin_type":"python","created_at":"2026-03-07T02:50:58.056+08:00"},{"id":3698,"task_id":12,"plugin_id":null,"plugin_name":"深度端口指纹识别","title":"Port: 10162 | Service: unknown","severity":"info","target":"http://zhibao.dzzq.com.cn","detail":"Port: 10162 | Service: unknown","evidence":"","request_log":"","plugin_type":"python","created_at":"2026-03-07T02:50:58.053+08:00"},{"id":3697,"task_id":12,"plugin_id":null,"plugin_name":"深度端口指纹识别","title":"Port: 1981 | Service: unknown","severity":"info","target":"http://zhibao.dzzq.com.cn","detail":"Port: 1981 | Service: unknown","evidence":"","request_log":"","plugin_type":"python","created_at":"2026-03-07T02:50:58.05+08:00"},{"id":3696,"task_id":12,"plugin_id":null,"plugin_name":"深度端口指纹识别","title":"Port: 1967 | Service: unknown","severity":"info","target":"http://zhibao.dzzq.com.cn","detail":"Port: 1967 | Service: unknown","evidence":"","request_log":"","plugin_type":"python","created_at":"2026-03-07T02:50:58.048+08:00"},{"id":3695,"task_id":12,"plugin_id":null,"plugin_name":"深度端口指纹识别","title":"Port: 6060 | Service: unknown","severity":"info","target":"http://zhibao.dzzq.com.cn","detail":"Port: 6060 | Service: unknown","evidence":"","request_log":"","plugin_type":"python","created_at":"2026-03-07T02:50:58.044+08:00"},{"id":3694,"task_id":12,"plugin_id":null,"plugin_name":"深度端口指纹识别","title":"Port: 12203 | Service: unknown","severity":"info","target":"http://zhibao.dzzq.com.cn","detail":"Port: 12203 | Service: unknown","evidence":"","request_log":"","plugin_type":"python","created_at":"2026-03-07T02:50:58.041+08:00"},{"id":3693,"task_id":12,"plugin_id":null,"plugin_name":"深度端口指纹识别","title":"Port: 4000 | Service: unknown","severity":"info","target":"http://zhibao.dzzq.com.cn","detail":"Port: 4000 | Service: unknown","evidence":"","request_log":"","plugin_type":"python","created_at":"2026-03-07T02:50:58.039+08:00"},{"id":3692,"task_id":12,"plugin_id":null,"plugin_name":"深度端口指纹识别","title":"Port: 14238 | Service: unknown","severity":"info","target":"http://zhibao.dzzq.com.cn","detail":"Port: 14238 | Service: unknown","evidence":"","request_log":"","plugin_type":"python","created_at":"2026-03-07T02:50:58.036+08:00"},{"id":3691,"task_id":12,"plugin_id":null,"plugin_name":"深度端口指纹识别","title":"Port: 47002 | Service: unknown","severity":"info","target":"http://zhibao.dzzq.com.cn","detail":"Port: 47002 | Service: unknown","evidence":"","request_log":"","plugin_type":"python","created_at":"2026-03-07T02:50:58.033+08:00"},{"id":3690,"task_id":12,"plugin_id":null,"plugin_name":"深度端口指纹识别","title":"Port: 1090 | Service: http | App: Tengine httpd","severity":"info","target":"http://zhibao.dzzq.com.cn","detail":"Port: 1090 | Service: http | App: Tengine httpd","evidence":"","request_log":"","plugin_type":"python","created_at":"2026-03-07T02:50:58.031+08:00"},{"id":3689,"task_id":12,"plugin_id":null,"plugin_name":"深度端口指纹识别","title":"Port: 47001 | Service: unknown","severity":"info","target":"http://zhibao.dzzq.com.cn","detail":"Port: 47001 | Service: unknown","evidence":"","request_log":"","plugin_type":"python","created_at":"2026-03-07T02:50:58.028+08:00"},{"id":3688,"task_id":12,"plugin_id":null,"plugin_name":"深度端口指纹识别","title":"Port: 6019 | Service: unknown","severity":"info","target":"http://zhibao.dzzq.com.cn","detail":"Port: 6019 | Service: unknown","evidence":"","request_log":"","plugin_type":"python","created_at":"2026-03-07T02:50:58.025+08:00"},{"id":3687,"task_id":12,"plugin_id":null,"plugin_name":"深度端口指纹识别","title":"Port: 6016 | Service: unknown","severity":"info","target":"http://zhibao.dzzq.com.cn","detail":"Port: 6016 | Service: unknown","evidence":"","request_log":"","plugin_type":"python","created_at":"2026-03-07T02:50:58.022+08:00"},{"id":3686,"task_id":12,"plugin_id":null,"plugin_name":"深度端口指纹识别","title":"Port: 6018 | Service: unknown","severity":"info","target":"http://zhibao.dzzq.com.cn","detail":"Port: 6018 | Service: unknown","evidence":"","request_log":"","plugin_type":"python","created_at":"2026-03-07T02:50:58.019+08:00"}],"total":826,"page":4,"pages":42}