{"items":[{"id":3685,"task_id":12,"plugin_id":null,"plugin_name":"深度端口指纹识别","title":"Port: 1935 | Service: unknown","severity":"info","target":"http://zhibao.dzzq.com.cn","detail":"Port: 1935 | Service: unknown","evidence":"","request_log":"","plugin_type":"python","created_at":"2026-03-07T02:50:58.016+08:00"},{"id":3684,"task_id":12,"plugin_id":null,"plugin_name":"深度端口指纹识别","title":"Port: 5999 | Service: unknown","severity":"info","target":"http://zhibao.dzzq.com.cn","detail":"Port: 5999 | Service: unknown","evidence":"","request_log":"","plugin_type":"python","created_at":"2026-03-07T02:50:58.014+08:00"},{"id":3683,"task_id":12,"plugin_id":null,"plugin_name":"深度端口指纹识别","title":"Port: 5222 | Service: http | App: Tengine httpd","severity":"info","target":"http://zhibao.dzzq.com.cn","detail":"Port: 5222 | Service: http | App: Tengine httpd","evidence":"","request_log":"","plugin_type":"python","created_at":"2026-03-07T02:50:58.002+08:00"},{"id":3682,"task_id":12,"plugin_id":null,"plugin_name":"深度端口指纹识别","title":"Port: 6017 | Service: unknown","severity":"info","target":"http://zhibao.dzzq.com.cn","detail":"Port: 6017 | Service: unknown","evidence":"","request_log":"","plugin_type":"python","created_at":"2026-03-07T02:50:58+08:00"},{"id":3681,"task_id":12,"plugin_id":null,"plugin_name":"深度端口指纹识别","title":"Port: 6020 | Service: unknown","severity":"info","target":"http://zhibao.dzzq.com.cn","detail":"Port: 6020 | Service: unknown","evidence":"","request_log":"","plugin_type":"python","created_at":"2026-03-07T02:50:57.997+08:00"},{"id":3680,"task_id":12,"plugin_id":null,"plugin_name":"深度端口指纹识别","title":"Port: 3940 | Service: unknown","severity":"info","target":"http://zhibao.dzzq.com.cn","detail":"Port: 3940 | Service: unknown","evidence":"","request_log":"","plugin_type":"python","created_at":"2026-03-07T02:50:57.995+08:00"},{"id":3679,"task_id":12,"plugin_id":null,"plugin_name":"深度端口指纹识别","title":"Port: 6004 | Service: unknown","severity":"info","target":"http://zhibao.dzzq.com.cn","detail":"Port: 6004 | Service: unknown","evidence":"","request_log":"","plugin_type":"python","created_at":"2026-03-07T02:50:57.992+08:00"},{"id":3678,"task_id":12,"plugin_id":null,"plugin_name":"深度端口指纹识别","title":"Port: 6003 | Service: unknown","severity":"info","target":"http://zhibao.dzzq.com.cn","detail":"Port: 6003 | Service: unknown","evidence":"","request_log":"","plugin_type":"python","created_at":"2026-03-07T02:50:57.989+08:00"},{"id":3677,"task_id":12,"plugin_id":null,"plugin_name":"深度端口指纹识别","title":"Port: 6005 | Service: unknown","severity":"info","target":"http://zhibao.dzzq.com.cn","detail":"Port: 6005 | Service: unknown","evidence":"","request_log":"","plugin_type":"python","created_at":"2026-03-07T02:50:57.987+08:00"},{"id":3676,"task_id":12,"plugin_id":null,"plugin_name":"深度端口指纹识别","title":"Port: 6008 | Service: unknown","severity":"info","target":"http://zhibao.dzzq.com.cn","detail":"Port: 6008 | Service: unknown","evidence":"","request_log":"","plugin_type":"python","created_at":"2026-03-07T02:50:57.984+08:00"},{"id":3675,"task_id":12,"plugin_id":null,"plugin_name":"深度端口指纹识别","title":"Port: 6015 | Service: unknown","severity":"info","target":"http://zhibao.dzzq.com.cn","detail":"Port: 6015 | Service: unknown","evidence":"","request_log":"","plugin_type":"python","created_at":"2026-03-07T02:50:57.981+08:00"},{"id":3674,"task_id":12,"plugin_id":null,"plugin_name":"深度端口指纹识别","title":"Port: 6014 | Service: unknown","severity":"info","target":"http://zhibao.dzzq.com.cn","detail":"Port: 6014 | Service: unknown","evidence":"","request_log":"","plugin_type":"python","created_at":"2026-03-07T02:50:57.978+08:00"},{"id":3673,"task_id":12,"plugin_id":null,"plugin_name":"深度端口指纹识别","title":"Port: 6007 | Service: unknown","severity":"info","target":"http://zhibao.dzzq.com.cn","detail":"Port: 6007 | Service: unknown","evidence":"","request_log":"","plugin_type":"python","created_at":"2026-03-07T02:50:57.975+08:00"},{"id":3672,"task_id":12,"plugin_id":null,"plugin_name":"深度端口指纹识别","title":"Port: 26470 | Service: unknown","severity":"info","target":"http://zhibao.dzzq.com.cn","detail":"Port: 26470 | Service: unknown","evidence":"","request_log":"","plugin_type":"python","created_at":"2026-03-07T02:50:57.972+08:00"},{"id":3671,"task_id":12,"plugin_id":null,"plugin_name":"深度端口指纹识别","title":"Port: 18264 | Service: unknown","severity":"info","target":"http://zhibao.dzzq.com.cn","detail":"Port: 18264 | Service: unknown","evidence":"","request_log":"","plugin_type":"python","created_at":"2026-03-07T02:50:57.969+08:00"},{"id":3670,"task_id":12,"plugin_id":null,"plugin_name":"深度端口指纹识别","title":"Port: 6012 | Service: unknown","severity":"info","target":"http://zhibao.dzzq.com.cn","detail":"Port: 6012 | Service: unknown","evidence":"","request_log":"","plugin_type":"python","created_at":"2026-03-07T02:50:57.966+08:00"},{"id":3669,"task_id":12,"plugin_id":null,"plugin_name":"深度端口指纹识别","title":"Port: 5985 | Service: unknown","severity":"info","target":"http://zhibao.dzzq.com.cn","detail":"Port: 5985 | Service: unknown","evidence":"","request_log":"","plugin_type":"python","created_at":"2026-03-07T02:50:57.963+08:00"},{"id":3668,"task_id":12,"plugin_id":null,"plugin_name":"深度端口指纹识别","title":"Port: 6006 | Service: unknown","severity":"info","target":"http://zhibao.dzzq.com.cn","detail":"Port: 6006 | Service: unknown","evidence":"","request_log":"","plugin_type":"python","created_at":"2026-03-07T02:50:57.959+08:00"},{"id":3667,"task_id":12,"plugin_id":null,"plugin_name":"深度端口指纹识别","title":"Port: 6011 | Service: unknown","severity":"info","target":"http://zhibao.dzzq.com.cn","detail":"Port: 6011 | Service: unknown","evidence":"","request_log":"","plugin_type":"python","created_at":"2026-03-07T02:50:57.956+08:00"},{"id":3666,"task_id":12,"plugin_id":null,"plugin_name":"深度端口指纹识别","title":"Port: 6009 | Service: unknown","severity":"info","target":"http://zhibao.dzzq.com.cn","detail":"Port: 6009 | Service: unknown","evidence":"","request_log":"","plugin_type":"python","created_at":"2026-03-07T02:50:57.953+08:00"}],"total":826,"page":5,"pages":42}