{"items":[{"id":1207,"task_id":9,"plugin_id":null,"plugin_name":"深度端口指纹识别","title":"Port: 6012 | Service: unknown","severity":"info","target":"http://zhibao.dzzq.com.cn","detail":"Port: 6012 | Service: unknown","evidence":"","request_log":"","plugin_type":"python","created_at":"2026-03-07T01:14:17.213+08:00"},{"id":1206,"task_id":9,"plugin_id":null,"plugin_name":"深度端口指纹识别","title":"Port: 6011 | Service: unknown","severity":"info","target":"http://zhibao.dzzq.com.cn","detail":"Port: 6011 | Service: unknown","evidence":"","request_log":"","plugin_type":"python","created_at":"2026-03-07T01:14:17.21+08:00"},{"id":1205,"task_id":9,"plugin_id":null,"plugin_name":"深度端口指纹识别","title":"Port: 7800 | Service: http | App: Tengine httpd","severity":"info","target":"http://zhibao.dzzq.com.cn","detail":"Port: 7800 | Service: http | App: Tengine httpd","evidence":"","request_log":"","plugin_type":"python","created_at":"2026-03-07T01:14:17.207+08:00"},{"id":1204,"task_id":9,"plugin_id":null,"plugin_name":"深度端口指纹识别","title":"Port: 6010 | Service: unknown","severity":"info","target":"http://zhibao.dzzq.com.cn","detail":"Port: 6010 | Service: unknown","evidence":"","request_log":"","plugin_type":"python","created_at":"2026-03-07T01:14:17.194+08:00"},{"id":1203,"task_id":9,"plugin_id":null,"plugin_name":"深度端口指纹识别","title":"Port: 6009 | Service: unknown","severity":"info","target":"http://zhibao.dzzq.com.cn","detail":"Port: 6009 | Service: unknown","evidence":"","request_log":"","plugin_type":"python","created_at":"2026-03-07T01:14:17.192+08:00"},{"id":1202,"task_id":9,"plugin_id":null,"plugin_name":"深度端口指纹识别","title":"Port: 6008 | Service: unknown","severity":"info","target":"http://zhibao.dzzq.com.cn","detail":"Port: 6008 | Service: unknown","evidence":"","request_log":"","plugin_type":"python","created_at":"2026-03-07T01:14:17.189+08:00"},{"id":1201,"task_id":9,"plugin_id":null,"plugin_name":"深度端口指纹识别","title":"Port: 3900 | Service: unknown","severity":"info","target":"http://zhibao.dzzq.com.cn","detail":"Port: 3900 | Service: unknown","evidence":"","request_log":"","plugin_type":"python","created_at":"2026-03-07T01:14:17.186+08:00"},{"id":1200,"task_id":9,"plugin_id":null,"plugin_name":"深度端口指纹识别","title":"Port: 9815 | Service: unknown","severity":"info","target":"http://zhibao.dzzq.com.cn","detail":"Port: 9815 | Service: unknown","evidence":"","request_log":"","plugin_type":"python","created_at":"2026-03-07T01:14:17.184+08:00"},{"id":1199,"task_id":9,"plugin_id":null,"plugin_name":"深度端口指纹识别","title":"Port: 6007 | Service: unknown","severity":"info","target":"http://zhibao.dzzq.com.cn","detail":"Port: 6007 | Service: unknown","evidence":"","request_log":"","plugin_type":"python","created_at":"2026-03-07T01:14:17.181+08:00"},{"id":1198,"task_id":9,"plugin_id":null,"plugin_name":"深度端口指纹识别","title":"Port: 6005 | Service: unknown","severity":"info","target":"http://zhibao.dzzq.com.cn","detail":"Port: 6005 | Service: unknown","evidence":"","request_log":"","plugin_type":"python","created_at":"2026-03-07T01:14:17.178+08:00"},{"id":1197,"task_id":9,"plugin_id":null,"plugin_name":"深度端口指纹识别","title":"Port: 7776 | Service: unknown","severity":"info","target":"http://zhibao.dzzq.com.cn","detail":"Port: 7776 | Service: unknown","evidence":"","request_log":"","plugin_type":"python","created_at":"2026-03-07T01:14:17.175+08:00"},{"id":1196,"task_id":9,"plugin_id":null,"plugin_name":"深度端口指纹识别","title":"Port: 6004 | Service: unknown","severity":"info","target":"http://zhibao.dzzq.com.cn","detail":"Port: 6004 | Service: unknown","evidence":"","request_log":"","plugin_type":"python","created_at":"2026-03-07T01:14:17.173+08:00"},{"id":1195,"task_id":9,"plugin_id":null,"plugin_name":"深度端口指纹识别","title":"Port: 6003 | Service: unknown","severity":"info","target":"http://zhibao.dzzq.com.cn","detail":"Port: 6003 | Service: unknown","evidence":"","request_log":"","plugin_type":"python","created_at":"2026-03-07T01:14:17.17+08:00"},{"id":1194,"task_id":9,"plugin_id":null,"plugin_name":"深度端口指纹识别","title":"Port: 9809 | Service: unknown","severity":"info","target":"http://zhibao.dzzq.com.cn","detail":"Port: 9809 | Service: unknown","evidence":"","request_log":"","plugin_type":"python","created_at":"2026-03-07T01:14:17.167+08:00"},{"id":1193,"task_id":9,"plugin_id":null,"plugin_name":"深度端口指纹识别","title":"Port: 6002 | Service: unknown","severity":"info","target":"http://zhibao.dzzq.com.cn","detail":"Port: 6002 | Service: unknown","evidence":"","request_log":"","plugin_type":"python","created_at":"2026-03-07T01:14:17.164+08:00"},{"id":1192,"task_id":9,"plugin_id":null,"plugin_name":"深度端口指纹识别","title":"Port: 7777 | Service: http | App: Tengine httpd","severity":"info","target":"http://zhibao.dzzq.com.cn","detail":"Port: 7777 | Service: http | App: Tengine httpd","evidence":"","request_log":"","plugin_type":"python","created_at":"2026-03-07T01:14:17.161+08:00"},{"id":1191,"task_id":9,"plugin_id":null,"plugin_name":"深度端口指纹识别","title":"Port: 5800 | Service: unknown","severity":"info","target":"http://zhibao.dzzq.com.cn","detail":"Port: 5800 | Service: unknown","evidence":"","request_log":"","plugin_type":"python","created_at":"2026-03-07T01:14:17.158+08:00"},{"id":1190,"task_id":9,"plugin_id":null,"plugin_name":"深度端口指纹识别","title":"Port: 5999 | Service: unknown","severity":"info","target":"http://zhibao.dzzq.com.cn","detail":"Port: 5999 | Service: unknown","evidence":"","request_log":"","plugin_type":"python","created_at":"2026-03-07T01:14:17.155+08:00"},{"id":1189,"task_id":9,"plugin_id":null,"plugin_name":"深度端口指纹识别","title":"Port: 26470 | Service: unknown","severity":"info","target":"http://zhibao.dzzq.com.cn","detail":"Port: 26470 | Service: unknown","evidence":"","request_log":"","plugin_type":"python","created_at":"2026-03-07T01:14:17.152+08:00"},{"id":1188,"task_id":9,"plugin_id":null,"plugin_name":"深度端口指纹识别","title":"Port: 5704 | Service: unknown","severity":"info","target":"http://zhibao.dzzq.com.cn","detail":"Port: 5704 | Service: unknown","evidence":"","request_log":"","plugin_type":"python","created_at":"2026-03-07T01:14:17.149+08:00"}],"total":826,"page":5,"pages":42}