{"items":[{"id":1227,"task_id":9,"plugin_id":null,"plugin_name":"深度端口指纹识别","title":"Port: 8138 | Service: unknown","severity":"info","target":"http://zhibao.dzzq.com.cn","detail":"Port: 8138 | Service: unknown","evidence":"","request_log":"","plugin_type":"python","created_at":"2026-03-07T01:14:17.281+08:00"},{"id":1226,"task_id":9,"plugin_id":null,"plugin_name":"深度端口指纹识别","title":"Port: 6014 | Service: unknown","severity":"info","target":"http://zhibao.dzzq.com.cn","detail":"Port: 6014 | Service: unknown","evidence":"","request_log":"","plugin_type":"python","created_at":"2026-03-07T01:14:17.278+08:00"},{"id":1225,"task_id":9,"plugin_id":null,"plugin_name":"深度端口指纹识别","title":"Port: 1981 | Service: unknown","severity":"info","target":"http://zhibao.dzzq.com.cn","detail":"Port: 1981 | Service: unknown","evidence":"","request_log":"","plugin_type":"python","created_at":"2026-03-07T01:14:17.275+08:00"},{"id":1224,"task_id":9,"plugin_id":null,"plugin_name":"深度端口指纹识别","title":"Port: 7801 | Service: unknown","severity":"info","target":"http://zhibao.dzzq.com.cn","detail":"Port: 7801 | Service: unknown","evidence":"","request_log":"","plugin_type":"python","created_at":"2026-03-07T01:14:17.263+08:00"},{"id":1223,"task_id":9,"plugin_id":null,"plugin_name":"深度端口指纹识别","title":"Port: 10162 | Service: unknown","severity":"info","target":"http://zhibao.dzzq.com.cn","detail":"Port: 10162 | Service: unknown","evidence":"","request_log":"","plugin_type":"python","created_at":"2026-03-07T01:14:17.26+08:00"},{"id":1222,"task_id":9,"plugin_id":null,"plugin_name":"深度端口指纹识别","title":"Port: 6060 | Service: unknown","severity":"info","target":"http://zhibao.dzzq.com.cn","detail":"Port: 6060 | Service: unknown","evidence":"","request_log":"","plugin_type":"python","created_at":"2026-03-07T01:14:17.257+08:00"},{"id":1221,"task_id":9,"plugin_id":null,"plugin_name":"深度端口指纹识别","title":"Port: 12203 | Service: unknown","severity":"info","target":"http://zhibao.dzzq.com.cn","detail":"Port: 12203 | Service: unknown","evidence":"","request_log":"","plugin_type":"python","created_at":"2026-03-07T01:14:17.254+08:00"},{"id":1220,"task_id":9,"plugin_id":null,"plugin_name":"深度端口指纹识别","title":"Port: 6050 | Service: unknown","severity":"info","target":"http://zhibao.dzzq.com.cn","detail":"Port: 6050 | Service: unknown","evidence":"","request_log":"","plugin_type":"python","created_at":"2026-03-07T01:14:17.252+08:00"},{"id":1219,"task_id":9,"plugin_id":null,"plugin_name":"深度端口指纹识别","title":"Port: 7890 | Service: unknown","severity":"info","target":"http://zhibao.dzzq.com.cn","detail":"Port: 7890 | Service: unknown","evidence":"","request_log":"","plugin_type":"python","created_at":"2026-03-07T01:14:17.249+08:00"},{"id":1218,"task_id":9,"plugin_id":null,"plugin_name":"深度端口指纹识别","title":"Port: 4000 | Service: unknown","severity":"info","target":"http://zhibao.dzzq.com.cn","detail":"Port: 4000 | Service: unknown","evidence":"","request_log":"","plugin_type":"python","created_at":"2026-03-07T01:14:17.246+08:00"},{"id":1217,"task_id":9,"plugin_id":null,"plugin_name":"深度端口指纹识别","title":"Port: 47002 | Service: unknown","severity":"info","target":"http://zhibao.dzzq.com.cn","detail":"Port: 47002 | Service: unknown","evidence":"","request_log":"","plugin_type":"python","created_at":"2026-03-07T01:14:17.243+08:00"},{"id":1216,"task_id":9,"plugin_id":null,"plugin_name":"深度端口指纹识别","title":"Port: 47001 | Service: unknown","severity":"info","target":"http://zhibao.dzzq.com.cn","detail":"Port: 47001 | Service: unknown","evidence":"","request_log":"","plugin_type":"python","created_at":"2026-03-07T01:14:17.241+08:00"},{"id":1215,"task_id":9,"plugin_id":null,"plugin_name":"深度端口指纹识别","title":"Port: 5900 | Service: unknown","severity":"info","target":"http://zhibao.dzzq.com.cn","detail":"Port: 5900 | Service: unknown","evidence":"","request_log":"","plugin_type":"python","created_at":"2026-03-07T01:14:17.237+08:00"},{"id":1214,"task_id":9,"plugin_id":null,"plugin_name":"深度端口指纹识别","title":"Port: 1935 | Service: unknown","severity":"info","target":"http://zhibao.dzzq.com.cn","detail":"Port: 1935 | Service: unknown","evidence":"","request_log":"","plugin_type":"python","created_at":"2026-03-07T01:14:17.235+08:00"},{"id":1213,"task_id":9,"plugin_id":null,"plugin_name":"深度端口指纹识别","title":"Port: 5801 | Service: unknown","severity":"info","target":"http://zhibao.dzzq.com.cn","detail":"Port: 5801 | Service: unknown","evidence":"","request_log":"","plugin_type":"python","created_at":"2026-03-07T01:14:17.232+08:00"},{"id":1212,"task_id":9,"plugin_id":null,"plugin_name":"深度端口指纹识别","title":"Port: 6020 | Service: unknown","severity":"info","target":"http://zhibao.dzzq.com.cn","detail":"Port: 6020 | Service: unknown","evidence":"","request_log":"","plugin_type":"python","created_at":"2026-03-07T01:14:17.228+08:00"},{"id":1211,"task_id":9,"plugin_id":null,"plugin_name":"深度端口指纹识别","title":"Port: 6018 | Service: unknown","severity":"info","target":"http://zhibao.dzzq.com.cn","detail":"Port: 6018 | Service: unknown","evidence":"","request_log":"","plugin_type":"python","created_at":"2026-03-07T01:14:17.225+08:00"},{"id":1210,"task_id":9,"plugin_id":null,"plugin_name":"深度端口指纹识别","title":"Port: 6019 | Service: unknown","severity":"info","target":"http://zhibao.dzzq.com.cn","detail":"Port: 6019 | Service: unknown","evidence":"","request_log":"","plugin_type":"python","created_at":"2026-03-07T01:14:17.222+08:00"},{"id":1209,"task_id":9,"plugin_id":null,"plugin_name":"深度端口指纹识别","title":"Port: 6015 | Service: unknown","severity":"info","target":"http://zhibao.dzzq.com.cn","detail":"Port: 6015 | Service: unknown","evidence":"","request_log":"","plugin_type":"python","created_at":"2026-03-07T01:14:17.219+08:00"},{"id":1208,"task_id":9,"plugin_id":null,"plugin_name":"深度端口指纹识别","title":"Port: 5985 | Service: unknown","severity":"info","target":"http://zhibao.dzzq.com.cn","detail":"Port: 5985 | Service: unknown","evidence":"","request_log":"","plugin_type":"python","created_at":"2026-03-07T01:14:17.216+08:00"}],"total":826,"page":4,"pages":42}