{"items":[{"id":2049,"task_id":10,"plugin_id":null,"plugin_name":"深度端口指纹识别","title":"Port: 2000 | Service: unknown","severity":"info","target":"http://zhibao.dzzq.com.cn","detail":"Port: 2000 | Service: unknown","evidence":"","request_log":"","plugin_type":"python","created_at":"2026-03-07T01:30:20.68+08:00"},{"id":2048,"task_id":10,"plugin_id":null,"plugin_name":"深度端口指纹识别","title":"Port: 4045 | Service: unknown","severity":"info","target":"http://zhibao.dzzq.com.cn","detail":"Port: 4045 | Service: unknown","evidence":"","request_log":"","plugin_type":"python","created_at":"2026-03-07T01:30:20.676+08:00"},{"id":2047,"task_id":10,"plugin_id":null,"plugin_name":"深度端口指纹识别","title":"Port: 8138 | Service: unknown","severity":"info","target":"http://zhibao.dzzq.com.cn","detail":"Port: 8138 | Service: unknown","evidence":"","request_log":"","plugin_type":"python","created_at":"2026-03-07T01:30:20.672+08:00"},{"id":2046,"task_id":10,"plugin_id":null,"plugin_name":"深度端口指纹识别","title":"Port: 1972 | Service: unknown","severity":"info","target":"http://zhibao.dzzq.com.cn","detail":"Port: 1972 | Service: unknown","evidence":"","request_log":"","plugin_type":"python","created_at":"2026-03-07T01:30:20.668+08:00"},{"id":2045,"task_id":10,"plugin_id":null,"plugin_name":"深度端口指纹识别","title":"Port: 10162 | Service: unknown","severity":"info","target":"http://zhibao.dzzq.com.cn","detail":"Port: 10162 | Service: unknown","evidence":"","request_log":"","plugin_type":"python","created_at":"2026-03-07T01:30:20.665+08:00"},{"id":2044,"task_id":10,"plugin_id":null,"plugin_name":"深度端口指纹识别","title":"Port: 1967 | Service: unknown","severity":"info","target":"http://zhibao.dzzq.com.cn","detail":"Port: 1967 | Service: unknown","evidence":"","request_log":"","plugin_type":"python","created_at":"2026-03-07T01:30:20.661+08:00"},{"id":2043,"task_id":10,"plugin_id":null,"plugin_name":"深度端口指纹识别","title":"Port: 6060 | Service: unknown","severity":"info","target":"http://zhibao.dzzq.com.cn","detail":"Port: 6060 | Service: unknown","evidence":"","request_log":"","plugin_type":"python","created_at":"2026-03-07T01:30:20.655+08:00"},{"id":2042,"task_id":10,"plugin_id":null,"plugin_name":"深度端口指纹识别","title":"Port: 12203 | Service: unknown","severity":"info","target":"http://zhibao.dzzq.com.cn","detail":"Port: 12203 | Service: unknown","evidence":"","request_log":"","plugin_type":"python","created_at":"2026-03-07T01:30:20.651+08:00"},{"id":2041,"task_id":10,"plugin_id":null,"plugin_name":"深度端口指纹识别","title":"Port: 4000 | Service: unknown","severity":"info","target":"http://zhibao.dzzq.com.cn","detail":"Port: 4000 | Service: unknown","evidence":"","request_log":"","plugin_type":"python","created_at":"2026-03-07T01:30:20.647+08:00"},{"id":2040,"task_id":10,"plugin_id":null,"plugin_name":"深度端口指纹识别","title":"Port: 14238 | Service: unknown","severity":"info","target":"http://zhibao.dzzq.com.cn","detail":"Port: 14238 | Service: unknown","evidence":"","request_log":"","plugin_type":"python","created_at":"2026-03-07T01:30:20.643+08:00"},{"id":2039,"task_id":10,"plugin_id":null,"plugin_name":"深度端口指纹识别","title":"Port: 47002 | Service: unknown","severity":"info","target":"http://zhibao.dzzq.com.cn","detail":"Port: 47002 | Service: unknown","evidence":"","request_log":"","plugin_type":"python","created_at":"2026-03-07T01:30:20.639+08:00"},{"id":2038,"task_id":10,"plugin_id":null,"plugin_name":"深度端口指纹识别","title":"Port: 3170 | Service: unknown","severity":"info","target":"http://zhibao.dzzq.com.cn","detail":"Port: 3170 | Service: unknown","evidence":"","request_log":"","plugin_type":"python","created_at":"2026-03-07T01:30:20.635+08:00"},{"id":2037,"task_id":10,"plugin_id":null,"plugin_name":"深度端口指纹识别","title":"Port: 7777 | Service: http | App: Tengine httpd","severity":"info","target":"http://zhibao.dzzq.com.cn","detail":"Port: 7777 | Service: http | App: Tengine httpd","evidence":"","request_log":"","plugin_type":"python","created_at":"2026-03-07T01:30:20.631+08:00"},{"id":2036,"task_id":10,"plugin_id":null,"plugin_name":"深度端口指纹识别","title":"Port: 8006 | Service: unknown","severity":"info","target":"http://zhibao.dzzq.com.cn","detail":"Port: 8006 | Service: unknown","evidence":"","request_log":"","plugin_type":"python","created_at":"2026-03-07T01:30:20.627+08:00"},{"id":2035,"task_id":10,"plugin_id":null,"plugin_name":"深度端口指纹识别","title":"Port: 5800 | Service: unknown","severity":"info","target":"http://zhibao.dzzq.com.cn","detail":"Port: 5800 | Service: unknown","evidence":"","request_log":"","plugin_type":"python","created_at":"2026-03-07T01:30:20.623+08:00"},{"id":2034,"task_id":10,"plugin_id":null,"plugin_name":"深度端口指纹识别","title":"Port: 1935 | Service: unknown","severity":"info","target":"http://zhibao.dzzq.com.cn","detail":"Port: 1935 | Service: unknown","evidence":"","request_log":"","plugin_type":"python","created_at":"2026-03-07T01:30:20.618+08:00"},{"id":2033,"task_id":10,"plugin_id":null,"plugin_name":"深度端口指纹识别","title":"Port: 6020 | Service: unknown","severity":"info","target":"http://zhibao.dzzq.com.cn","detail":"Port: 6020 | Service: unknown","evidence":"","request_log":"","plugin_type":"python","created_at":"2026-03-07T01:30:20.615+08:00"},{"id":2032,"task_id":10,"plugin_id":null,"plugin_name":"深度端口指纹识别","title":"Port: 6019 | Service: unknown","severity":"info","target":"http://zhibao.dzzq.com.cn","detail":"Port: 6019 | Service: unknown","evidence":"","request_log":"","plugin_type":"python","created_at":"2026-03-07T01:30:20.611+08:00"},{"id":2031,"task_id":10,"plugin_id":null,"plugin_name":"深度端口指纹识别","title":"Port: 6018 | Service: unknown","severity":"info","target":"http://zhibao.dzzq.com.cn","detail":"Port: 6018 | Service: unknown","evidence":"","request_log":"","plugin_type":"python","created_at":"2026-03-07T01:30:20.607+08:00"},{"id":2030,"task_id":10,"plugin_id":null,"plugin_name":"深度端口指纹识别","title":"Port: 6017 | Service: unknown","severity":"info","target":"http://zhibao.dzzq.com.cn","detail":"Port: 6017 | Service: unknown","evidence":"","request_log":"","plugin_type":"python","created_at":"2026-03-07T01:30:20.604+08:00"}],"total":822,"page":4,"pages":42}