{"items":[{"id":2839,"task_id":11,"plugin_id":null,"plugin_name":"深度端口指纹识别","title":"Port: 8006 | Service: unknown","severity":"info","target":"http://zhibao.dzzq.com.cn","detail":"Port: 8006 | Service: unknown","evidence":"","request_log":"","plugin_type":"python","created_at":"2026-03-07T02:00:21.002+08:00"},{"id":2838,"task_id":11,"plugin_id":null,"plugin_name":"深度端口指纹识别","title":"Port: 8005 | Service: unknown","severity":"info","target":"http://zhibao.dzzq.com.cn","detail":"Port: 8005 | Service: unknown","evidence":"","request_log":"","plugin_type":"python","created_at":"2026-03-07T02:00:20.997+08:00"},{"id":2837,"task_id":11,"plugin_id":null,"plugin_name":"深度端口指纹识别","title":"Port: 8004 | Service: unknown","severity":"info","target":"http://zhibao.dzzq.com.cn","detail":"Port: 8004 | Service: unknown","evidence":"","request_log":"","plugin_type":"python","created_at":"2026-03-07T02:00:20.991+08:00"},{"id":2836,"task_id":11,"plugin_id":null,"plugin_name":"深度端口指纹识别","title":"Port: 1521 | Service: unknown","severity":"info","target":"http://zhibao.dzzq.com.cn","detail":"Port: 1521 | Service: unknown","evidence":"","request_log":"","plugin_type":"python","created_at":"2026-03-07T02:00:20.966+08:00"},{"id":2835,"task_id":11,"plugin_id":null,"plugin_name":"深度端口指纹识别","title":"Port: 3900 | Service: unknown","severity":"info","target":"http://zhibao.dzzq.com.cn","detail":"Port: 3900 | Service: unknown","evidence":"","request_log":"","plugin_type":"python","created_at":"2026-03-07T02:00:20.962+08:00"},{"id":2834,"task_id":11,"plugin_id":null,"plugin_name":"深度端口指纹识别","title":"Port: 3892 | Service: unknown","severity":"info","target":"http://zhibao.dzzq.com.cn","detail":"Port: 3892 | Service: unknown","evidence":"","request_log":"","plugin_type":"python","created_at":"2026-03-07T02:00:20.958+08:00"},{"id":2833,"task_id":11,"plugin_id":null,"plugin_name":"深度端口指纹识别","title":"Port: 10031 | Service: unknown","severity":"info","target":"http://zhibao.dzzq.com.cn","detail":"Port: 10031 | Service: unknown","evidence":"","request_log":"","plugin_type":"python","created_at":"2026-03-07T02:00:20.954+08:00"},{"id":2832,"task_id":11,"plugin_id":null,"plugin_name":"深度端口指纹识别","title":"Port: 5443 | Service: ssl","severity":"info","target":"http://zhibao.dzzq.com.cn","detail":"Port: 5443 | Service: ssl","evidence":"","request_log":"","plugin_type":"python","created_at":"2026-03-07T02:00:20.95+08:00"},{"id":2831,"task_id":11,"plugin_id":null,"plugin_name":"深度端口指纹识别","title":"Port: 27138 | Service: unknown","severity":"info","target":"http://zhibao.dzzq.com.cn","detail":"Port: 27138 | Service: unknown","evidence":"","request_log":"","plugin_type":"python","created_at":"2026-03-07T02:00:20.946+08:00"},{"id":2830,"task_id":11,"plugin_id":null,"plugin_name":"深度端口指纹识别","title":"Port: 3175 | Service: unknown","severity":"info","target":"http://zhibao.dzzq.com.cn","detail":"Port: 3175 | Service: unknown","evidence":"","request_log":"","plugin_type":"python","created_at":"2026-03-07T02:00:20.942+08:00"},{"id":2829,"task_id":11,"plugin_id":null,"plugin_name":"深度端口指纹识别","title":"Port: 1830 | Service: unknown","severity":"info","target":"http://zhibao.dzzq.com.cn","detail":"Port: 1830 | Service: unknown","evidence":"","request_log":"","plugin_type":"python","created_at":"2026-03-07T02:00:20.938+08:00"},{"id":2828,"task_id":11,"plugin_id":null,"plugin_name":"深度端口指纹识别","title":"Port: 10005 | Service: unknown","severity":"info","target":"http://zhibao.dzzq.com.cn","detail":"Port: 10005 | Service: unknown","evidence":"","request_log":"","plugin_type":"python","created_at":"2026-03-07T02:00:20.934+08:00"},{"id":2827,"task_id":11,"plugin_id":null,"plugin_name":"深度端口指纹识别","title":"Port: 3872 | Service: unknown","severity":"info","target":"http://zhibao.dzzq.com.cn","detail":"Port: 3872 | Service: unknown","evidence":"","request_log":"","plugin_type":"python","created_at":"2026-03-07T02:00:20.93+08:00"},{"id":2826,"task_id":11,"plugin_id":null,"plugin_name":"深度端口指纹识别","title":"Port: 9991 | Service: unknown","severity":"info","target":"http://zhibao.dzzq.com.cn","detail":"Port: 9991 | Service: unknown","evidence":"","request_log":"","plugin_type":"python","created_at":"2026-03-07T02:00:20.926+08:00"},{"id":2825,"task_id":11,"plugin_id":null,"plugin_name":"深度端口指纹识别","title":"Port: 18182 | Service: unknown","severity":"info","target":"http://zhibao.dzzq.com.cn","detail":"Port: 18182 | Service: unknown","evidence":"","request_log":"","plugin_type":"python","created_at":"2026-03-07T02:00:20.922+08:00"},{"id":2824,"task_id":11,"plugin_id":null,"plugin_name":"深度端口指纹识别","title":"Port: 9987 | Service: unknown","severity":"info","target":"http://zhibao.dzzq.com.cn","detail":"Port: 9987 | Service: unknown","evidence":"","request_log":"","plugin_type":"python","created_at":"2026-03-07T02:00:20.918+08:00"},{"id":2823,"task_id":11,"plugin_id":null,"plugin_name":"深度端口指纹识别","title":"Port: 1604 | Service: unknown","severity":"info","target":"http://zhibao.dzzq.com.cn","detail":"Port: 1604 | Service: unknown","evidence":"","request_log":"","plugin_type":"python","created_at":"2026-03-07T02:00:20.914+08:00"},{"id":2822,"task_id":11,"plugin_id":null,"plugin_name":"深度端口指纹识别","title":"Port: 51234 | Service: unknown","severity":"info","target":"http://zhibao.dzzq.com.cn","detail":"Port: 51234 | Service: unknown","evidence":"","request_log":"","plugin_type":"python","created_at":"2026-03-07T02:00:20.911+08:00"},{"id":2821,"task_id":11,"plugin_id":null,"plugin_name":"深度端口指纹识别","title":"Port: 30444 | Service: unknown","severity":"info","target":"http://zhibao.dzzq.com.cn","detail":"Port: 30444 | Service: unknown","evidence":"","request_log":"","plugin_type":"python","created_at":"2026-03-07T02:00:20.906+08:00"},{"id":2820,"task_id":11,"plugin_id":null,"plugin_name":"深度端口指纹识别","title":"Port: 1763 | Service: unknown","severity":"info","target":"http://zhibao.dzzq.com.cn","detail":"Port: 1763 | Service: unknown","evidence":"","request_log":"","plugin_type":"python","created_at":"2026-03-07T02:00:20.901+08:00"}],"total":830,"page":6,"pages":42}