{"items":[{"id":2799,"task_id":11,"plugin_id":null,"plugin_name":"深度端口指纹识别","title":"Port: 1720 | Service: unknown","severity":"info","target":"http://zhibao.dzzq.com.cn","detail":"Port: 1720 | Service: unknown","evidence":"","request_log":"","plugin_type":"python","created_at":"2026-03-07T02:00:20.815+08:00"},{"id":2798,"task_id":11,"plugin_id":null,"plugin_name":"深度端口指纹识别","title":"Port: 1719 | Service: unknown","severity":"info","target":"http://zhibao.dzzq.com.cn","detail":"Port: 1719 | Service: unknown","evidence":"","request_log":"","plugin_type":"python","created_at":"2026-03-07T02:00:20.811+08:00"},{"id":2797,"task_id":11,"plugin_id":null,"plugin_name":"深度端口指纹识别","title":"Port: 9443 | Service: http | App: Tengine httpd","severity":"info","target":"http://zhibao.dzzq.com.cn","detail":"Port: 9443 | Service: http | App: Tengine httpd","evidence":"","request_log":"","plugin_type":"python","created_at":"2026-03-07T02:00:20.808+08:00"},{"id":2796,"task_id":11,"plugin_id":null,"plugin_name":"深度端口指纹识别","title":"Port: 9910 | Service: unknown","severity":"info","target":"http://zhibao.dzzq.com.cn","detail":"Port: 9910 | Service: unknown","evidence":"","request_log":"","plugin_type":"python","created_at":"2026-03-07T02:00:20.787+08:00"},{"id":2795,"task_id":11,"plugin_id":null,"plugin_name":"深度端口指纹识别","title":"Port: 5803 | Service: unknown","severity":"info","target":"http://zhibao.dzzq.com.cn","detail":"Port: 5803 | Service: unknown","evidence":"","request_log":"","plugin_type":"python","created_at":"2026-03-07T02:00:20.784+08:00"},{"id":2794,"task_id":11,"plugin_id":null,"plugin_name":"深度端口指纹识别","title":"Port: 14000 | Service: unknown","severity":"info","target":"http://zhibao.dzzq.com.cn","detail":"Port: 14000 | Service: unknown","evidence":"","request_log":"","plugin_type":"python","created_at":"2026-03-07T02:00:20.781+08:00"},{"id":2793,"task_id":11,"plugin_id":null,"plugin_name":"深度端口指纹识别","title":"Port: 5802 | Service: unknown","severity":"info","target":"http://zhibao.dzzq.com.cn","detail":"Port: 5802 | Service: unknown","evidence":"","request_log":"","plugin_type":"python","created_at":"2026-03-07T02:00:20.778+08:00"},{"id":2792,"task_id":11,"plugin_id":null,"plugin_name":"深度端口指纹识别","title":"Port: 5801 | Service: unknown","severity":"info","target":"http://zhibao.dzzq.com.cn","detail":"Port: 5801 | Service: unknown","evidence":"","request_log":"","plugin_type":"python","created_at":"2026-03-07T02:00:20.774+08:00"},{"id":2791,"task_id":11,"plugin_id":null,"plugin_name":"深度端口指纹识别","title":"Port: 1702 | Service: unknown","severity":"info","target":"http://zhibao.dzzq.com.cn","detail":"Port: 1702 | Service: unknown","evidence":"","request_log":"","plugin_type":"python","created_at":"2026-03-07T02:00:20.771+08:00"},{"id":2790,"task_id":11,"plugin_id":null,"plugin_name":"深度端口指纹识别","title":"Port: 18086 | Service: unknown","severity":"info","target":"http://zhibao.dzzq.com.cn","detail":"Port: 18086 | Service: unknown","evidence":"","request_log":"","plugin_type":"python","created_at":"2026-03-07T02:00:20.768+08:00"},{"id":2789,"task_id":11,"plugin_id":null,"plugin_name":"深度端口指纹识别","title":"Port: 27914 | Service: unknown","severity":"info","target":"http://zhibao.dzzq.com.cn","detail":"Port: 27914 | Service: unknown","evidence":"","request_log":"","plugin_type":"python","created_at":"2026-03-07T02:00:20.764+08:00"},{"id":2788,"task_id":11,"plugin_id":null,"plugin_name":"深度端口指纹识别","title":"Port: 3333 | Service: http | App: Tengine httpd","severity":"info","target":"http://zhibao.dzzq.com.cn","detail":"Port: 3333 | Service: http | App: Tengine httpd","evidence":"","request_log":"","plugin_type":"python","created_at":"2026-03-07T02:00:20.761+08:00"},{"id":2787,"task_id":11,"plugin_id":null,"plugin_name":"深度端口指纹识别","title":"Port: 3269 | Service: unknown","severity":"info","target":"http://zhibao.dzzq.com.cn","detail":"Port: 3269 | Service: unknown","evidence":"","request_log":"","plugin_type":"python","created_at":"2026-03-07T02:00:20.757+08:00"},{"id":2786,"task_id":11,"plugin_id":null,"plugin_name":"深度端口指纹识别","title":"Port: 7443 | Service: http | App: Tengine httpd","severity":"info","target":"http://zhibao.dzzq.com.cn","detail":"Port: 7443 | Service: http | App: Tengine httpd","evidence":"","request_log":"","plugin_type":"python","created_at":"2026-03-07T02:00:20.753+08:00"},{"id":2785,"task_id":11,"plugin_id":null,"plugin_name":"深度端口指纹识别","title":"Port: 1688 | Service: unknown","severity":"info","target":"http://zhibao.dzzq.com.cn","detail":"Port: 1688 | Service: unknown","evidence":"","request_log":"","plugin_type":"python","created_at":"2026-03-07T02:00:20.749+08:00"},{"id":2784,"task_id":11,"plugin_id":null,"plugin_name":"深度端口指纹识别","title":"Port: 1687 | Service: unknown","severity":"info","target":"http://zhibao.dzzq.com.cn","detail":"Port: 1687 | Service: unknown","evidence":"","request_log":"","plugin_type":"python","created_at":"2026-03-07T02:00:20.745+08:00"},{"id":2783,"task_id":11,"plugin_id":null,"plugin_name":"深度端口指纹识别","title":"Port: 9875 | Service: unknown","severity":"info","target":"http://zhibao.dzzq.com.cn","detail":"Port: 9875 | Service: unknown","evidence":"","request_log":"","plugin_type":"python","created_at":"2026-03-07T02:00:20.741+08:00"},{"id":2782,"task_id":11,"plugin_id":null,"plugin_name":"深度端口指纹识别","title":"Port: 1666 | Service: unknown","severity":"info","target":"http://zhibao.dzzq.com.cn","detail":"Port: 1666 | Service: unknown","evidence":"","request_log":"","plugin_type":"python","created_at":"2026-03-07T02:00:20.737+08:00"},{"id":2781,"task_id":11,"plugin_id":null,"plugin_name":"深度端口指纹识别","title":"Port: 26256 | Service: unknown","severity":"info","target":"http://zhibao.dzzq.com.cn","detail":"Port: 26256 | Service: unknown","evidence":"","request_log":"","plugin_type":"python","created_at":"2026-03-07T02:00:20.732+08:00"},{"id":2780,"task_id":11,"plugin_id":null,"plugin_name":"深度端口指纹识别","title":"Port: 16000 | Service: unknown","severity":"info","target":"http://zhibao.dzzq.com.cn","detail":"Port: 16000 | Service: unknown","evidence":"","request_log":"","plugin_type":"python","created_at":"2026-03-07T02:00:20.728+08:00"}],"total":830,"page":8,"pages":42}