{"items":[{"id":2069,"task_id":10,"plugin_id":null,"plugin_name":"深度端口指纹识别","title":"Port: 14000 | Service: unknown","severity":"info","target":"http://zhibao.dzzq.com.cn","detail":"Port: 14000 | Service: unknown","evidence":"","request_log":"","plugin_type":"python","created_at":"2026-03-07T01:30:20.779+08:00"},{"id":2068,"task_id":10,"plugin_id":null,"plugin_name":"深度端口指纹识别","title":"Port: 5900 | Service: unknown","severity":"info","target":"http://zhibao.dzzq.com.cn","detail":"Port: 5900 | Service: unknown","evidence":"","request_log":"","plugin_type":"python","created_at":"2026-03-07T01:30:20.774+08:00"},{"id":2067,"task_id":10,"plugin_id":null,"plugin_name":"深度端口指纹识别","title":"Port: 32756 | Service: unknown","severity":"info","target":"http://zhibao.dzzq.com.cn","detail":"Port: 32756 | Service: unknown","evidence":"","request_log":"","plugin_type":"python","created_at":"2026-03-07T01:30:20.77+08:00"},{"id":2066,"task_id":10,"plugin_id":null,"plugin_name":"深度端口指纹识别","title":"Port: 32755 | Service: unknown","severity":"info","target":"http://zhibao.dzzq.com.cn","detail":"Port: 32755 | Service: unknown","evidence":"","request_log":"","plugin_type":"python","created_at":"2026-03-07T01:30:20.765+08:00"},{"id":2065,"task_id":10,"plugin_id":null,"plugin_name":"深度端口指纹识别","title":"Port: 32754 | Service: unknown","severity":"info","target":"http://zhibao.dzzq.com.cn","detail":"Port: 32754 | Service: unknown","evidence":"","request_log":"","plugin_type":"python","created_at":"2026-03-07T01:30:20.761+08:00"},{"id":2064,"task_id":10,"plugin_id":null,"plugin_name":"深度端口指纹识别","title":"Port: 32753 | Service: unknown","severity":"info","target":"http://zhibao.dzzq.com.cn","detail":"Port: 32753 | Service: unknown","evidence":"","request_log":"","plugin_type":"python","created_at":"2026-03-07T01:30:20.757+08:00"},{"id":2063,"task_id":10,"plugin_id":null,"plugin_name":"深度端口指纹识别","title":"Port: 32752 | Service: unknown","severity":"info","target":"http://zhibao.dzzq.com.cn","detail":"Port: 32752 | Service: unknown","evidence":"","request_log":"","plugin_type":"python","created_at":"2026-03-07T01:30:20.753+08:00"},{"id":2062,"task_id":10,"plugin_id":null,"plugin_name":"深度端口指纹识别","title":"Port: 32751 | Service: unknown","severity":"info","target":"http://zhibao.dzzq.com.cn","detail":"Port: 32751 | Service: unknown","evidence":"","request_log":"","plugin_type":"python","created_at":"2026-03-07T01:30:20.748+08:00"},{"id":2061,"task_id":10,"plugin_id":null,"plugin_name":"深度端口指纹识别","title":"Port: 6015 | Service: unknown","severity":"info","target":"http://zhibao.dzzq.com.cn","detail":"Port: 6015 | Service: unknown","evidence":"","request_log":"","plugin_type":"python","created_at":"2026-03-07T01:30:20.744+08:00"},{"id":2060,"task_id":10,"plugin_id":null,"plugin_name":"深度端口指纹识别","title":"Port: 32750 | Service: unknown","severity":"info","target":"http://zhibao.dzzq.com.cn","detail":"Port: 32750 | Service: unknown","evidence":"","request_log":"","plugin_type":"python","created_at":"2026-03-07T01:30:20.739+08:00"},{"id":2059,"task_id":10,"plugin_id":null,"plugin_name":"深度端口指纹识别","title":"Port: 2030 | Service: unknown","severity":"info","target":"http://zhibao.dzzq.com.cn","detail":"Port: 2030 | Service: unknown","evidence":"","request_log":"","plugin_type":"python","created_at":"2026-03-07T01:30:20.735+08:00"},{"id":2058,"task_id":10,"plugin_id":null,"plugin_name":"深度端口指纹识别","title":"Port: 2024 | Service: unknown","severity":"info","target":"http://zhibao.dzzq.com.cn","detail":"Port: 2024 | Service: unknown","evidence":"","request_log":"","plugin_type":"python","created_at":"2026-03-07T01:30:20.731+08:00"},{"id":2057,"task_id":10,"plugin_id":null,"plugin_name":"深度端口指纹识别","title":"Port: 1719 | Service: unknown","severity":"info","target":"http://zhibao.dzzq.com.cn","detail":"Port: 1719 | Service: unknown","evidence":"","request_log":"","plugin_type":"python","created_at":"2026-03-07T01:30:20.727+08:00"},{"id":2056,"task_id":10,"plugin_id":null,"plugin_name":"深度端口指纹识别","title":"Port: 2023 | Service: unknown","severity":"info","target":"http://zhibao.dzzq.com.cn","detail":"Port: 2023 | Service: unknown","evidence":"","request_log":"","plugin_type":"python","created_at":"2026-03-07T01:30:20.723+08:00"},{"id":2055,"task_id":10,"plugin_id":null,"plugin_name":"深度端口指纹识别","title":"Port: 7800 | Service: http | App: Tengine httpd","severity":"info","target":"http://zhibao.dzzq.com.cn","detail":"Port: 7800 | Service: http | App: Tengine httpd","evidence":"","request_log":"","plugin_type":"python","created_at":"2026-03-07T01:30:20.718+08:00"},{"id":2054,"task_id":10,"plugin_id":null,"plugin_name":"深度端口指纹识别","title":"Port: 6112 | Service: unknown","severity":"info","target":"http://zhibao.dzzq.com.cn","detail":"Port: 6112 | Service: unknown","evidence":"","request_log":"","plugin_type":"python","created_at":"2026-03-07T01:30:20.714+08:00"},{"id":2053,"task_id":10,"plugin_id":null,"plugin_name":"深度端口指纹识别","title":"Port: 22490 | Service: unknown","severity":"info","target":"http://zhibao.dzzq.com.cn","detail":"Port: 22490 | Service: unknown","evidence":"","request_log":"","plugin_type":"python","created_at":"2026-03-07T01:30:20.711+08:00"},{"id":2052,"task_id":10,"plugin_id":null,"plugin_name":"深度端口指纹识别","title":"Port: 6103 | Service: unknown","severity":"info","target":"http://zhibao.dzzq.com.cn","detail":"Port: 6103 | Service: unknown","evidence":"","request_log":"","plugin_type":"python","created_at":"2026-03-07T01:30:20.708+08:00"},{"id":2051,"task_id":10,"plugin_id":null,"plugin_name":"深度端口指纹识别","title":"Port: 2001 | Service: unknown","severity":"info","target":"http://zhibao.dzzq.com.cn","detail":"Port: 2001 | Service: unknown","evidence":"","request_log":"","plugin_type":"python","created_at":"2026-03-07T01:30:20.705+08:00"},{"id":2050,"task_id":10,"plugin_id":null,"plugin_name":"深度端口指纹识别","title":"Port: 2002 | Service: unknown","severity":"info","target":"http://zhibao.dzzq.com.cn","detail":"Port: 2002 | Service: unknown","evidence":"","request_log":"","plugin_type":"python","created_at":"2026-03-07T01:30:20.702+08:00"}],"total":822,"page":3,"pages":42}